{
	"AD_AREA_WATER_01": {
		"en": "Get Light Blue Magicite for your Water Espers!",
		"ja": "水属性召喚獣の育成に最適な【水の魔石】系を獲得！"
	},
	"AD_AREA_FIRE_01": {
		"en": "Get Red Magicite for your Fire Espers!",
		"ja": "火属性召喚獣の育成に最適な【赤の魔石】系を獲得！"
	},
	"AD_AREA_SOIL_01": {
		"en": "Get Orange Magicite for your Earth Espers!",
		"ja": "土属性召喚獣の育成に最適な【橙の魔石】系を獲得！"
	},
	"AD_AREA_ICE_01": {
		"en": "Get Blue Magicite for your Ice Espers!",
		"ja": "氷属性召喚獣の育成に最適な【青の魔石】系を獲得！"
	},
	"AD_AREA_THUNDER_01": {
		"en": "Get Yellow Magicite for your Lightning Espers!",
		"ja": "雷属性召喚獣の育成に最適な【黄の魔石】系を獲得！"
	},
	"AD_AREA_DARK_01": {
		"en": "Get Purple Magicite for your Dark Espers!",
		"ja": "闇属性召喚獣の育成に最適な【紫の魔石】系を獲得！"
	},
	"AD_AREA_SHINE_01": {
		"en": "Get White Magicite for your Light Espers!",
		"ja": "光属性召喚獣の育成に最適な【白の魔石】系を獲得！"
	},
	"AD_AREA_WIND_01": {
		"en": "Get Green Magicite for your Wind Espers!",
		"ja": "風属性召喚獣の育成に最適な【緑の魔石】系を獲得！"
	},
	"AD_AREA_AF_01": {
		"en": "Get Adamantite to enhance your Equipment!",
		"ja": "武具強化に必要な【アダマンタイト】系を獲得！"
	},
	"AD_AREA_SM_01": {
		"en": "Get Magicite of all elements for your Espers!",
		"ja": "召喚獣の育成に必要な全属性の【魔石】系を獲得！"
	},
	"AD_AREA_FF01_01": {
		"ja": "FF1コラボ期間限定エリア！コラボメダルなどを獲得！",
		"en": "FF1 collaboration Limited area! Acquisition and collaboration medal!"
	},
	"AD_AREA_FFT_01": {
		"ja": "FFTコラボ期間限定エリア！コラボメダルなどを獲得！",
		"en": "FFT collaboration Limited area! Acquisition and collaboration medal!"
	}
}