{
	"TALK_001": {
		"ja": "アリーナとは、異界に集う見知らぬ者と<br>力を競える場所。",
		"en": "The Arena is a place where you can battle others who have gathered in the Farplane."
	},
	"TALK_002": {
		"ja": "勝敗によって順位が決まり、<br>毎週更新されるようです。",
		"en": "Your rank is determined based on the outcome of your battles, and it resets weekly."
	},
	"TALK_003": {
		"ja": "更新直後の初日はライバルが少ないので、<br>良い順位を狙うなら月曜日がおすすめかも<br>しれませんわね。",
		"en": "Because there is little competition on the first day after the reset, it may be best to start battling on Monday if you wish to attain a high rank."
	},
	"TALK_004": {
		"ja": "アリーナでの順位に応じて、<br>「アリーナメダル」と呼ばれるものが<br>もらえますわ。",
		"en": "You will receive items called Arena Medals based on your rank in the Arena."
	},
	"TALK_005": {
		"ja": "また、勝敗関係なく<br>参戦することへの報酬もあるようです。",
		"en": "You can also receive rewards for your participation that are unrelated to your performance in battle."
	},
	"TALK_006": {
		"ja": "もらえるものもさることながら、<br>他の者と対戦をすることで新たな戦術を<br>学ぶこともあるかと思われます。",
		"en": "In addition to receiving rewards, you are likely to learn new strategies by battling against other players."
	},
	"TALK_007": {
		"ja": "毎日参加されることをおすすめしますわ。",
		"en": "I recommend participating every day."
	},
	"DIALOG_001_T": {
		"ja": "◆アリーナ◆",
		"en": "• Arena •"
	},
	"DIALOG_001_M": {
		"ja": "他のプレイヤーとの<color=#00ffff>対戦モード</color>です。<br>3ユニット vs 3ユニット<br><color=#00ffff>オート操作</color>で戦います。",
		"en": "This is a <color=#00ffff>competitive mode</color> with other players. Your three units <color=#00ffff>automatically</color> face off against another player's three units."
	},
	"DIALOG_002_T": {
		"ja": "◆アリーナ2◆",
		"en": "• Arena II •"
	},
	"DIALOG_002_M": {
		"ja": "バトル時に<color=#00ffff>アリーナオーブ</color>を1つ消費します。<br>オーブが無くなった場合、<br><color=#00ffff>幻導石</color>で回復することも可能です。",
		"en": "One <color=#00ffff>Arena Orb</color> is consumed upon entering a battle. If you run out of orbs, you can use <color=#00ffff>Visiore</color> to restore them."
	},
	"DIALOG_003_T": {
		"ja": "◆ランキング◆",
		"en": "• Ranking •"
	},
	"DIALOG_003_M": {
		"ja": "勝敗に応じて<color=#00ffff>ポイント</color>が付与され、<br>ポイントによる<color=#00ffff>ランキング</color>が行われます。",
		"en": "You are awarded <color=#00ffff>points</color> based on the outcome of your battles, and you will be <color=#00ffff>ranked</color> based on how many points you have accrued."
	},
	"DIALOG_004_T": {
		"ja": "◆ランキング2◆",
		"en": "• Ranking II •"
	},
	"DIALOG_004_M": {
		"ja": "<color=#00ffff>ランキング</color>は<color=#00ffff>週間</color>です。<br>月曜5:00スタート翌週月曜4:59まで<br>上記結果で最終集計されます。",
		"en": "<color=#00ffff>Ranking</color> is determined <color=#00ffff>weekly</color>. It is based on a collective assessment of your battle performance from Monday at 12:00 a.m. (PST) to the following Sunday at 11:59 p.m. (PST)."
	},
	"DIALOG_005_T": {
		"ja": "◆ランキング3◆",
		"en": "• Ranking III •"
	},
	"DIALOG_005_M": {
		"ja": "<color=#00ffff>最終日</color>に<br><color=#00ffff>総合ランキング</color>に応じて<color=#00ffff>報酬</color>が発生する他…",
		"en": "In addition to receiving <color=#00ffff>rewards</color> based on your <color=#00ffff>finalized rank</color> on the <color=#00ffff>last day</color>..."
	},
	"DIALOG_006_T": {
		"ja": "◆ランキング4◆",
		"en": "• Ranking IV •"
	},
	"DIALOG_006_M": {
		"ja": "月曜から<color=#00ffff>毎日</color>、<br><color=#00ffff>最新ランキング</color>に応じて<color=#00ffff>報酬</color>が付与されます。",
		"en": "...<color=#00ffff>every day</color>, starting from Monday, you will be given <color=#00ffff>rewards</color> based on your <color=#00ffff>current rank</color>."
	},
	"DIALOG_007_T": {
		"ja": "◆アリーナメダル◆",
		"en": "• Arena Medals •"
	},
	"DIALOG_007_M": {
		"ja": "<color=#00ffff>アリーナメダル</color>は専用の交換所で<br>希少な<color=#00ffff>アイテム</color>と<color=#00ffff>交換</color>することが可能です。",
		"en": "<color=#00ffff>Arena Medals</color> can be <color=#00ffff>exchanged</color> for rare <color=#00ffff>items</color> at the Arena Medal Exchange Shop."
	},
	"DIALOG_008_T": {
		"ja": "◆参加報酬◆",
		"en": "• Participation Rewards •"
	},
	"DIALOG_008_M": {
		"ja": "<color=#00ffff>毎日</color>、対戦するたびに<color=#00ffff>報酬</color>が受け取れます。<br>（1日最大5回）",
		"en": "<color=#00ffff>Every day</color>, you will receive <color=#00ffff>rewards</color> each time you battle (up to five times a day)."
	},
	"SKIP_TITLE": {
		"ja": "◆アリーナ◆",
		"en": "• Arena •"
	},
	"SKIP_MSG": {
		"ja": "アリーナに関するチュートリアルに進みますか？",
		"en": "Proceed to a tutorial on the Arena?"
	},
	"SKIP_YES": {
		"ja": "はい",
		"en": "Yes"
	},
	"SKIP_NO": {
		"ja": "いいえ",
		"en": "No"
	}
}