{
	"001": {
		"en": "I will now discuss <color=#0000ff>evocation magic</color>.",
		"ja": "今回は、<color=#0000ff>召喚魔法</color>について<br>お伝えいたします。"
	},
	"002": {
		"en": "If you equip espers, you can use powerful evocation magic. However, you must fill the <color=#0000ff>evocation gauge</color> to do so.",
		"ja": "召喚獣を装備すると強力な召喚魔法を<br>使用できるのですが、そのためには<br><color=#0000ff>召喚ゲージ</color>をためる必要があります。"
	},
	"003": {
		"en": "The evocation gauge fills whenever a party member <color=#0000ff>attacks an enemy</color>.",
		"ja": "召喚ゲージは、<br>味方の誰かが<color=#0000ff>敵を攻撃する</color>と<br>ためることができますわ。"
	},
	"004": {
		"en": "You can fill the gauge with all attacks—including normal ones. Also, striking an enemy from the <color=#0000ff>side</color> or <color=#0000ff>rear</color> rather than the front can fill the gauge more quickly.",
		"ja": "通常攻撃以外でもためることが可能で、<br>正面より<color=#0000ff>側面</color>や<color=#0000ff>背面</color>から攻撃した方が<br>大きくたまります。"
	},
	"005": {
		"en": "Even more of the gauge will be filled if you land a <color=#0000ff>critical hit</color> or <color=#0000ff>KO</color> an enemy.",
		"ja": "<color=#0000ff>クリティカル攻撃</color>を決めたり、<br>敵を<color=#0000ff>戦闘不能</color>にすると<br>さらに大きくためることができます。"
	},
	"006": {
		"en": "Lord Mont, I see that you have Ifrit equipped.",
		"ja": "今回はモント様がイフリートを装備して<br>おられます。"
	},
	"007": {
		"en": "The evocation magic Hellfire not only damages enemies over a wide range...",
		"ja": "召喚魔法の「地獄の火炎」は<br>広範囲の敵にダメージを与えるだけでなく……"
	},
	"008": {
		"en": "...it also temporarily increases the <color=#0000ff>attack power of your party</color>. Moreover, it carries the extraordinarily powerful effect of <color=#0000ff>reducing fire resistance for all enemies</color>.",
		"ja": "しばらくの間<color=#0000ff>味方全員の攻撃力</color>が上昇し、<br>さらに<color=#0000ff>敵全員の火属性耐性</color>が低下する<br>という非常に強力なものです。"
	},
	"009": {
		"en": "Though Hellfire can only be used once per battle, if you make good use of it, units of the fire element such as King Oelde and Lilyth will be able to play an even more active role in battle.",
		"ja": "一度しか使用できませんが、うまく<br>発動させれば、火属性であるエルデ様や<br>リリシュがさらに活躍できることでしょう。"
	},
	"010": {
		"en": "Splendid, Lord Mont!",
		"ja": "お見事です、モント様！"
	},
	"011": {
		"en": "I have heard that there are <color=#0000ff>a great number of espers</color> in this world other than Ifrit.",
		"ja": "この世界にはイフリートの他にも<br><color=#0000ff>数多くの召喚獣</color>が存在すると<br>聞いております。"
	},
	"012": {
		"en": "I am looking forward to seeing you obtain and master them, Lord Mont.",
		"ja": "モント様がそれらを手に入れ、<br>使いこなすのを楽しみにしておりますわ。"
	}
}