{
	"001": {
		"en": "Let us now talk about <color=#0000ff>KO status</color> and <color=#0000ff>withdrawal from battle</color>.",
		"ja": "今回は<color=#0000ff>戦闘不能</color>と<color=#0000ff>戦闘離脱</color>について<br>お話いたしましょう。"
	},
	"002": {
		"en": "If a unit's <color=#0000ff>HP drops to 0</color>, that unit will become <color=#0000ff>unable to fight (KO'd)</color>, and <color=#0000ff>a red text bubble</color> with the number 3 will appear over their head.",
		"ja": "<color=#0000ff>HPが0</color>になると、そのユニットは<br><color=#0000ff>戦闘不能</color>状態となり、「3」という<br><color=#0000ff>赤い吹き出し</color>が点灯します。"
	},
	"003": {
		"en": "While this text bubble is overhead, you can <color=#0000ff>revive</color> your unit with a <color=#0000ff>Phoenix Down</color> or by using <color=#0000ff>Raise</color> magic.",
		"ja": "この吹き出しが出ている間は<br><color=#0000ff>フェニックスの尾</color>や<color=#0000ff>レイズ</color>の魔法などで<br><color=#0000ff>蘇生</color>することができますわ。"
	},
	"004": {
		"en": "However, if the unit remains KO'd <color=#0000ff>through their subsequent turns</color> and the number in the text bubble <color=#0000ff>falls to 0</color>, on the next turn...",
		"ja": "ただ、戦闘不能のまま<color=#0000ff>次の手順を迎えると<br></color>「2」「1」「0」と吹き出しの中の数字が<br><color=#0000ff>減っていき</color>、その次の手順が来ると……。"
	},
	"005": {
		"en": "...that unit will <color=#0000ff>withdraw</color> from battle. Please rest assured that even if the unit withdraws, they <color=#0000ff>will not disappear</color> from your possessed units.",
		"ja": "そのユニットはこの戦闘から<color=#0000ff>離脱</color>して<br>しまいます。離脱しても、ユニットが<br><color=#0000ff>消失することはありません</color>のでご安心を。"
	},
	"006": {
		"en": "That said, do note that withdrawn units cannot return to participate in that particular battle.",
		"ja": "しかし、撤退してやり直さない限り<br>戦闘には参加できませんので<br>注意が必要ですわ。"
	},
	"007": {
		"en": "Now, then... The enemies that have gathered this time are very strong.",
		"ja": "さて。<br>今回の敵は強者が揃っています。"
	},
	"008": {
		"en": "Please use Ayaka's abilities <color=#0000ff>Cure</color> and <color=#0000ff>Raise</color> aptly in battle while you dispatch the enemy.",
		"ja": "アヤカがもつ<color=#0000ff>ケアル</color>や<color=#0000ff>レイズ</color>をうまく使って<br>敵を撃破してください。"
	}
}