{
	"001": {
		"en": "I will now explain about <color=#0000ff>crystals</color> and <color=#0000ff>item drops</color>.",
		"ja": "今回は<color=#0000ff>クリスタル</color>と<br><color=#0000ff>アイテムドロップ</color>についてお伝えしますわ。"
	},
	"002": {
		"en": "Crystals form when a unit <color=#0000ff>withdraws</color> from battle.",
		"ja": "クリスタルは、ユニットが<br>戦闘から<color=#0000ff>離脱</color>するときに発生する<br>ことがあります。"
	},
	"003": {
		"en": "It is also possible for them to be on the map at the beginning of battle.",
		"ja": "また、マップに最初から存在している<br>こともあるようです。"
	},
	"004": {
		"en": "Crystals can be acquired by finishing a unit's move on top of them. They <color=#0000ff>recover a unit's HP and TP</color>, and the unit's <color=#0000ff>Bravery will increase</color> as well.",
		"ja": "クリスタルの上で行動を終了すると<br>取得できます。<color=#0000ff>HPとTPを回復</color>し、<br>さらに<color=#0000ff>Braveを上げる</color>効果があります。"
	},
	"005": {
		"en": "However, it is important to note that enemies can also acquire crystals.",
		"ja": "ただし、敵がクリスタルを取得することも<br>あるので注意が必要ですわ。"
	},
	"006": {
		"en": "Additionally, items can be <color=#0000ff>obtained</color> from <color=#0000ff>KO'd enemies</color>. These are called <color=#0000ff>item drops</color>.",
		"ja": "また、敵を<color=#0000ff>戦闘不能</color>にしたときに<br>アイテムを<color=#0000ff>入手</color>することがあります。<br>これを<color=#0000ff>アイテムドロップ</color>と呼びます。"
	},
	"007": {
		"en": "The number of items you have acquired from item drops is displayed next to the <color=#0000ff>Treasure Chest icon</color> on the screen.",
		"ja": "取得したアイテムの数は、<br>画面上の<color=#0000ff>宝箱アイコン</color>の隣に<br>表示されております。"
	},
	"008": {
		"en": "It is also possible to confirm what you have acquired via the Menu.",
		"ja": "何を取得したかは<br>メニューから確認することも可能です。"
	},
	"009": {
		"en": "Now then, Learte is being targeted by the enemy. Please make good use of the crystals and push through this battle.",
		"ja": "さて、今回の戦闘ではリアートが<br>敵に狙われているようです。クリスタルを<br>うまく使って切り抜けてください。"
	}
}