{
	"LEONIS": {
		"en": "Leonis",
		"ja": "Leonis"
	},
	"HOURN": {
		"en": "Hourne",
		"ja": "Hourn"
	},
	"FENICE": {
		"en": "Fennes",
		"ja": "Fenice"
	},
	"WEZETT": {
		"en": "Wezette",
		"ja": "Wezett"
	},
	"CRYSTALFAITH": {
		"en": "Crystal Sanctum",
		"ja": "CrystalFaith"
	},
	"ALLYARE": {
		"en": "Ariale",
		"ja": "Allyare"
	},
	"RUNDALL": {
		"en": "Rundall",
		"ja": "Rundall"
	},
	"CYGA": {
		"en": "Saiga",
		"ja": "Cyga"
	},
	"GUREN": {
		"en": "Rubeus",
		"ja": "Guren"
	},
	"OWIS": {
		"en": "Ovis",
		"ja": "Owis"
	},
	"HYNDRA": {
		"en": "Heindler",
		"ja": "Hyndra"
	},
	"GOGA": {
		"en": "Gouga",
		"ja": "Goga"
	},
	"FFBE": {
		"en": "FFBE",
		"ja": "FFBE"
	},
	"FF14": {
		"en": "FFXIV: Shadowbringers",
		"ja": "FF14"
	},
	"FFT": {
		"ja": "FINAL FANTASY TACTICS",
		"en": "FINAL FANTASY TACTICS"
	},
	"FF1": {
		"ja": "FINAL FANTASY I",
		"en": "FINAL FANTASY I"
	},
	"RESERVE01": {
		"ja": "Reserve01",
		"en": "Reserve01"
	}
}