{
	"1": {
		"en": "Beginners' Chat",
		"ja": "初心者雑談"
	},
	"2": {
		"en": "Question Room",
		"ja": "質問部屋"
	},
	"3": {
		"en": "Friend Invites",
		"ja": "フレンド募集"
	},
	"4": {
		"en": "Guild Recruitment",
		"ja": "ギルド募集"
	},
	"5": {
		"en": "Multi/Raid Recruitment",
		"ja": "マルチ/レイド募集"
	},
	"6": {
		"en": "Opponent Invites",
		"ja": "対戦相手募集"
	},
	"17": {
		"en": "General Chat 01",
		"ja": "雑談部屋01"
	},
	"18": {
		"en": "General Chat 02",
		"ja": "雑談部屋02"
	},
	"19": {
		"en": "General Chat 03",
		"ja": "雑談部屋03"
	},
	"20": {
		"en": "General Chat 04",
		"ja": "雑談部屋04"
	}
}