{
	"001": {
		"ja": "この人たちは……。",
		"en": "These people ...."
	},
	"002": {
		"ja": "私の師匠よ。<br>オー様、それにシムール様。",
		"en": "My teacher. <br> Oh like, it Shimuru like."
	},
	"003": {
		"ja": "この者はラヴィエスです。<br>浜辺に倒れていました。",
		"en": "This person is Raviesu. <br> had fallen on the beach."
	},
	"004": {
		"ja": "こんな真っ昼間から<br>お酒を呑んでいるのが師匠？",
		"en": "Teacher that is in drunk the <br> liquor from such broad daylight?"
	},
	"005": {
		"ja": "ひゃっひゃひゃひゃ。<br>これは手厳しいですなぁ。",
		"en": "Hyahhyahyahya. <br> This is Naa is damning."
	},
	"006": {
		"ja": "かーっ！<br>五臓六腑に染みわたるぜ。<br>堪らんなぁ。",
		"en": "Ka'! Over stain to <br> internal organs. <br> Naa does unbearable."
	},
	"007": {
		"ja": "これが東方のサムライ。<br>……幻滅した？",
		"en": "This is east of the samurai. <br> ...... disillusioned?"
	},
	"008": {
		"ja": "荒れ狂う海を越え<br>遙か東方まで来たというのに……。",
		"en": "...... Even though I came to <br> far east beyond the raging sea."
	},
	"009": {
		"ja": "……！！",
		"en": "......! !"
	},
	"010": {
		"ja": "怒ったの……？",
		"en": "Angry of ...?"
	},
	"011": {
		"ja": "……この気配に気づかぬとは。",
		"en": "...... and unexpected notice this sign is."
	},
	"012": {
		"ja": "まだまだですなぁ。<br>ひゃっひゃひゃひゃ。",
		"en": "Naa is still. <br> Hyahhyahyahya."
	},
	"013": {
		"ja": "え……。",
		"en": "e……."
	},
	"014": {
		"ja": "己の殺気の強さに<br>他者の気配がかき消されてしまう。",
		"en": "His own sign of <br> others on the strength of the thirst for blood will be drowned out."
	},
	"015": {
		"ja": "そういえば半月ほど前にも<br>やたらと殺気をまき散らす者が<br>この地に流れてきたな。",
		"en": "It has been a person who intersperse <br> profusely thirst for blood even before about half a month to think of it is <br> flow in this land."
	},
	"016": {
		"ja": "その男は、どこに！？",
		"en": "The man, anywhere! ?"
	},
	"017": {
		"ja": "おやおや。<br>男などとは言っておりませんぞ。<br>ひゃっひゃひゃひゃ。",
		"en": "Aw. <br> not saying such a man. <br> Hyahhyahyahya."
	},
	"018": {
		"ja": "…………。",
		"en": "............."
	},
	"019": {
		"ja": "……来るわ。",
		"en": "...... I come."
	},
	"020": {
		"ja": "ラヴィエス……。<br>気を引き締めて。",
		"en": "Raviesu ....... <br> tightening care."
	},
	"021": {
		"ja": "……わかってる。",
		"en": "……I know."
	}
}