{
	"001": {
		"ja": "スケルトンのボスを倒したわ！",
		"en": "We defeated the skeleton boss!"
	},
	"002": {
		"ja": "これで任務達成だな！",
		"en": "With this, our task is complete!"
	},
	"003": {
		"ja": "やったー！<br>じゃあ、リオニス城に戻りましょう！",
		"en": "Woo-hoo! Then let's head back to Leonis Castle!"
	}
}