{
	"001": {
		"ja": "ダリオ様……。",
		"en": "Lord Dario..."
	},
	"002": {
		"ja": "そろそろお別れだね。<br>ヴィネラ……。",
		"en": "We must part soon, Vinera..."
	},
	"003": {
		"ja": "いやです！<br>あたしも一緒に……！",
		"en": "No! I'm going with you—!"
	},
	"004": {
		"ja": "君の言うことは<br>何でも叶えてあげたいけれど<br>それだけはダメだよ。",
		"en": "I would give you aught you wanted, but what you are saying now is the one thing I cannot grant you."
	},
	"005": {
		"ja": "どうして……！<br>こんなに愛してるのに！",
		"en": "Why not...!? Though I love you so!?"
	},
	"006": {
		"ja": "君のお腹には<br>私たちの子がいるんだろ。",
		"en": "Our child grows within you, if I am not mistaken."
	},
	"007": {
		"ja": "どうして、それを……。",
		"en": "How did you—"
	},
	"008": {
		"ja": "わかるさ。<br>それぐらいはね。",
		"en": "I just know. At least that much, anyway."
	},
	"009": {
		"ja": "…………。",
		"en": "......"
	},
	"010": {
		"ja": "何の罪もない子どもを<br>巻き添えにするわけにはゆかない。",
		"en": "We cannot involve an innocent child in this."
	},
	"011": {
		"ja": "もしも、その子が<br>この世に生まれてきたら……。",
		"en": "If that child is born into this world—"
	},
	"012": {
		"ja": "戦に出るようなことは<br>させないでほしい、と？",
		"en": "You wish for me to keep it safe from the terrors of war?"
	},
	"013": {
		"ja": "いや、そうじゃないよ。",
		"en": "No, that is not it."
	},
	"014": {
		"ja": "何も押しつけないで。",
		"en": "Do not impose anything on it."
	},
	"015": {
		"ja": "どうか、その子の望むように<br>生きさせてあげてほしい。",
		"en": "I hope you shall let our child live as he or she wishes."
	},
	"016": {
		"ja": "この世の中で<br>一番尊いのは自由だから……。",
		"en": "Because in this world, nothing is more precious than freedom..."
	},
	"017": {
		"ja": "君なら……<br>わかってくれるよね。",
		"en": "You of all people understand what I mean, right?"
	},
	"018": {
		"ja": "……はい。",
		"en": "...Right."
	},
	"019": {
		"ja": "それから、もう一つ。",
		"en": "There is one more thing."
	},
	"020": {
		"ja": "もしもマシュリーに<br>出会う機会があったら……。",
		"en": "If you have the chance to meet Machérie..."
	},
	"021": {
		"ja": "許してくれ、と……。",
		"en": "Tell her I said, \"Please forgive me\"..."
	},
	"022": {
		"ja": "…………。",
		"en": "......"
	},
	"023": {
		"ja": "ダリオ様？",
		"en": "Lord Dario?"
	},
	"024": {
		"ja": "ダリオ様……<br>お願い、あたしを一人にしないで。",
		"en": "Lord Dario... Please, don't leave me all alone."
	},
	"025": {
		"ja": "ヴィネラ……！<br>誰か来る！",
		"en": "Vinera...! Someone is coming!"
	},
	"026": {
		"ja": "……！！",
		"en": "......!!"
	},
	"027": {
		"ja": "ダリオ様……<br>この子を立派に育てて見せます。",
		"en": "Lord Dario... I will raise this child with everything I have to give."
	},
	"028": {
		"ja": "だから……<br>見守っててください。",
		"en": "So please...watch over us."
	}
}