{
	"IT_CG_01": {
		"ja": "探検チョコボ",
		"en": "Chocobo Expedition"
	},
	"IT_CG_02": {
		"ja": "探検チョコボ/ソウルメダル【SSR】交換所/ビジョンメダル【SSR】交換所",
		"en": "Chocobo Expedition / MR Soul Medal Exchange Shop / MR Vision Medal Exchange Shop"
	},
	"IT_CG_03": {
		"ja": "ソウルメダル【UR】交換所/ビジョンメダル【UR】交換所",
		"en": "UR Soul Medal Exchange Shop / UR Vision Medal Exchange Shop"
	},
	"IT_CG_04": {
		"ja": "ソウルメダル【UR】交換所",
		"en": "UR Soul Medal Exchange Shop"
	},
	"IT_US_EXP_01": {
		"ja": "通常ショップ/気まぐれ屋/ソウルメダル【R】交換所",
		"en": "General Shop / Whimsy Shop / R Soul Medal Exchange Shop"
	},
	"IT_US_EXP_02": {
		"ja": "通常ショップ/気まぐれ屋/探検チョコボ/ソウルメダル【SR】交換所",
		"en": "General Shop / Whimsy Shop / Chocobo Expedition / SR Soul Medal Exchange Shop"
	},
	"IT_US_EXP_03": {
		"ja": "ソウルメダル【SSR】交換所",
		"en": "MR Soul Medal Exchange Shop"
	},
	"IT_US_EXP_04": {
		"ja": "ソウルメダル【UR】交換所",
		"en": "UR Soul Medal Exchange Shop"
	},
	"IT_JB_MM_ALL": {
		"ja": "通常ショップ/気まぐれ屋/探検チョコボ",
		"en": "General Shop / Whimsy Shop / Chocobo Expedition"
	},
	"IT_JB_MM_ALL_2": {
		"ja": "通常ショップ/気まぐれ屋/探検チョコボ/ソウルメダル【R】交換所",
		"en": "General Shop / Whimsy Shop / Chocobo Expedition / R Soul Medal Exchange Shop"
	},
	"IT_JB_MM_ALL_3": {
		"ja": "通常ショップ/気まぐれ屋/探検チョコボ/ソウルメダル【SR】交換所",
		"en": "General Shop / Whimsy Shop / Chocobo Expedition / SR Soul Medal Exchange Shop"
	},
	"IT_JB_MM_ALL_4": {
		"ja": "通常ショップ/気まぐれ屋/ソウルメダル【SSR】交換所",
		"en": "General Shop / Whimsy Shop / Friend Medal Exchange Shop / MR Soul Medal Exchange Shop"
	},
	"IT_JB_MM_ALL_5": {
		"ja": "通常ショップ/気まぐれ屋/ソウルメダル【UR】交換所",
		"en": "General Shop / Whimsy Shop / Friend Medal Exchange Shop / UR Soul Medal Exchange Shop"
	},
	"IT_JB_SWORD_01": {
		"ja": "通常ショップ",
		"en": "General Shop"
	},
	"IT_JB_SWORD_02": {
		"ja": "通常ショップ",
		"en": "General Shop"
	},
	"IT_JB_SWORD_03": {
		"ja": "通常ショップ",
		"en": "General Shop"
	},
	"IT_JB_SWORD_04": {
		"ja": "通常ショップ",
		"en": "General Shop"
	},
	"IT_JB_SWORD_05": {
		"ja": "通常ショップ",
		"en": "General Shop"
	},
	"IT_JB_LSWORD_01": {
		"ja": "通常ショップ",
		"en": "General Shop"
	},
	"IT_JB_LSWORD_02": {
		"ja": "通常ショップ",
		"en": "General Shop"
	},
	"IT_JB_LSWORD_03": {
		"ja": "通常ショップ",
		"en": "General Shop"
	},
	"IT_JB_LSWORD_04": {
		"ja": "通常ショップ",
		"en": "General Shop"
	},
	"IT_JB_LSWORD_05": {
		"ja": "通常ショップ",
		"en": "General Shop"
	},
	"IT_JB_JSWORD_01": {
		"ja": "通常ショップ",
		"en": "General Shop"
	},
	"IT_JB_JSWORD_02": {
		"ja": "通常ショップ",
		"en": "General Shop"
	},
	"IT_JB_JSWORD_03": {
		"ja": "通常ショップ",
		"en": "General Shop"
	},
	"IT_JB_JSWORD_04": {
		"ja": "通常ショップ",
		"en": "General Shop"
	},
	"IT_JB_JSWORD_05": {
		"ja": "通常ショップ",
		"en": "General Shop"
	},
	"IT_JB_FIST_01": {
		"ja": "通常ショップ",
		"en": "General Shop"
	},
	"IT_JB_FIST_02": {
		"ja": "通常ショップ",
		"en": "General Shop"
	},
	"IT_JB_FIST_03": {
		"ja": "通常ショップ",
		"en": "General Shop"
	},
	"IT_JB_FIST_04": {
		"ja": "通常ショップ",
		"en": "General Shop"
	},
	"IT_JB_FIST_05": {
		"ja": "通常ショップ",
		"en": "General Shop"
	},
	"IT_JB_SPEAR_01": {
		"ja": "通常ショップ",
		"en": "General Shop"
	},
	"IT_JB_SPEAR_02": {
		"ja": "通常ショップ",
		"en": "General Shop"
	},
	"IT_JB_SPEAR_03": {
		"ja": "通常ショップ",
		"en": "General Shop"
	},
	"IT_JB_SPEAR_04": {
		"ja": "通常ショップ",
		"en": "General Shop"
	},
	"IT_JB_SPEAR_05": {
		"ja": "通常ショップ",
		"en": "General Shop"
	},
	"IT_JB_SSWORD_01": {
		"ja": "通常ショップ",
		"en": "General Shop"
	},
	"IT_JB_SSWORD_02": {
		"ja": "通常ショップ",
		"en": "General Shop"
	},
	"IT_JB_SSWORD_03": {
		"ja": "通常ショップ",
		"en": "General Shop"
	},
	"IT_JB_SSWORD_04": {
		"ja": "通常ショップ",
		"en": "General Shop"
	},
	"IT_JB_SSWORD_05": {
		"ja": "通常ショップ",
		"en": "General Shop"
	},
	"IT_JB_KUNAI_01": {
		"ja": "通常ショップ",
		"en": "General Shop"
	},
	"IT_JB_KUNAI_02": {
		"ja": "通常ショップ",
		"en": "General Shop"
	},
	"IT_JB_KUNAI_03": {
		"ja": "通常ショップ",
		"en": "General Shop"
	},
	"IT_JB_KUNAI_04": {
		"ja": "通常ショップ",
		"en": "General Shop"
	},
	"IT_JB_KUNAI_05": {
		"ja": "通常ショップ",
		"en": "General Shop"
	},
	"IT_JB_BOW_01": {
		"ja": "通常ショップ",
		"en": "General Shop"
	},
	"IT_JB_BOW_02": {
		"ja": "通常ショップ",
		"en": "General Shop"
	},
	"IT_JB_BOW_03": {
		"ja": "通常ショップ",
		"en": "General Shop"
	},
	"IT_JB_BOW_04": {
		"ja": "通常ショップ",
		"en": "General Shop"
	},
	"IT_JB_BOW_05": {
		"ja": "通常ショップ",
		"en": "General Shop"
	},
	"IT_JB_GUN_01": {
		"ja": "通常ショップ",
		"en": "General Shop"
	},
	"IT_JB_GUN_02": {
		"ja": "通常ショップ",
		"en": "General Shop"
	},
	"IT_JB_GUN_03": {
		"ja": "通常ショップ",
		"en": "General Shop"
	},
	"IT_JB_GUN_04": {
		"ja": "通常ショップ",
		"en": "General Shop"
	},
	"IT_JB_GUN_05": {
		"ja": "通常ショップ",
		"en": "General Shop"
	},
	"IT_JB_STAFF_01": {
		"ja": "通常ショップ",
		"en": "General Shop"
	},
	"IT_JB_STAFF_02": {
		"ja": "通常ショップ",
		"en": "General Shop"
	},
	"IT_JB_STAFF_03": {
		"ja": "通常ショップ",
		"en": "General Shop"
	},
	"IT_JB_STAFF_04": {
		"ja": "通常ショップ",
		"en": "General Shop"
	},
	"IT_JB_STAFF_05": {
		"ja": "通常ショップ",
		"en": "General Shop"
	},
	"IT_JB_MACE_01": {
		"ja": "通常ショップ",
		"en": "General Shop"
	},
	"IT_JB_MACE_02": {
		"ja": "通常ショップ",
		"en": "General Shop"
	},
	"IT_JB_MACE_03": {
		"ja": "通常ショップ",
		"en": "General Shop"
	},
	"IT_JB_MACE_04": {
		"ja": "通常ショップ",
		"en": "General Shop"
	},
	"IT_JB_MACE_05": {
		"ja": "通常ショップ",
		"en": "General Shop"
	},
	"IT_JB_AXE_01": {
		"ja": "通常ショップ",
		"en": "General Shop"
	},
	"IT_JB_AXE_02": {
		"ja": "通常ショップ",
		"en": "General Shop"
	},
	"IT_JB_AXE_03": {
		"ja": "通常ショップ",
		"en": "General Shop"
	},
	"IT_JB_AXE_04": {
		"ja": "通常ショップ",
		"en": "General Shop"
	},
	"IT_JB_AXE_05": {
		"ja": "通常ショップ",
		"en": "General Shop"
	},
	"IT_JB_MM_WAR_2": {
		"ja": "ソウルメダル【R】交換所",
		"en": "R Soul Medal Exchange Shop"
	},
	"IT_JB_MM_WAR_3": {
		"ja": "ソウルメダル【SR】交換所",
		"en": "SR Soul Medal Exchange Shop"
	},
	"IT_JB_MM_WAR_4": {
		"ja": "ソウルメダル【SSR】交換所",
		"en": "MR Soul Medal Exchange Shop"
	},
	"IT_JB_MM_WAR_5": {
		"ja": "フレンドメダル交換所/ソウルメダル【UR】交換所/ギルドメダル交換所",
		"en": "UR Soul Medal Exchange Shop"
	},
	"IT_JB_MM_KNT_2": {
		"ja": "ソウルメダル【R】交換所",
		"en": "R Soul Medal Exchange Shop"
	},
	"IT_JB_MM_KNT_3": {
		"ja": "ソウルメダル【SR】交換所",
		"en": "SR Soul Medal Exchange Shop"
	},
	"IT_JB_MM_KNT_4": {
		"ja": "ソウルメダル【SSR】交換所",
		"en": "MR Soul Medal Exchange Shop"
	},
	"IT_JB_MM_KNT_5": {
		"ja": "フレンドメダル交換所/ソウルメダル【UR】交換所/ギルドメダル交換所",
		"en": "UR Soul Medal Exchange Shop"
	},
	"IT_JB_MM_PLD_2": {
		"ja": "ソウルメダル【R】交換所",
		"en": "R Soul Medal Exchange Shop"
	},
	"IT_JB_MM_PLD_3": {
		"ja": "ソウルメダル【SR】交換所",
		"en": "SR Soul Medal Exchange Shop"
	},
	"IT_JB_MM_PLD_4": {
		"ja": "ソウルメダル【SSR】交換所",
		"en": "MR Soul Medal Exchange Shop"
	},
	"IT_JB_MM_PLD_5": {
		"ja": "フレンドメダル交換所/ソウルメダル【UR】交換所/ギルドメダル交換所",
		"en": "UR Soul Medal Exchange Shop"
	},
	"IT_JB_MM_SWN_2": {
		"ja": "ソウルメダル【R】交換所",
		"en": "R Soul Medal Exchange Shop"
	},
	"IT_JB_MM_SWN_3": {
		"ja": "ソウルメダル【SR】交換所",
		"en": "SR Soul Medal Exchange Shop"
	},
	"IT_JB_MM_SWN_4": {
		"ja": "ソウルメダル【SSR】交換所",
		"en": "MR Soul Medal Exchange Shop"
	},
	"IT_JB_MM_SWN_5": {
		"ja": "フレンドメダル交換所/ソウルメダル【UR】交換所/ギルドメダル交換所",
		"en": "UR Soul Medal Exchange Shop"
	},
	"IT_JB_MM_MNK_2": {
		"ja": "ソウルメダル【R】交換所",
		"en": "R Soul Medal Exchange Shop"
	},
	"IT_JB_MM_MNK_3": {
		"ja": "ソウルメダル【SR】交換所",
		"en": "SR Soul Medal Exchange Shop"
	},
	"IT_JB_MM_MNK_4": {
		"ja": "ソウルメダル【SSR】交換所",
		"en": "MR Soul Medal Exchange Shop"
	},
	"IT_JB_MM_MNK_5": {
		"ja": "フレンドメダル交換所/ソウルメダル【UR】交換所/ギルドメダル交換所",
		"en": "UR Soul Medal Exchange Shop"
	},
	"IT_JB_MM_SAM_2": {
		"ja": "ソウルメダル【R】交換所",
		"en": "R Soul Medal Exchange Shop"
	},
	"IT_JB_MM_SAM_3": {
		"ja": "ソウルメダル【SR】交換所",
		"en": "SR Soul Medal Exchange Shop"
	},
	"IT_JB_MM_SAM_4": {
		"ja": "ソウルメダル【SSR】交換所",
		"en": "MR Soul Medal Exchange Shop"
	},
	"IT_JB_MM_SAM_5": {
		"ja": "フレンドメダル交換所/ソウルメダル【UR】交換所/ギルドメダル交換所",
		"en": "UR Soul Medal Exchange Shop"
	},
	"IT_JB_MM_LAN_2": {
		"ja": "ソウルメダル【R】交換所",
		"en": "R Soul Medal Exchange Shop"
	},
	"IT_JB_MM_LAN_3": {
		"ja": "ソウルメダル【SR】交換所",
		"en": "SR Soul Medal Exchange Shop"
	},
	"IT_JB_MM_LAN_4": {
		"ja": "ソウルメダル【SSR】交換所",
		"en": "MR Soul Medal Exchange Shop"
	},
	"IT_JB_MM_LAN_5": {
		"ja": "フレンドメダル交換所/ソウルメダル【UR】交換所/ギルドメダル交換所",
		"en": "UR Soul Medal Exchange Shop"
	},
	"IT_JB_MM_DRG_2": {
		"ja": "ソウルメダル【R】交換所",
		"en": "R Soul Medal Exchange Shop"
	},
	"IT_JB_MM_DRG_3": {
		"ja": "ソウルメダル【SR】交換所",
		"en": "SR Soul Medal Exchange Shop"
	},
	"IT_JB_MM_DRG_4": {
		"ja": "ソウルメダル【SSR】交換所",
		"en": "MR Soul Medal Exchange Shop"
	},
	"IT_JB_MM_DRG_5": {
		"ja": "フレンドメダル交換所/ソウルメダル【UR】交換所/ギルドメダル交換所",
		"en": "UR Soul Medal Exchange Shop"
	},
	"IT_JB_MM_THI_2": {
		"ja": "ソウルメダル【R】交換所",
		"en": "R Soul Medal Exchange Shop"
	},
	"IT_JB_MM_THI_3": {
		"ja": "ソウルメダル【SR】交換所",
		"en": "SR Soul Medal Exchange Shop"
	},
	"IT_JB_MM_THI_4": {
		"ja": "ソウルメダル【SSR】交換所",
		"en": "MR Soul Medal Exchange Shop"
	},
	"IT_JB_MM_THI_5": {
		"ja": "フレンドメダル交換所/ソウルメダル【UR】交換所/ギルドメダル交換所",
		"en": "UR Soul Medal Exchange Shop"
	},
	"IT_JB_MM_NIN_2": {
		"ja": "ソウルメダル【R】交換所",
		"en": "R Soul Medal Exchange Shop"
	},
	"IT_JB_MM_NIN_3": {
		"ja": "ソウルメダル【SR】交換所",
		"en": "SR Soul Medal Exchange Shop"
	},
	"IT_JB_MM_NIN_4": {
		"ja": "ソウルメダル【SSR】交換所",
		"en": "MR Soul Medal Exchange Shop"
	},
	"IT_JB_MM_NIN_5": {
		"ja": "フレンドメダル交換所/ソウルメダル【UR】交換所/ギルドメダル交換所",
		"en": "UR Soul Medal Exchange Shop"
	},
	"IT_JB_MM_HUN_2": {
		"ja": "ソウルメダル【R】交換所",
		"en": "R Soul Medal Exchange Shop"
	},
	"IT_JB_MM_HUN_3": {
		"ja": "ソウルメダル【SR】交換所",
		"en": "SR Soul Medal Exchange Shop"
	},
	"IT_JB_MM_HUN_4": {
		"ja": "ソウルメダル【SSR】交換所",
		"en": "MR Soul Medal Exchange Shop"
	},
	"IT_JB_MM_HUN_5": {
		"ja": "フレンドメダル交換所/ソウルメダル【UR】交換所/ギルドメダル交換所",
		"en": "UR Soul Medal Exchange Shop"
	},
	"IT_JB_MM_GUN_2": {
		"ja": "ソウルメダル【R】交換所",
		"en": "R Soul Medal Exchange Shop"
	},
	"IT_JB_MM_GUN_3": {
		"ja": "ソウルメダル【SR】交換所",
		"en": "SR Soul Medal Exchange Shop"
	},
	"IT_JB_MM_GUN_4": {
		"ja": "ソウルメダル【SSR】交換所",
		"en": "MR Soul Medal Exchange Shop"
	},
	"IT_JB_MM_GUN_5": {
		"ja": "フレンドメダル交換所/ソウルメダル【UR】交換所/ギルドメダル交換所",
		"en": "UR Soul Medal Exchange Shop"
	},
	"IT_JB_MM_WHM_2": {
		"ja": "ソウルメダル【R】交換所",
		"en": "R Soul Medal Exchange Shop"
	},
	"IT_JB_MM_WHM_3": {
		"ja": "ソウルメダル【SR】交換所",
		"en": "SR Soul Medal Exchange Shop"
	},
	"IT_JB_MM_WHM_4": {
		"ja": "ソウルメダル【SSR】交換所",
		"en": "MR Soul Medal Exchange Shop"
	},
	"IT_JB_MM_WHM_5": {
		"ja": "フレンドメダル交換所/ソウルメダル【UR】交換所/ギルドメダル交換所",
		"en": "UR Soul Medal Exchange Shop"
	},
	"IT_JB_MM_BLM_2": {
		"ja": "ソウルメダル【R】交換所",
		"en": "R Soul Medal Exchange Shop"
	},
	"IT_JB_MM_BLM_3": {
		"ja": "ソウルメダル【SR】交換所",
		"en": "SR Soul Medal Exchange Shop"
	},
	"IT_JB_MM_BLM_4": {
		"ja": "ソウルメダル【SSR】交換所",
		"en": "MR Soul Medal Exchange Shop"
	},
	"IT_JB_MM_BLM_5": {
		"ja": "フレンドメダル交換所/ソウルメダル【UR】交換所/ギルドメダル交換所",
		"en": "UR Soul Medal Exchange Shop"
	},
	"IT_JB_MM_RDM_2": {
		"ja": "ソウルメダル【R】交換所",
		"en": "R Soul Medal Exchange Shop"
	},
	"IT_JB_MM_RDM_3": {
		"ja": "ソウルメダル【SR】交換所",
		"en": "SR Soul Medal Exchange Shop"
	},
	"IT_JB_MM_RDM_4": {
		"ja": "ソウルメダル【SSR】交換所",
		"en": "MR Soul Medal Exchange Shop"
	},
	"IT_JB_MM_RDM_5": {
		"ja": "フレンドメダル交換所/ソウルメダル【UR】交換所/ギルドメダル交換所",
		"en": "UR Soul Medal Exchange Shop"
	},
	"IT_JB_MM_GRM_2": {
		"ja": "ソウルメダル【R】交換所",
		"en": "R Soul Medal Exchange Shop"
	},
	"IT_JB_MM_GRM_3": {
		"ja": "ソウルメダル【SR】交換所",
		"en": "SR Soul Medal Exchange Shop"
	},
	"IT_JB_MM_GRM_4": {
		"ja": "ソウルメダル【SSR】交換所",
		"en": "MR Soul Medal Exchange Shop"
	},
	"IT_JB_MM_GRM_5": {
		"ja": "フレンドメダル交換所/ソウルメダル【UR】交換所/ギルドメダル交換所",
		"en": "UR Soul Medal Exchange Shop"
	},
	"IT_JB_MM_MGK_2": {
		"ja": "ソウルメダル【R】交換所",
		"en": "R Soul Medal Exchange Shop"
	},
	"IT_JB_MM_MGK_3": {
		"ja": "ソウルメダル【SR】交換所",
		"en": "SR Soul Medal Exchange Shop"
	},
	"IT_JB_MM_MGK_4": {
		"ja": "ソウルメダル【SSR】交換所",
		"en": "MR Soul Medal Exchange Shop"
	},
	"IT_JB_MM_MGK_5": {
		"ja": "フレンドメダル交換所/ソウルメダル【UR】交換所/ギルドメダル交換所",
		"en": "UR Soul Medal Exchange Shop"
	},
	"IT_JB_MM_CLR_2": {
		"ja": "ソウルメダル【R】交換所",
		"en": "R Soul Medal Exchange Shop"
	},
	"IT_JB_MM_CLR_3": {
		"ja": "ソウルメダル【SR】交換所",
		"en": "SR Soul Medal Exchange Shop"
	},
	"IT_JB_MM_CLR_4": {
		"ja": "ソウルメダル【SSR】交換所",
		"en": "MR Soul Medal Exchange Shop"
	},
	"IT_JB_MM_CLR_5": {
		"ja": "フレンドメダル交換所/ソウルメダル【UR】交換所/ギルドメダル交換所",
		"en": "UR Soul Medal Exchange Shop"
	},
	"IT_JB_MM_LW_GLMS_2": {
		"ja": "ソウルメダル【R】交換所",
		"en": "R Soul Medal Exchange Shop"
	},
	"IT_JB_MM_LW_GLMS_3": {
		"ja": "ソウルメダル【SR】交換所",
		"en": "SR Soul Medal Exchange Shop"
	},
	"IT_JB_MM_LW_GLMS_4": {
		"ja": "ソウルメダル【SSR】交換所",
		"en": "MR Soul Medal Exchange Shop"
	},
	"IT_JB_MM_LW_GLMS_5": {
		"ja": "フレンドメダル交換所/ソウルメダル【UR】交換所/ギルドメダル交換所",
		"en": "UR Soul Medal Exchange Shop"
	},
	"IT_JB_EM_FIRE_1": {
		"ja": "通常ショップ/気まぐれ屋",
		"en": "General Shop / Whimsy Shop"
	},
	"IT_JB_EM_FIRE_2": {
		"ja": "通常ショップ/気まぐれ屋/ソウルメダル【R】交換所",
		"en": "General Shop / Whimsy Shop / R Soul Medal Exchange Shop"
	},
	"IT_JB_EM_FIRE_3": {
		"ja": "通常ショップ/気まぐれ屋/ソウルメダル【SR】交換所",
		"en": "General Shop / Whimsy Shop / SR Soul Medal Exchange Shop"
	},
	"IT_JB_EM_FIRE_4": {
		"ja": "気まぐれ屋/フレンドメダル交換所/ソウルメダル【SSR】交換所",
		"en": "Whimsy Shop / MR Soul Medal Exchange Shop"
	},
	"IT_JB_EM_FIRE_5": {
		"ja": "気まぐれ屋/フレンドメダル交換所/ソウルメダル【UR】交換所/ギルドメダル交換所",
		"en": "Whimsy Shop / UR Soul Medal Exchange Shop"
	},
	"IT_JB_EM_ICE_1": {
		"ja": "通常ショップ/気まぐれ屋",
		"en": "General Shop / Whimsy Shop"
	},
	"IT_JB_EM_ICE_2": {
		"ja": "通常ショップ/気まぐれ屋/ソウルメダル【R】交換所",
		"en": "General Shop / Whimsy Shop / R Soul Medal Exchange Shop"
	},
	"IT_JB_EM_ICE_3": {
		"ja": "通常ショップ/気まぐれ屋/ソウルメダル【SR】交換所",
		"en": "General Shop / Whimsy Shop / SR Soul Medal Exchange Shop"
	},
	"IT_JB_EM_ICE_4": {
		"ja": "気まぐれ屋/フレンドメダル交換所/ソウルメダル【SSR】交換所",
		"en": "Whimsy Shop / MR Soul Medal Exchange Shop"
	},
	"IT_JB_EM_ICE_5": {
		"ja": "気まぐれ屋/フレンドメダル交換所/ソウルメダル【UR】交換所/ギルドメダル交換所",
		"en": "Whimsy Shop / UR Soul Medal Exchange Shop"
	},
	"IT_JB_EM_WIND_1": {
		"ja": "通常ショップ/気まぐれ屋",
		"en": "General Shop / Whimsy Shop"
	},
	"IT_JB_EM_WIND_2": {
		"ja": "通常ショップ/気まぐれ屋/ソウルメダル【R】交換所",
		"en": "General Shop / Whimsy Shop / R Soul Medal Exchange Shop"
	},
	"IT_JB_EM_WIND_3": {
		"ja": "通常ショップ/気まぐれ屋/ソウルメダル【SR】交換所",
		"en": "General Shop / Whimsy Shop / SR Soul Medal Exchange Shop"
	},
	"IT_JB_EM_WIND_4": {
		"ja": "気まぐれ屋/フレンドメダル交換所/ソウルメダル【SSR】交換所",
		"en": "Whimsy Shop / MR Soul Medal Exchange Shop"
	},
	"IT_JB_EM_WIND_5": {
		"ja": "気まぐれ屋/フレンドメダル交換所/ソウルメダル【UR】交換所/ギルドメダル交換所",
		"en": "Whimsy Shop / UR Soul Medal Exchange Shop"
	},
	"IT_JB_EM_SOIL_1": {
		"ja": "通常ショップ/気まぐれ屋",
		"en": "General Shop / Whimsy Shop"
	},
	"IT_JB_EM_SOIL_2": {
		"ja": "通常ショップ/気まぐれ屋/ソウルメダル【R】交換所",
		"en": "General Shop / Whimsy Shop / R Soul Medal Exchange Shop"
	},
	"IT_JB_EM_SOIL_3": {
		"ja": "通常ショップ/気まぐれ屋/ソウルメダル【SR】交換所",
		"en": "General Shop / Whimsy Shop / SR Soul Medal Exchange Shop"
	},
	"IT_JB_EM_SOIL_4": {
		"ja": "気まぐれ屋/フレンドメダル交換所/ソウルメダル【SSR】交換所",
		"en": "Whimsy Shop / MR Soul Medal Exchange Shop"
	},
	"IT_JB_EM_SOIL_5": {
		"ja": "気まぐれ屋/フレンドメダル交換所/ソウルメダル【UR】交換所/ギルドメダル交換所",
		"en": "Whimsy Shop / UR Soul Medal Exchange Shop"
	},
	"IT_JB_EM_THUNDER_1": {
		"ja": "通常ショップ/気まぐれ屋",
		"en": "General Shop / Whimsy Shop"
	},
	"IT_JB_EM_THUNDER_2": {
		"ja": "通常ショップ/気まぐれ屋/ソウルメダル【R】交換所",
		"en": "General Shop / Whimsy Shop / R Soul Medal Exchange Shop"
	},
	"IT_JB_EM_THUNDER_3": {
		"ja": "通常ショップ/気まぐれ屋/ソウルメダル【SR】交換所",
		"en": "General Shop / Whimsy Shop / SR Soul Medal Exchange Shop"
	},
	"IT_JB_EM_THUNDER_4": {
		"ja": "気まぐれ屋/フレンドメダル交換所/ソウルメダル【SSR】交換所",
		"en": "Whimsy Shop / MR Soul Medal Exchange Shop"
	},
	"IT_JB_EM_THUNDER_5": {
		"ja": "気まぐれ屋/フレンドメダル交換所/ソウルメダル【UR】交換所/ギルドメダル交換所",
		"en": "Whimsy Shop / UR Soul Medal Exchange Shop"
	},
	"IT_JB_EM_WATER_1": {
		"ja": "通常ショップ/気まぐれ屋",
		"en": "General Shop / Whimsy Shop"
	},
	"IT_JB_EM_WATER_2": {
		"ja": "通常ショップ/気まぐれ屋/ソウルメダル【R】交換所",
		"en": "General Shop / Whimsy Shop / R Soul Medal Exchange Shop"
	},
	"IT_JB_EM_WATER_3": {
		"ja": "通常ショップ/気まぐれ屋/ソウルメダル【SR】交換所",
		"en": "General Shop / Whimsy Shop / SR Soul Medal Exchange Shop"
	},
	"IT_JB_EM_WATER_4": {
		"ja": "気まぐれ屋/フレンドメダル交換所/ソウルメダル【SSR】交換所",
		"en": "Whimsy Shop / MR Soul Medal Exchange Shop"
	},
	"IT_JB_EM_WATER_5": {
		"ja": "気まぐれ屋/フレンドメダル交換所/ソウルメダル【UR】交換所/ギルドメダル交換所",
		"en": "Whimsy Shop / UR Soul Medal Exchange Shop"
	},
	"IT_JB_EM_SHINE_1": {
		"ja": "通常ショップ/気まぐれ屋",
		"en": "General Shop / Whimsy Shop"
	},
	"IT_JB_EM_SHINE_2": {
		"ja": "通常ショップ/気まぐれ屋/ソウルメダル【R】交換所",
		"en": "General Shop / Whimsy Shop / R Soul Medal Exchange Shop"
	},
	"IT_JB_EM_SHINE_3": {
		"ja": "通常ショップ/気まぐれ屋/ソウルメダル【SR】交換所",
		"en": "General Shop / Whimsy Shop / SR Soul Medal Exchange Shop"
	},
	"IT_JB_EM_SHINE_4": {
		"ja": "気まぐれ屋/フレンドメダル交換所/ソウルメダル【SSR】交換所",
		"en": "Whimsy Shop / MR Soul Medal Exchange Shop"
	},
	"IT_JB_EM_SHINE_5": {
		"ja": "気まぐれ屋/フレンドメダル交換所/ソウルメダル【UR】交換所/ギルドメダル交換所",
		"en": "Whimsy Shop / UR Soul Medal Exchange Shop"
	},
	"IT_JB_EM_DARK_1": {
		"ja": "通常ショップ/気まぐれ屋",
		"en": "General Shop / Whimsy Shop"
	},
	"IT_JB_EM_DARK_2": {
		"ja": "通常ショップ/気まぐれ屋/ソウルメダル【R】交換所",
		"en": "General Shop / Whimsy Shop / R Soul Medal Exchange Shop"
	},
	"IT_JB_EM_DARK_3": {
		"ja": "通常ショップ/気まぐれ屋/ソウルメダル【SR】交換所",
		"en": "General Shop / Whimsy Shop / SR Soul Medal Exchange Shop"
	},
	"IT_JB_EM_DARK_4": {
		"ja": "気まぐれ屋/フレンドメダル交換所/ソウルメダル【SSR】交換所",
		"en": "Whimsy Shop / MR Soul Medal Exchange Shop"
	},
	"IT_JB_EM_DARK_5": {
		"ja": "気まぐれ屋/フレンドメダル交換所/ソウルメダル【UR】交換所/ギルドメダル交換所",
		"en": "Whimsy Shop / UR Soul Medal Exchange Shop"
	},
	"IT_JB_IM_ANGEL_1": {
		"ja": "気まぐれ屋",
		"en": "Whimsy Shop"
	},
	"IT_JB_IM_ANGEL_2": {
		"ja": "気まぐれ屋/ソウルメダル【R】交換所",
		"en": "Whimsy Shop / R Soul Medal Exchange Shop"
	},
	"IT_JB_IM_ANGEL_3": {
		"ja": "気まぐれ屋/ソウルメダル【SR】交換所",
		"en": "Whimsy Shop / SR Soul Medal Exchange Shop"
	},
	"IT_JB_IM_ANGEL_4": {
		"ja": "フレンドメダル交換所/ソウルメダル【SSR】交換所",
		"en": "Friend Medal Exchange Shop / MR Soul Medal Exchange Shop"
	},
	"IT_JB_IM_ANGEL_5": {
		"ja": "フレンドメダル交換所/ギルドメダル交換所/ソウルメダル【UR】交換所",
		"en": "Friend Medal Exchange Shop / Guild Medal Exchange Shop / UR Soul Medal Exchange Shop"
	},
	"IT_JB_IM_DRAGON_1": {
		"ja": "気まぐれ屋",
		"en": "Whimsy Shop"
	},
	"IT_JB_IM_DRAGON_2": {
		"ja": "気まぐれ屋/ソウルメダル【R】交換所",
		"en": "Whimsy Shop / R Soul Medal Exchange Shop"
	},
	"IT_JB_IM_DRAGON_3": {
		"ja": "気まぐれ屋/ソウルメダル【SR】交換所",
		"en": "Whimsy Shop / SR Soul Medal Exchange Shop"
	},
	"IT_JB_IM_DRAGON_4": {
		"ja": "フレンドメダル交換所/ソウルメダル【SSR】交換所",
		"en": "Friend Medal Exchange Shop / MR Soul Medal Exchange Shop"
	},
	"IT_JB_IM_DRAGON_5": {
		"ja": "フレンドメダル交換所/ギルドメダル交換所/ソウルメダル【UR】交換所",
		"en": "Friend Medal Exchange Shop / Guild Medal Exchange Shop / UR Soul Medal Exchange Shop"
	},
	"IT_UN_AW_FIRE": {
		"ja": "フレンドメダル交換所/ギルドメダル交換所/ソウルメダル【UR】交換所",
		"en": "Friend Medal Exchange Shop / Guild Medal Exchange Shop / UR Soul Medal Exchange Shop"
	},
	"IT_UN_AW_ICE": {
		"ja": "フレンドメダル交換所/ギルドメダル交換所/ソウルメダル【UR】交換所",
		"en": "Friend Medal Exchange Shop / Guild Medal Exchange Shop / UR Soul Medal Exchange Shop"
	},
	"IT_UN_AW_WIND": {
		"ja": "フレンドメダル交換所/ギルドメダル交換所/ソウルメダル【UR】交換所",
		"en": "Friend Medal Exchange Shop / Guild Medal Exchange Shop / UR Soul Medal Exchange Shop"
	},
	"IT_UN_AW_SOIL": {
		"ja": "フレンドメダル交換所/ギルドメダル交換所/ソウルメダル【UR】交換所",
		"en": "Friend Medal Exchange Shop / Guild Medal Exchange Shop / UR Soul Medal Exchange Shop"
	},
	"IT_UN_AW_THUNDER": {
		"ja": "フレンドメダル交換所/ギルドメダル交換所/ソウルメダル【UR】交換所",
		"en": "Friend Medal Exchange Shop / Guild Medal Exchange Shop / UR Soul Medal Exchange Shop"
	},
	"IT_UN_AW_WATER": {
		"ja": "フレンドメダル交換所/ギルドメダル交換所/ソウルメダル【UR】交換所",
		"en": "Friend Medal Exchange Shop / Guild Medal Exchange Shop / UR Soul Medal Exchange Shop"
	},
	"IT_UN_AW_SHINE": {
		"ja": "フレンドメダル交換所/ギルドメダル交換所/ソウルメダル【UR】交換所",
		"en": "Friend Medal Exchange Shop / Guild Medal Exchange Shop / UR Soul Medal Exchange Shop"
	},
	"IT_UN_AW_DARK": {
		"ja": "フレンドメダル交換所/ギルドメダル交換所/ソウルメダル【UR】交換所",
		"en": "Friend Medal Exchange Shop / Guild Medal Exchange Shop / UR Soul Medal Exchange Shop"
	},
	"IT_UN_AW_FIRE_R2": {
		"ja": "通常ショップ/気まぐれ屋/探検チョコボ/ソウルメダル【N】交換所",
		"en": "General Shop / Whimsy Shop / Chocobo Expedition / N Soul Medal Exchange Shop"
	},
	"IT_UN_AW_FIRE_R3": {
		"ja": "通常ショップ/気まぐれ屋/探検チョコボ/ソウルメダル【R】交換所",
		"en": "General Shop / Whimsy Shop / Chocobo Expedition / R Soul Medal Exchange Shop"
	},
	"IT_UN_AW_FIRE_R4": {
		"ja": "通常ショップ/気まぐれ屋/探検チョコボ/ソウルメダル【SR】交換所",
		"en": "General Shop / Whimsy Shop / Chocobo Expedition / SR Soul Medal Exchange Shop"
	},
	"IT_UN_AW_FIRE_R5": {
		"ja": "気まぐれ屋/探検チョコボ/ソウルメダル【SSR】交換所",
		"en": "Whimsy Shop / Chocobo Expedition / MR Soul Medal Exchange Shop"
	},
	"IT_UN_AW_FIRE_R6": {
		"ja": "気まぐれ屋/探検チョコボ/フレンドメダル交換所/ギルドメダル交換所/ソウルメダル【UR】交換所",
		"en": "Whimsy Shop / Chocobo Expedition / UR Soul Medal Exchange Shop"
	},
	"IT_UN_AW_ICE_R2": {
		"ja": "通常ショップ/気まぐれ屋/探検チョコボ/ソウルメダル【N】交換所",
		"en": "General Shop / Whimsy Shop / Chocobo Expedition / N Soul Medal Exchange Shop"
	},
	"IT_UN_AW_ICE_R3": {
		"ja": "通常ショップ/気まぐれ屋/探検チョコボ/ソウルメダル【R】交換所",
		"en": "General Shop / Whimsy Shop / Chocobo Expedition / R Soul Medal Exchange Shop"
	},
	"IT_UN_AW_ICE_R4": {
		"ja": "通常ショップ/気まぐれ屋/探検チョコボ/ソウルメダル【SR】交換所",
		"en": "General Shop / Whimsy Shop / Chocobo Expedition / SR Soul Medal Exchange Shop"
	},
	"IT_UN_AW_ICE_R5": {
		"ja": "気まぐれ屋/探検チョコボ/ソウルメダル【SSR】交換所",
		"en": "Whimsy Shop / Chocobo Expedition / MR Soul Medal Exchange Shop"
	},
	"IT_UN_AW_ICE_R6": {
		"ja": "気まぐれ屋/探検チョコボ/フレンドメダル交換所/ギルドメダル交換所/ソウルメダル【UR】交換所",
		"en": "Whimsy Shop / Chocobo Expedition / UR Soul Medal Exchange Shop"
	},
	"IT_UN_AW_WIND_R2": {
		"ja": "通常ショップ/気まぐれ屋/探検チョコボ/ソウルメダル【N】交換所",
		"en": "General Shop / Whimsy Shop / Chocobo Expedition / N Soul Medal Exchange Shop"
	},
	"IT_UN_AW_WIND_R3": {
		"ja": "通常ショップ/気まぐれ屋/探検チョコボ/ソウルメダル【R】交換所",
		"en": "General Shop / Whimsy Shop / Chocobo Expedition / R Soul Medal Exchange Shop"
	},
	"IT_UN_AW_WIND_R4": {
		"ja": "通常ショップ/気まぐれ屋/探検チョコボ/ソウルメダル【SR】交換所",
		"en": "General Shop / Whimsy Shop / Chocobo Expedition / SR Soul Medal Exchange Shop"
	},
	"IT_UN_AW_WIND_R5": {
		"ja": "気まぐれ屋/探検チョコボ/ソウルメダル【SSR】交換所",
		"en": "Whimsy Shop / Chocobo Expedition / MR Soul Medal Exchange Shop"
	},
	"IT_UN_AW_WIND_R6": {
		"ja": "気まぐれ屋/探検チョコボ/フレンドメダル交換所/ギルドメダル交換所/ソウルメダル【UR】交換所",
		"en": "Whimsy Shop / Chocobo Expedition / UR Soul Medal Exchange Shop"
	},
	"IT_UN_AW_SOIL_R2": {
		"ja": "通常ショップ/気まぐれ屋/探検チョコボ/ソウルメダル【N】交換所",
		"en": "General Shop / Whimsy Shop / Chocobo Expedition / N Soul Medal Exchange Shop"
	},
	"IT_UN_AW_SOIL_R3": {
		"ja": "通常ショップ/気まぐれ屋/探検チョコボ/ソウルメダル【R】交換所",
		"en": "General Shop / Whimsy Shop / Chocobo Expedition / R Soul Medal Exchange Shop"
	},
	"IT_UN_AW_SOIL_R4": {
		"ja": "通常ショップ/気まぐれ屋/探検チョコボ/ソウルメダル【SR】交換所",
		"en": "General Shop / Whimsy Shop / Chocobo Expedition / SR Soul Medal Exchange Shop"
	},
	"IT_UN_AW_SOIL_R5": {
		"ja": "気まぐれ屋/探検チョコボ/ソウルメダル【SSR】交換所",
		"en": "Whimsy Shop / Chocobo Expedition / MR Soul Medal Exchange Shop"
	},
	"IT_UN_AW_SOIL_R6": {
		"ja": "気まぐれ屋/探検チョコボ/フレンドメダル交換所/ギルドメダル交換所/ソウルメダル【UR】交換所",
		"en": "Whimsy Shop / Chocobo Expedition / UR Soul Medal Exchange Shop"
	},
	"IT_UN_AW_THUNDER_R2": {
		"ja": "通常ショップ/気まぐれ屋/探検チョコボ/ソウルメダル【N】交換所",
		"en": "General Shop / Whimsy Shop / Chocobo Expedition / N Soul Medal Exchange Shop"
	},
	"IT_UN_AW_THUNDER_R3": {
		"ja": "通常ショップ/気まぐれ屋/探検チョコボ/ソウルメダル【R】交換所",
		"en": "General Shop / Whimsy Shop / Chocobo Expedition / R Soul Medal Exchange Shop"
	},
	"IT_UN_AW_THUNDER_R4": {
		"ja": "通常ショップ/気まぐれ屋/探検チョコボ/ソウルメダル【SR】交換所",
		"en": "General Shop / Whimsy Shop / Chocobo Expedition / SR Soul Medal Exchange Shop"
	},
	"IT_UN_AW_THUNDER_R5": {
		"ja": "気まぐれ屋/探検チョコボ/ソウルメダル【SSR】交換所",
		"en": "Whimsy Shop / Chocobo Expedition / MR Soul Medal Exchange Shop"
	},
	"IT_UN_AW_THUNDER_R6": {
		"ja": "気まぐれ屋/探検チョコボ/フレンドメダル交換所/ギルドメダル交換所/ソウルメダル【UR】交換所",
		"en": "Whimsy Shop / Chocobo Expedition / UR Soul Medal Exchange Shop"
	},
	"IT_UN_AW_WATER_R2": {
		"ja": "通常ショップ/気まぐれ屋/探検チョコボ/ソウルメダル【N】交換所",
		"en": "General Shop / Whimsy Shop / Chocobo Expedition / N Soul Medal Exchange Shop"
	},
	"IT_UN_AW_WATER_R3": {
		"ja": "通常ショップ/気まぐれ屋/探検チョコボ/ソウルメダル【R】交換所",
		"en": "General Shop / Whimsy Shop / Chocobo Expedition / R Soul Medal Exchange Shop"
	},
	"IT_UN_AW_WATER_R4": {
		"ja": "通常ショップ/気まぐれ屋/探検チョコボ/ソウルメダル【SR】交換所",
		"en": "General Shop / Whimsy Shop / Chocobo Expedition / SR Soul Medal Exchange Shop"
	},
	"IT_UN_AW_WATER_R5": {
		"ja": "気まぐれ屋/探検チョコボ/ソウルメダル【SSR】交換所",
		"en": "Whimsy Shop / Chocobo Expedition / MR Soul Medal Exchange Shop"
	},
	"IT_UN_AW_WATER_R6": {
		"ja": "気まぐれ屋/探検チョコボ/フレンドメダル交換所/ギルドメダル交換所/ソウルメダル【UR】交換所",
		"en": "Whimsy Shop / Chocobo Expedition / UR Soul Medal Exchange Shop"
	},
	"IT_UN_AW_SHINE_R2": {
		"ja": "通常ショップ/気まぐれ屋/探検チョコボ/ソウルメダル【N】交換所",
		"en": "General Shop / Whimsy Shop / Chocobo Expedition / N Soul Medal Exchange Shop"
	},
	"IT_UN_AW_SHINE_R3": {
		"ja": "通常ショップ/気まぐれ屋/探検チョコボ/ソウルメダル【R】交換所",
		"en": "General Shop / Whimsy Shop / Chocobo Expedition / R Soul Medal Exchange Shop"
	},
	"IT_UN_AW_SHINE_R4": {
		"ja": "通常ショップ/気まぐれ屋/探検チョコボ/ソウルメダル【SR】交換所",
		"en": "General Shop / Whimsy Shop / Chocobo Expedition / SR Soul Medal Exchange Shop"
	},
	"IT_UN_AW_SHINE_R5": {
		"ja": "気まぐれ屋/探検チョコボ/ソウルメダル【SSR】交換所",
		"en": "Whimsy Shop / Chocobo Expedition / MR Soul Medal Exchange Shop"
	},
	"IT_UN_AW_SHINE_R6": {
		"ja": "気まぐれ屋/探検チョコボ/フレンドメダル交換所/ギルドメダル交換所/ソウルメダル【UR】交換所",
		"en": "Whimsy Shop / Chocobo Expedition / UR Soul Medal Exchange Shop"
	},
	"IT_UN_AW_DARK_R2": {
		"ja": "通常ショップ/気まぐれ屋/探検チョコボ/ソウルメダル【N】交換所",
		"en": "General Shop / Whimsy Shop / Chocobo Expedition / N Soul Medal Exchange Shop"
	},
	"IT_UN_AW_DARK_R3": {
		"ja": "通常ショップ/気まぐれ屋/探検チョコボ/ソウルメダル【R】交換所",
		"en": "General Shop / Whimsy Shop / Chocobo Expedition / R Soul Medal Exchange Shop"
	},
	"IT_UN_AW_DARK_R4": {
		"ja": "通常ショップ/気まぐれ屋/探検チョコボ/ソウルメダル【SR】交換所",
		"en": "General Shop / Whimsy Shop / Chocobo Expedition / SR Soul Medal Exchange Shop"
	},
	"IT_UN_AW_DARK_R5": {
		"ja": "気まぐれ屋/探検チョコボ/ソウルメダル【SSR】交換所",
		"en": "Whimsy Shop / Chocobo Expedition / MR Soul Medal Exchange Shop"
	},
	"IT_UN_AW_DARK_R6": {
		"ja": "気まぐれ屋/探検チョコボ/フレンドメダル交換所/ギルドメダル交換所/ソウルメダル【UR】交換所",
		"en": "Whimsy Shop / Chocobo Expedition / UR Soul Medal Exchange Shop"
	},
	"IT_AW_VBALL_N": {
		"ja": "ソウルメダル【N】交換所/ビジョンメダル【N】交換所",
		"en": "N Soul Medal Exchange Shop / N Vision Medal Exchange Shop"
	},
	"IT_AW_VBALL_R": {
		"ja": "ソウルメダル【R】交換所/ビジョンメダル【R】交換所",
		"en": "R Soul Medal Exchange Shop / R Vision Medal Exchange Shop"
	},
	"IT_AW_VBALL_SR": {
		"ja": "ソウルメダル【SR】交換所/ビジョンメダル【SR】交換所",
		"en": "SR Soul Medal Exchange Shop / SR Vision Medal Exchange Shop"
	},
	"IT_AW_VBALL_SSR": {
		"ja": "ソウルメダル【SSR】交換所/ビジョンメダル【SSR】交換所",
		"en": "MR Soul Medal Exchange Shop / MR Vision Medal Exchange Shop"
	},
	"IT_AW_VBALL_UR": {
		"ja": "ソウルメダル【UR】交換所/ビジョンメダル【UR】交換所",
		"en": "UR Soul Medal Exchange Shop / UR Vision Medal Exchange Shop"
	},
	"IT_PI_COM_FIRE": {
		"ja": "気まぐれ屋/探検チョコボ/フレンドメダル交換所/ギルドメダル交換所/ソウルメダル【UR】交換所",
		"en": "Whimsy Shop / Chocobo Expedition / Friend Medal Exchange Shop / Guild Medal Exchange Shop / UR Soul Medal Exchange Shop"
	},
	"IT_PI_COM_ICE": {
		"ja": "気まぐれ屋/探検チョコボ/フレンドメダル交換所/ギルドメダル交換所/ソウルメダル【UR】交換所",
		"en": "Whimsy Shop / Chocobo Expedition / Friend Medal Exchange Shop / Guild Medal Exchange Shop / UR Soul Medal Exchange Shop"
	},
	"IT_PI_COM_WIND": {
		"ja": "気まぐれ屋/探検チョコボ/フレンドメダル交換所/ギルドメダル交換所/ソウルメダル【UR】交換所",
		"en": "Whimsy Shop / Chocobo Expedition / Friend Medal Exchange Shop / Guild Medal Exchange Shop / UR Soul Medal Exchange Shop"
	},
	"IT_PI_COM_SOIL": {
		"ja": "気まぐれ屋/探検チョコボ/フレンドメダル交換所/ギルドメダル交換所/ソウルメダル【UR】交換所",
		"en": "Whimsy Shop / Chocobo Expedition / Friend Medal Exchange Shop / Guild Medal Exchange Shop / UR Soul Medal Exchange Shop"
	},
	"IT_PI_COM_THUNDER": {
		"ja": "気まぐれ屋/探検チョコボ/フレンドメダル交換所/ギルドメダル交換所/ソウルメダル【UR】交換所",
		"en": "Whimsy Shop / Chocobo Expedition / Friend Medal Exchange Shop / Guild Medal Exchange Shop / UR Soul Medal Exchange Shop"
	},
	"IT_PI_COM_WATER": {
		"ja": "気まぐれ屋/探検チョコボ/フレンドメダル交換所/ギルドメダル交換所/ソウルメダル【UR】交換所",
		"en": "Whimsy Shop / Chocobo Expedition / Friend Medal Exchange Shop / Guild Medal Exchange Shop / UR Soul Medal Exchange Shop"
	},
	"IT_PI_COM_SHINE": {
		"ja": "気まぐれ屋/探検チョコボ/フレンドメダル交換所/ギルドメダル交換所/ソウルメダル【UR】交換所",
		"en": "Whimsy Shop / Chocobo Expedition / Friend Medal Exchange Shop / Guild Medal Exchange Shop / UR Soul Medal Exchange Shop"
	},
	"IT_PI_COM_DARK": {
		"ja": "気まぐれ屋/探検チョコボ/フレンドメダル交換所/ギルドメダル交換所/ソウルメダル【UR】交換所",
		"en": "Whimsy Shop / Chocobo Expedition / Friend Medal Exchange Shop / Guild Medal Exchange Shop / UR Soul Medal Exchange Shop"
	},
	"IT_PI_COM_ALL": {
		"ja": "ソウルメダル【UR】交換所",
		"en": "Friend Medal Exchange Shop / Guild Medal Exchange Shop / UR Soul Medal Exchange Shop"
	},
	"IT_PI_LW_MONT": {
		"ja": "通常ショップ/探検チョコボ",
		"en": "General Shop / Chocobo Expedition"
	},
	"IT_PI_LW_STRN": {
		"ja": "通常ショップ/気まぐれ屋/探検チョコボ/ソウルメダル【UR】交換所",
		"en": "General Shop / Whimsy Shop / Chocobo Expedition / UR Soul Medal Exchange Shop"
	},
	"IT_PI_LW_ELDE": {
		"ja": "通常ショップ/気まぐれ屋/探検チョコボ/ソウルメダル【UR】交換所",
		"en": "General Shop / Whimsy Shop / Chocobo Expedition / UR Soul Medal Exchange Shop"
	},
	"IT_PI_LW_ROBB": {
		"ja": "通常ショップ/気まぐれ屋/探検チョコボ/ソウルメダル【UR】交換所",
		"en": "General Shop / Whimsy Shop / Chocobo Expedition / UR Soul Medal Exchange Shop"
	},
	"IT_PI_LW_ENBT": {
		"ja": "通常ショップ/気まぐれ屋/探検チョコボ",
		"en": "General Shop / Whimsy Shop / Chocobo Expedition"
	},
	"IT_PI_LW_ZIZA": {
		"ja": "通常ショップ/気まぐれ屋/探検チョコボ/ソウルメダル【UR】交換所",
		"en": "General Shop / Whimsy Shop / Chocobo Expedition / UR Soul Medal Exchange Shop"
	},
	"IT_PI_LW_AILN": {
		"ja": "通常ショップ/気まぐれ屋/探検チョコボ",
		"en": "General Shop / Whimsy Shop / Chocobo Expedition / UR Soul Medal Exchange Shop"
	},
	"IT_PI_LW_MDNA": {
		"ja": "通常ショップ/気まぐれ屋/探検チョコボ/ソウルメダル【UR】交換所",
		"en": "General Shop / Whimsy Shop / Chocobo Expedition / UR Soul Medal Exchange Shop"
	},
	"IT_PI_LW_AYKA": {
		"ja": "通常ショップ/気まぐれ屋/探検チョコボ/ソウルメダル【UR】交換所",
		"en": "General Shop / Whimsy Shop / Chocobo Expedition / UR Soul Medal Exchange Shop"
	},
	"IT_PI_LW_MACR": {
		"ja": "通常ショップ/気まぐれ屋/探検チョコボ",
		"en": "General Shop / Whimsy Shop / Chocobo Expedition"
	},
	"IT_PI_LW_FDRC": {
		"ja": "通常ショップ/気まぐれ屋/探検チョコボ/ソウルメダル【UR】交換所",
		"en": "Normal shop / Kimagureya / exploration Chocobo / Seoul medal [UR] clearinghouse"
	},
	"IT_PI_LW_YERM": {
		"ja": "通常ショップ/気まぐれ屋/探検チョコボ",
		"en": "Normal shop / Kimagureya / exploration Chocobo"
	},
	"IT_PI_LW_RAMD_01": {
		"ja": "通常ショップ/気まぐれ屋/探検チョコボ",
		"en": "Normal shop / Kimagureya / exploration Chocobo"
	},
	"IT_PI_LW_MACR_01": {
		"ja": "通常ショップ/気まぐれ屋/探検チョコボ",
		"en": "Normal shop / Kimagureya / exploration Chocobo"
	},
	"IT_PI_LW_HLNA": {
		"ja": "通常ショップ/気まぐれ屋/探検チョコボ/ソウルメダル【SSR】交換所",
		"en": "General Shop / Whimsy Shop / Chocobo Expedition / MR Soul Medal Exchange Shop"
	},
	"IT_PI_LW_LILS": {
		"ja": "通常ショップ/気まぐれ屋/探検チョコボ/ソウルメダル【SSR】交換所",
		"en": "General Shop / Whimsy Shop / Chocobo Expedition / MR Soul Medal Exchange Shop"
	},
	"IT_PI_LW_RAMD": {
		"ja": "通常ショップ/気まぐれ屋/探検チョコボ/ソウルメダル【SSR】交換所",
		"en": "General Shop / Whimsy Shop / Chocobo Expedition / MR Soul Medal Exchange Shop"
	},
	"IT_PI_LW_OOOO": {
		"ja": "通常ショップ/気まぐれ屋/探検チョコボ/ソウルメダル【SSR】交換所",
		"en": "General Shop / Whimsy Shop / Chocobo Expedition / MR Soul Medal Exchange Shop"
	},
	"IT_PI_LW_LRNZ": {
		"ja": "通常ショップ/気まぐれ屋/探検チョコボ/ソウルメダル【SSR】交換所",
		"en": "General Shop / Whimsy Shop / Chocobo Expedition / MR Soul Medal Exchange Shop"
	},
	"IT_PI_LW_RIRY": {
		"ja": "通常ショップ/気まぐれ屋/探検チョコボ/ソウルメダル【SSR】交換所",
		"en": "General Shop / Whimsy Shop / Chocobo Expedition / MR Soul Medal Exchange Shop"
	},
	"IT_PI_LW_VSTR": {
		"ja": "通常ショップ/気まぐれ屋/探検チョコボ/ソウルメダル【SSR】交換所",
		"en": "General Shop / Whimsy Shop / Chocobo Expedition / MR Soul Medal Exchange Shop"
	},
	"IT_PI_LW_CLEY": {
		"ja": "通常ショップ/気まぐれ屋/探検チョコボ",
		"en": "General Shop / Whimsy Shop / Chocobo Expedition"
	},
	"IT_PI_LW_KADI": {
		"ja": "通常ショップ/気まぐれ屋/探検チョコボ/ソウルメダル【SSR】交換所",
		"en": "General Shop / Whimsy Shop / Chocobo Expedition / MR Soul Medal Exchange Shop"
	},
	"IT_PI_LW_MRLK": {
		"ja": "通常ショップ/気まぐれ屋/探検チョコボ/ソウルメダル【SSR】交換所",
		"en": "General Shop / Whimsy Shop / Chocobo Expedition / MR Soul Medal Exchange Shop"
	},
	"IT_PI_LW_MGRT": {
		"ja": "通常ショップ/気まぐれ屋/探検チョコボ/ソウルメダル【SSR】交換所",
		"en": "General Shop / Whimsy Shop / Chocobo Expedition / MR Soul Medal Exchange Shop"
	},
	"IT_PI_LW_PRAY": {
		"ja": "通常ショップ/気まぐれ屋/探検チョコボ",
		"en": "General Shop / Whimsy Shop / Chocobo Expedition"
	},
	"IT_PI_LW_SZRT": {
		"ja": "通常ショップ/気まぐれ屋/探検チョコボ",
		"en": "General Shop / Whimsy Shop / Chocobo Expedition"
	},
	"IT_PI_LW_FINA": {
		"ja": "通常ショップ/気まぐれ屋/探検チョコボ",
		"en": "General Shop / Whimsy Shop / Chocobo Expedition"
	},
	"IT_PI_LW_SDLX": {
		"ja": "通常ショップ/気まぐれ屋/探検チョコボ/ソウルメダル【SSR】交換所",
		"en": "Normal shop / Kimagureya / exploration Chocobo / Seoul medal [SSR] clearinghouse"
	},
	"IT_PI_LW_NASR": {
		"ja": "通常ショップ/気まぐれ屋/探検チョコボ",
		"en": "Normal shop / Kimagureya / exploration Chocobo"
	},
	"IT_PI_LW_BYLO": {
		"ja": "通常ショップ/気まぐれ屋/探検チョコボ",
		"en": "General Shop / Whimsy Shop / Chocobo Expedition"
	},
	"IT_PI_LW_RYER": {
		"ja": "通常ショップ/気まぐれ屋/探検チョコボ/ソウルメダル【SR】交換所",
		"en": "General Shop / Whimsy Shop / Chocobo Expedition / SR Soul Medal Exchange Shop"
	},
	"IT_PI_LW_SCIA": {
		"ja": "通常ショップ/気まぐれ屋/探検チョコボ/ソウルメダル【SR】交換所",
		"en": "General Shop / Whimsy Shop / Chocobo Expedition / SR Soul Medal Exchange Shop"
	},
	"IT_PI_LW_VRID": {
		"ja": "通常ショップ/気まぐれ屋/探検チョコボ/ソウルメダル【SR】交換所",
		"en": "General Shop / Whimsy Shop / Chocobo Expedition / SR Soul Medal Exchange Shop"
	},
	"IT_PI_LW_NAIA": {
		"ja": "通常ショップ/気まぐれ屋/探検チョコボ/ソウルメダル【SR】交換所",
		"en": "General Shop / Whimsy Shop / Chocobo Expedition / SR Soul Medal Exchange Shop"
	},
	"IT_PI_LW_SRJS": {
		"ja": "通常ショップ/気まぐれ屋/探検チョコボ/ソウルメダル【SR】交換所",
		"en": "General Shop / Whimsy Shop / Chocobo Expedition / SR Soul Medal Exchange Shop"
	},
	"IT_PI_LW_UNII": {
		"ja": "通常ショップ/気まぐれ屋/探検チョコボ/ソウルメダル【SR】交換所",
		"en": "General Shop / Whimsy Shop / Chocobo Expedition / SR Soul Medal Exchange Shop"
	},
	"IT_PI_LW_SEVR": {
		"ja": "通常ショップ/気まぐれ屋/探検チョコボ/ソウルメダル【SR】交換所",
		"en": "General Shop / Whimsy Shop / Chocobo Expedition / SR Soul Medal Exchange Shop"
	},
	"IT_PI_LW_VADM": {
		"ja": "通常ショップ/気まぐれ屋/探検チョコボ/ソウルメダル【SR】交換所",
		"en": "General Shop / Whimsy Shop / Chocobo Expedition / SR Soul Medal Exchange Shop"
	},
	"IT_PI_LW_MURM": {
		"ja": "通常ショップ/気まぐれ屋/探検チョコボ",
		"en": "General Shop / Whimsy Shop / Chocobo Expedition"
	},
	"IT_PI_LW_PHBE": {
		"ja": "通常ショップ/気まぐれ屋/探検チョコボ",
		"en": "General Shop / Whimsy Shop / Chocobo Expedition"
	},
	"IT_PI_LW_RART": {
		"ja": "通常ショップ/気まぐれ屋/探検チョコボ/ソウルメダル【R】交換所",
		"en": "General Shop / Whimsy Shop / Chocobo Expedition / R Soul Medal Exchange Shop"
	},
	"IT_PI_LW_MICE": {
		"ja": "通常ショップ/気まぐれ屋/探検チョコボ/ソウルメダル【R】交換所",
		"en": "General Shop / Whimsy Shop / Chocobo Expedition / R Soul Medal Exchange Shop"
	},
	"IT_PI_LW_MIIA": {
		"ja": "通常ショップ/気まぐれ屋/探検チョコボ",
		"en": "General Shop / Whimsy Shop / Chocobo Expedition"
	},
	"IT_PI_LW_ZZAN": {
		"ja": "通常ショップ/探検チョコボ",
		"en": "General Shop / Chocobo Expedition"
	},
	"IT_PI_LW_GLMS": {
		"ja": "通常ショップ/気まぐれ屋/探検チョコボ",
		"en": "General Shop / Whimsy Shop / Chocobo Expedition"
	},
	"IT_PI_FFT_RAMZ": {
		"ja": "通常ショップ/気まぐれ屋",
		"en": "Normal shop / Kimagureya"
	},
	"IT_PI_FFT_ORND": {
		"ja": "通常ショップ/気まぐれ屋",
		"en": "Normal shop / Kimagureya"
	},
	"IT_SB_EXP_FIRE_01": {
		"ja": "探検チョコボ",
		"en": "Chocobo Expedition"
	},
	"IT_SB_EXP_FIRE_02": {
		"ja": "探検チョコボ",
		"en": "Chocobo Expedition"
	},
	"IT_SB_EXP_FIRE_03": {
		"ja": "探検チョコボ",
		"en": "Chocobo Expedition"
	},
	"IT_SB_EXP_FIRE_04": {
		"ja": "探検チョコボ",
		"en": "Chocobo Expedition"
	},
	"IT_SB_EXP_ICE_01": {
		"ja": "探検チョコボ",
		"en": "Chocobo Expedition"
	},
	"IT_SB_EXP_ICE_02": {
		"ja": "探検チョコボ",
		"en": "Chocobo Expedition"
	},
	"IT_SB_EXP_ICE_03": {
		"ja": "探検チョコボ",
		"en": "Chocobo Expedition"
	},
	"IT_SB_EXP_ICE_04": {
		"ja": "探検チョコボ",
		"en": "Chocobo Expedition"
	},
	"IT_SB_EXP_WIND_01": {
		"ja": "探検チョコボ",
		"en": "Chocobo Expedition"
	},
	"IT_SB_EXP_WIND_02": {
		"ja": "探検チョコボ",
		"en": "Chocobo Expedition"
	},
	"IT_SB_EXP_WIND_03": {
		"ja": "探検チョコボ",
		"en": "Chocobo Expedition"
	},
	"IT_SB_EXP_WIND_04": {
		"ja": "探検チョコボ",
		"en": "Chocobo Expedition"
	},
	"IT_SB_EXP_THUNDER_01": {
		"ja": "探検チョコボ",
		"en": "Chocobo Expedition"
	},
	"IT_SB_EXP_THUNDER_02": {
		"ja": "探検チョコボ",
		"en": "Chocobo Expedition"
	},
	"IT_SB_EXP_THUNDER_03": {
		"ja": "探検チョコボ",
		"en": "Chocobo Expedition"
	},
	"IT_SB_EXP_THUNDER_04": {
		"ja": "探検チョコボ",
		"en": "Chocobo Expedition"
	},
	"IT_SB_EXP_SOIL_01": {
		"ja": "探検チョコボ",
		"en": "Chocobo Expedition"
	},
	"IT_SB_EXP_SOIL_02": {
		"ja": "探検チョコボ",
		"en": "Chocobo Expedition"
	},
	"IT_SB_EXP_SOIL_03": {
		"ja": "探検チョコボ",
		"en": "Chocobo Expedition"
	},
	"IT_SB_EXP_SOIL_04": {
		"ja": "探検チョコボ",
		"en": "Chocobo Expedition"
	},
	"IT_SB_EXP_WATER_01": {
		"ja": "探検チョコボ",
		"en": "Chocobo Expedition"
	},
	"IT_SB_EXP_WATER_02": {
		"ja": "探検チョコボ",
		"en": "Chocobo Expedition"
	},
	"IT_SB_EXP_WATER_03": {
		"ja": "探検チョコボ",
		"en": "Chocobo Expedition"
	},
	"IT_SB_EXP_WATER_04": {
		"ja": "探検チョコボ",
		"en": "Chocobo Expedition"
	},
	"IT_SB_EXP_SHINE_01": {
		"ja": "探検チョコボ",
		"en": "Chocobo Expedition"
	},
	"IT_SB_EXP_SHINE_02": {
		"ja": "探検チョコボ",
		"en": "Chocobo Expedition"
	},
	"IT_SB_EXP_SHINE_03": {
		"ja": "探検チョコボ",
		"en": "Chocobo Expedition"
	},
	"IT_SB_EXP_SHINE_04": {
		"ja": "探検チョコボ",
		"en": "Chocobo Expedition"
	},
	"IT_SB_EXP_DARK_01": {
		"ja": "探検チョコボ",
		"en": "Chocobo Expedition"
	},
	"IT_SB_EXP_DARK_02": {
		"ja": "探検チョコボ",
		"en": "Chocobo Expedition"
	},
	"IT_SB_EXP_DARK_03": {
		"ja": "探検チョコボ",
		"en": "Chocobo Expedition"
	},
	"IT_SB_EXP_DARK_04": {
		"ja": "探検チョコボ",
		"en": "Chocobo Expedition"
	},
	"IT_AF_EXP_01": {
		"ja": "通常ショップ/気まぐれ屋/探検チョコボ",
		"en": "General Shop / Whimsy Shop / Chocobo Expedition"
	},
	"IT_AF_EXP_02": {
		"ja": "通常ショップ/気まぐれ屋/探検チョコボ/アリーナメダル交換所/PVPメダル交換所",
		"en": "General Shop / Whimsy Shop / Chocobo Expedition / Arena Medal Exchange Shop / PVP Medal Exchange Shop"
	},
	"IT_AF_EXP_03": {
		"ja": "探検チョコボ/アリーナメダル交換所/PVPメダル交換所",
		"en": "Chocobo Expedition / Arena Medal Exchange Shop / PVP Medal Exchange Shop"
	},
	"IT_AF_AW_SWORD": {
		"ja": "アリーナメダル交換所/PVPメダル交換所",
		"en": "Arena Medal Exchange Shop / PVP Medal Exchange Shop"
	},
	"IT_AF_AW_LSWORD": {
		"ja": "アリーナメダル交換所/PVPメダル交換所",
		"en": "Arena Medal Exchange Shop / PVP Medal Exchange Shop"
	},
	"IT_AF_AW_FIST": {
		"ja": "アリーナメダル交換所/PVPメダル交換所",
		"en": "Arena Medal Exchange Shop / PVP Medal Exchange Shop"
	},
	"IT_AF_AW_JSWORD": {
		"ja": "アリーナメダル交換所/PVPメダル交換所",
		"en": "Arena Medal Exchange Shop / PVP Medal Exchange Shop"
	},
	"IT_AF_AW_SPEAR": {
		"ja": "アリーナメダル交換所/PVPメダル交換所",
		"en": "Arena Medal Exchange Shop / PVP Medal Exchange Shop"
	},
	"IT_AF_AW_SSWORD": {
		"ja": "アリーナメダル交換所/PVPメダル交換所",
		"en": "Arena Medal Exchange Shop / PVP Medal Exchange Shop"
	},
	"IT_AF_AW_KUNAI": {
		"ja": "アリーナメダル交換所/PVPメダル交換所",
		"en": "Arena Medal Exchange Shop / PVP Medal Exchange Shop"
	},
	"IT_AF_AW_BOW": {
		"ja": "アリーナメダル交換所/PVPメダル交換所",
		"en": "Arena Medal Exchange Shop / PVP Medal Exchange Shop"
	},
	"IT_AF_AW_GUN": {
		"ja": "アリーナメダル交換所/PVPメダル交換所",
		"en": "Arena Medal Exchange Shop / PVP Medal Exchange Shop"
	},
	"IT_AF_AW_STAFF": {
		"ja": "アリーナメダル交換所/PVPメダル交換所",
		"en": "Arena Medal Exchange Shop / PVP Medal Exchange Shop"
	},
	"IT_AF_AW_MACE": {
		"ja": "アリーナメダル交換所/PVPメダル交換所",
		"en": "Arena Medal Exchange Shop / PVP Medal Exchange Shop"
	},
	"IT_AF_AW_AXE": {
		"ja": "アリーナメダル交換所/PVPメダル交換所",
		"en": "Arena Medal Exchange Shop / PVP Medal Exchange Shop"
	},
	"IT_AF_AW_ARMOR": {
		"ja": "アリーナメダル交換所/PVPメダル交換所",
		"en": "Arena Medal Exchange Shop / PVP Medal Exchange Shop"
	},
	"IT_AF_AW_ACCE": {
		"ja": "アリーナメダル交換所/PVPメダル交換所",
		"en": "Arena Medal Exchange Shop / PVP Medal Exchange Shop"
	},
	"IT_AF_MAT_FIRE_01": {
		"ja": "通常ショップ/探検チョコボ",
		"en": "General Shop / Chocobo Expedition"
	},
	"IT_AF_MAT_ICE_01": {
		"ja": "通常ショップ/探検チョコボ",
		"en": "General Shop / Chocobo Expedition"
	},
	"IT_AF_MAT_THUNDER_01": {
		"ja": "通常ショップ/探検チョコボ",
		"en": "General Shop / Chocobo Expedition"
	},
	"IT_AF_MAT_WATER_01": {
		"ja": "探検チョコボ",
		"en": "Chocobo Expedition"
	},
	"IT_AF_MAT_SOIL_01": {
		"ja": "探検チョコボ",
		"en": "Chocobo Expedition"
	},
	"IT_AF_MAT_WIND_01": {
		"ja": "探検チョコボ",
		"en": "Chocobo Expedition"
	},
	"IT_AF_MAT_SHINE_01": {
		"ja": "探検チョコボ",
		"en": "Chocobo Expedition"
	},
	"IT_AF_MAT_DARK_01": {
		"ja": "探検チョコボ",
		"en": "Chocobo Expedition"
	},
	"IT_AF_MAT_LESS_01": {
		"ja": "通常ショップ/探検チョコボ/PVPメダル交換所",
		"en": "General Shop / Chocobo Expedition / PVP Medal Exchange Shop"
	},
	"IT_AF_MAT_FIRE_02": {
		"ja": "探検チョコボ",
		"en": "Chocobo Expedition"
	},
	"IT_AF_MAT_ICE_02": {
		"ja": "探検チョコボ",
		"en": "Chocobo Expedition"
	},
	"IT_AF_MAT_THUNDER_02": {
		"ja": "探検チョコボ",
		"en": "Chocobo Expedition"
	},
	"IT_AF_MAT_WATER_02": {
		"ja": "探検チョコボ",
		"en": "Chocobo Expedition"
	},
	"IT_AF_MAT_SOIL_02": {
		"ja": "探検チョコボ",
		"en": "Chocobo Expedition"
	},
	"IT_AF_MAT_WIND_02": {
		"ja": "探検チョコボ",
		"en": "Chocobo Expedition"
	},
	"IT_AF_MAT_SHINE_02": {
		"ja": "探検チョコボ",
		"en": "Chocobo Expedition"
	},
	"IT_AF_MAT_DARK_02": {
		"ja": "探検チョコボ",
		"en": "Chocobo Expedition"
	},
	"IT_AF_MAT_LESS_02": {
		"ja": "探検チョコボ/アリーナメダル交換所",
		"en": "Chocobo Expedition / Arena Medal Exchange Shop"
	},
	"IT_AF_MAT_HEART_01": {
		"ja": "通常ショップ/探検チョコボ",
		"en": "General Shop / Chocobo Expedition"
	},
	"IT_AF_MAT_HEART_02": {
		"ja": "通常ショップ/探検チョコボ",
		"en": "General Shop / Chocobo Expedition"
	},
	"IT_AF_MAT_HEART_03": {
		"ja": "通常ショップ/探検チョコボ/PVPメダル交換所",
		"en": "General Shop / Chocobo Expedition / PVP Medal Exchange Shop"
	},
	"IT_AF_MAT_HEART_04": {
		"ja": "探検チョコボ/PVPメダル交換所",
		"en": "Chocobo Expedition / PVP Medal Exchange Shop"
	},
	"IT_AF_MAT_LIQUID_01": {
		"ja": "通常ショップ/探検チョコボ",
		"en": "General Shop / Chocobo Expedition"
	},
	"IT_AF_MAT_LIQUID_02": {
		"ja": "通常ショップ/探検チョコボ",
		"en": "General Shop / Chocobo Expedition"
	},
	"IT_AF_MAT_LIQUID_03": {
		"ja": "通常ショップ/探検チョコボ/アリーナメダル交換所",
		"en": "General Shop / Chocobo Expedition / Arena Medal Exchange Shop"
	},
	"IT_AF_MAT_LIQUID_04": {
		"ja": "探検チョコボ/アリーナメダル交換所",
		"en": "Chocobo Expedition / Arena Medal Exchange Shop"
	},
	"IT_AF_MAT_SAP_01": {
		"ja": "通常ショップ/探検チョコボ",
		"en": "General Shop / Chocobo Expedition"
	},
	"IT_AF_MAT_SAP_02": {
		"ja": "通常ショップ/探検チョコボ",
		"en": "General Shop / Chocobo Expedition"
	},
	"IT_AF_MAT_SAP_03": {
		"ja": "通常ショップ/探検チョコボ",
		"en": "General Shop / Chocobo Expedition"
	},
	"IT_AF_MAT_SAP_04": {
		"ja": "探検チョコボ",
		"en": "Chocobo Expedition"
	},
	"IT_AF_MAT_SAND_01": {
		"ja": "通常ショップ/探検チョコボ",
		"en": "General Shop / Chocobo Expedition"
	},
	"IT_AF_MAT_SAND_02": {
		"ja": "通常ショップ/探検チョコボ",
		"en": "General Shop / Chocobo Expedition"
	},
	"IT_AF_MAT_SAND_03": {
		"ja": "通常ショップ/探検チョコボ",
		"en": "General Shop / Chocobo Expedition"
	},
	"IT_AF_MAT_SAND_04": {
		"ja": "探検チョコボ",
		"en": "Chocobo Expedition"
	},
	"IT_AF_MAT_OGRE": {
		"ja": "通常ショップ/探検チョコボ",
		"en": "General Shop / Chocobo Expedition"
	},
	"IT_AF_MAT_BOMB": {
		"ja": "通常ショップ/探検チョコボ",
		"en": "General Shop / Chocobo Expedition"
	},
	"IT_AF_MAT_MABR": {
		"ja": "探検チョコボ",
		"en": "Chocobo Expedition"
	},
	"IT_AF_MAT_WOLF": {
		"ja": "探検チョコボ/PVPメダル交換所",
		"en": "Chocobo Expedition / PVP Medal Exchange Shop"
	},
	"IT_AF_MAT_ZUUU": {
		"ja": "探検チョコボ/アリーナメダル交換所",
		"en": "Chocobo Expedition / Arena Medal Exchange Shop"
	},
	"IT_AF_MAT_BONE": {
		"ja": "探検チョコボ/PVPメダル交換所",
		"en": "Chocobo Expedition / PVP Medal Exchange Shop"
	},
	"IT_AF_MAT_ARMN": {
		"ja": "通常ショップ/探検チョコボ/PVPメダル交換所",
		"en": "General Shop / Chocobo Expedition / PVP Medal Exchange Shop"
	},
	"IT_AF_MAT_MYTHRIL": {
		"ja": "探検チョコボ",
		"en": "Chocobo Expedition"
	},
	"IT_AF_LW_SWO_001": {
		"ja": "通常ショップ",
		"en": "General Shop"
	},
	"IT_AF_LW_SWO_002": {
		"ja": "通常ショップ",
		"en": "General Shop"
	},
	"IT_AF_LW_SWO_003": {
		"ja": "通常ショップ",
		"en": "General Shop"
	},
	"IT_AF_LW_SWO_004": {
		"ja": "通常ショップ",
		"en": "General Shop"
	},
	"IT_AF_LW_SWO_005": {
		"ja": "通常ショップ",
		"en": ""
	},
	"IT_AF_LW_SWO_006": {
		"ja": "通常ショップ",
		"en": ""
	},
	"IT_AF_LW_BSW_001": {
		"ja": "通常ショップ",
		"en": "General Shop"
	},
	"IT_AF_LW_BSW_002": {
		"ja": "通常ショップ",
		"en": "General Shop"
	},
	"IT_AF_LW_BSW_004": {
		"ja": "通常ショップ",
		"en": "General Shop"
	},
	"IT_AF_LW_KAT_001": {
		"ja": "通常ショップ",
		"en": "General Shop"
	},
	"IT_AF_LW_KAT_002": {
		"ja": "通常ショップ",
		"en": "General Shop"
	},
	"IT_AF_LW_KAT_003": {
		"ja": "通常ショップ",
		"en": "General Shop"
	},
	"IT_AF_LW_FIS_001": {
		"ja": "通常ショップ",
		"en": "General Shop"
	},
	"IT_AF_LW_FIS_002": {
		"ja": "通常ショップ",
		"en": "General Shop"
	},
	"IT_AF_LW_FIS_003": {
		"ja": "通常ショップ",
		"en": "General Shop"
	},
	"IT_AF_LW_SPE_001": {
		"ja": "通常ショップ",
		"en": "General Shop"
	},
	"IT_AF_LW_SPE_002": {
		"ja": "通常ショップ",
		"en": "General Shop"
	},
	"IT_AF_LW_SPE_006": {
		"ja": "通常ショップ",
		"en": "General Shop"
	},
	"IT_AF_LW_DAG_001": {
		"ja": "通常ショップ",
		"en": "General Shop"
	},
	"IT_AF_LW_DAG_002": {
		"ja": "通常ショップ",
		"en": "General Shop"
	},
	"IT_AF_LW_DAG_004": {
		"ja": "通常ショップ",
		"en": "General Shop"
	},
	"IT_AF_LW_NKN_001": {
		"ja": "通常ショップ",
		"en": "General Shop"
	},
	"IT_AF_LW_NKN_002": {
		"ja": "通常ショップ",
		"en": "General Shop"
	},
	"IT_AF_LW_NKN_003": {
		"ja": "通常ショップ",
		"en": "General Shop"
	},
	"IT_AF_LW_BOW_001": {
		"ja": "通常ショップ",
		"en": "General Shop"
	},
	"IT_AF_LW_BOW_002": {
		"ja": "通常ショップ",
		"en": "General Shop"
	},
	"IT_AF_LW_BOW_003": {
		"ja": "通常ショップ",
		"en": "General Shop"
	},
	"IT_AF_LW_GUN_001": {
		"ja": "通常ショップ",
		"en": "General Shop"
	},
	"IT_AF_LW_GUN_002": {
		"ja": "通常ショップ",
		"en": "General Shop"
	},
	"IT_AF_LW_GUN_003": {
		"ja": "通常ショップ",
		"en": "General Shop"
	},
	"IT_AF_LW_ROD_002": {
		"ja": "通常ショップ",
		"en": "General Shop"
	},
	"IT_AF_LW_ROD_004": {
		"ja": "通常ショップ",
		"en": "General Shop"
	},
	"IT_AF_LW_ROD_005": {
		"ja": "通常ショップ",
		"en": "General Shop"
	},
	"IT_AF_LW_MAC_001": {
		"ja": "通常ショップ",
		"en": "General Shop"
	},
	"IT_AF_LW_MAC_002": {
		"ja": "通常ショップ",
		"en": "General Shop"
	},
	"IT_AF_LW_MAC_003": {
		"ja": "通常ショップ",
		"en": "General Shop"
	},
	"IT_AF_LW_ARM_002": {
		"ja": "通常ショップ",
		"en": "General Shop"
	},
	"IT_AF_LW_ARM_003": {
		"ja": "通常ショップ",
		"en": "General Shop"
	},
	"IT_AF_LW_ARM_004": {
		"ja": "通常ショップ",
		"en": "General Shop"
	},
	"IT_AF_LW_HAT_002": {
		"ja": "通常ショップ",
		"en": "General Shop"
	},
	"IT_AF_LW_HAT_003": {
		"ja": "通常ショップ",
		"en": "General Shop"
	},
	"IT_AF_LW_HAT_004": {
		"ja": "通常ショップ",
		"en": "General Shop"
	},
	"IT_AF_LW_CLT_001": {
		"ja": "通常ショップ",
		"en": "General Shop"
	},
	"IT_AF_LW_CLT_002": {
		"ja": "通常ショップ",
		"en": "General Shop"
	},
	"IT_AF_LW_CLT_003": {
		"ja": "通常ショップ",
		"en": "General Shop"
	},
	"IT_AF_LW_CLT_004": {
		"ja": "通常ショップ",
		"en": "General Shop"
	},
	"IT_AF_LW_HLM_002": {
		"ja": "通常ショップ",
		"en": "General Shop"
	},
	"IT_AF_LW_HLM_003": {
		"ja": "通常ショップ",
		"en": "General Shop"
	},
	"IT_AF_LW_HLM_004": {
		"ja": "通常ショップ",
		"en": "General Shop"
	},
	"IT_AF_LW_RNG_002": {
		"ja": "通常ショップ",
		"en": "General Shop"
	},
	"IT_AF_LW_RNG_003": {
		"ja": "通常ショップ",
		"en": "General Shop"
	},
	"IT_AF_LW_RNG_004": {
		"ja": "通常ショップ",
		"en": "General Shop"
	},
	"IT_AF_LW_ROD_007": {
		"ja": "アリーナメダル交換所",
		"en": "Arena Medal Exchange Shop"
	},
	"IT_AF_LW_ARM_005": {
		"ja": "PVPメダル交換所",
		"en": "PVP Medal Exchange Shop"
	},
	"IT_AF_LW_FTW_001": {
		"ja": "PVPメダル交換所",
		"en": "PVP Medal Exchange Shop"
	},
	"IT_AF_LW_AXE_001": {
		"ja": "通常ショップ",
		"en": "General Shop"
	},
	"IT_AF_LW_AXE_002": {
		"ja": "通常ショップ",
		"en": "General Shop"
	},
	"IT_AF_LW_AXE_003": {
		"ja": "通常ショップ",
		"en": "General Shop"
	},
	"IT_AF_SUP_HP": {
		"ja": "アリーナメダル交換所/PVPメダル交換所",
		"en": "Arena Medal Exchange Shop / PVP Medal Exchange Shop"
	},
	"IT_AF_SUP_ATK": {
		"ja": "アリーナメダル交換所/PVPメダル交換所",
		"en": "Arena Medal Exchange Shop / PVP Medal Exchange Shop"
	},
	"IT_AF_SUP_MAG": {
		"ja": "アリーナメダル交換所/PVPメダル交換所",
		"en": "Arena Medal Exchange Shop / PVP Medal Exchange Shop"
	},
	"IT_AF_SUP_MND": {
		"ja": "アリーナメダル交換所/PVPメダル交換所",
		"en": "Arena Medal Exchange Shop / PVP Medal Exchange Shop"
	},
	"IT_AF_SUP_DEF": {
		"ja": "アリーナメダル交換所/PVPメダル交換所",
		"en": "Arena Medal Exchange Shop / PVP Medal Exchange Shop"
	},
	"IT_AF_SUP_AVO": {
		"ja": "アリーナメダル交換所/PVPメダル交換所",
		"en": "Arena Medal Exchange Shop / PVP Medal Exchange Shop"
	},
	"IT_AF_SUP_HIT": {
		"ja": "アリーナメダル交換所/PVPメダル交換所",
		"en": "Arena Medal Exchange Shop / PVP Medal Exchange Shop"
	},
	"IT_AF_SUP_CRI": {
		"ja": "アリーナメダル交換所/PVPメダル交換所",
		"en": "Arena Medal Exchange Shop / PVP Medal Exchange Shop"
	},
	"IT_AF_PT_ATK": {
		"ja": "アリーナメダル交換所/PVPメダル交換所",
		"en": "Arena Medal Exchange Shop / PVP Medal Exchange Shop"
	},
	"IT_AF_PT_MAG": {
		"ja": "アリーナメダル交換所/PVPメダル交換所",
		"en": "Arena Medal Exchange Shop / PVP Medal Exchange Shop"
	},
	"IT_AF_PT_DEF": {
		"ja": "アリーナメダル交換所/PVPメダル交換所",
		"en": "Arena Medal Exchange Shop / PVP Medal Exchange Shop"
	},
	"IT_AF_PT_MND": {
		"ja": "アリーナメダル交換所/PVPメダル交換所",
		"en": "Arena Medal Exchange Shop / PVP Medal Exchange Shop"
	},
	"IT_AF_PT_HIT": {
		"ja": "アリーナメダル交換所/PVPメダル交換所",
		"en": "Arena Medal Exchange Shop / PVP Medal Exchange Shop"
	},
	"IT_AF_PT_CRI": {
		"ja": "アリーナメダル交換所/PVPメダル交換所",
		"en": "Arena Medal Exchange Shop / PVP Medal Exchange Shop"
	},
	"IT_AF_PT_AVO": {
		"ja": "アリーナメダル交換所/PVPメダル交換所",
		"en": "Arena Medal Exchange Shop / PVP Medal Exchange Shop"
	},
	"IT_AF_PT_HP": {
		"ja": "アリーナメダル交換所/PVPメダル交換所",
		"en": "Arena Medal Exchange Shop / PVP Medal Exchange Shop"
	},
	"IT_AF_PT_SPD": {
		"ja": "アリーナメダル交換所/PVPメダル交換所",
		"en": "Arena Medal Exchange Shop / PVP Medal Exchange Shop"
	},
	"IT_AD_TICKET_2": {
		"ja": "フレンドメダル交換所",
		"en": "Friend Medal Exchange Shop"
	},
	"IT_AD_TICKET_5": {
		"ja": "フレンドメダル交換所",
		"en": "Friend Medal Exchange Shop"
	},
	"IT_AD_TICKET_10": {
		"ja": "フレンドメダル交換所",
		"en": "Friend Medal Exchange Shop"
	},
	"IT_VPI_LW_GLEM": {
		"ja": "ビジョンメダル【UR】交換所",
		"en": "General Shop / UR Vision Medal Exchange Shop"
	},
	"IT_VPI_LW_IFRT": {
		"ja": "ビジョンメダル【UR】交換所",
		"en": "General Shop / UR Vision Medal Exchange Shop"
	},
	"IT_VPI_LW_SIRE": {
		"ja": "ビジョンメダル【UR】交換所",
		"en": "General Shop / UR Vision Medal Exchange Shop"
	},
	"IT_VPI_LW_SOKYU": {
		"ja": "ビジョンメダル【UR】交換所",
		"en": "General Shop / UR Vision Medal Exchange Shop"
	},
	"IT_VPI_LW_TRAINING": {
		"ja": "ビジョンメダル【UR】交換所",
		"en": "General Shop / UR Vision Medal Exchange Shop"
	},
	"IT_VPI_LW_MACR": {
		"ja": "ビジョンメダル【UR】交換所",
		"en": "General Shop / UR Vision Medal Exchange Shop"
	},
	"IT_VPI_LW_MURG": {
		"ja": "ビジョンメダル【UR】交換所",
		"en": "General Shop / UR Vision Medal Exchange Shop"
	},
	"IT_VPI_LW_GRSR": {
		"ja": "ビジョンメダル【UR】交換所",
		"en": "General Shop / UR Vision Medal Exchange Shop"
	},
	"IT_VPI_LW_IGNT": {
		"ja": "ビジョンメダル【SSR】交換所",
		"en": "General Shop / MR Vision Medal Exchange Shop"
	},
	"IT_VPI_LW_BHMT": {
		"ja": "ビジョンメダル【SSR】交換所",
		"en": "General Shop / MR Vision Medal Exchange Shop"
	},
	"IT_VPI_LW_MABR": {
		"ja": "ビジョンメダル【SSR】交換所",
		"en": "General Shop / MR Vision Medal Exchange Shop"
	},
	"IT_VPI_LW_KTON": {
		"ja": "ビジョンメダル【SSR】交換所",
		"en": "General Shop / MR Vision Medal Exchange Shop"
	},
	"IT_VPI_LW_PROPOSE": {
		"ja": "ビジョンメダル【SSR】交換所",
		"en": "General Shop / MR Vision Medal Exchange Shop"
	},
	"IT_VPI_LW_TEAPARTY": {
		"ja": "ビジョンメダル【SSR】交換所",
		"en": "General Shop / MR Vision Medal Exchange Shop"
	},
	"IT_VPI_LW_CACT": {
		"ja": "ビジョンメダル【SR】交換所",
		"en": "General Shop / SR Vision Medal Exchange Shop"
	},
	"IT_VPI_LW_ARMN_01": {
		"ja": "ビジョンメダル【SR】交換所",
		"en": "General Shop / SR Vision Medal Exchange Shop"
	},
	"IT_VPI_LW_ZUUU": {
		"ja": "ビジョンメダル【SR】交換所",
		"en": "General Shop / SR Vision Medal Exchange Shop"
	},
	"IT_VPI_LW_OGRE": {
		"ja": "ビジョンメダル【SR】交換所",
		"en": "General Shop / SR Vision Medal Exchange Shop"
	},
	"IT_VPI_LW_BOMB": {
		"ja": "ビジョンメダル【SR】交換所",
		"en": "General Shop / SR Vision Medal Exchange Shop"
	},
	"IT_VPI_LW_BYLO": {
		"ja": "ビジョンメダル【SR】交換所",
		"en": "General Shop / SR Vision Medal Exchange Shop"
	},
	"IT_VPI_LW_RART": {
		"ja": "ビジョンメダル【SR】交換所",
		"en": "General Shop / SR Vision Medal Exchange Shop"
	},
	"IT_VPI_LW_LEONIS": {
		"ja": "ビジョンメダル【R】交換所",
		"en": "General Shop / R Vision Medal Exchange Shop"
	},
	"IT_VPI_LW_HOURN": {
		"ja": "ビジョンメダル【R】交換所",
		"en": "General Shop / R Vision Medal Exchange Shop"
	},
	"IT_VPI_LW_FENICE": {
		"ja": "ビジョンメダル【R】交換所",
		"en": "General Shop / R Vision Medal Exchange Shop"
	},
	"IT_VPI_LW_WEZETT": {
		"ja": "ビジョンメダル【R】交換所",
		"en": "General Shop / R Vision Medal Exchange Shop"
	},
	"IT_VPI_LW_CRYSTAL": {
		"ja": "ビジョンメダル【R】交換所",
		"en": "General Shop / R Vision Medal Exchange Shop"
	},
	"IT_VPI_LW_LEONIS2": {
		"ja": "ビジョンメダル【R】交換所",
		"en": "General Shop / R Vision Medal Exchange Shop"
	},
	"IT_VPI_LW_HOURN2": {
		"ja": "ビジョンメダル【R】交換所",
		"en": "General Shop / R Vision Medal Exchange Shop"
	},
	"IT_VPI_LW_FENICE2": {
		"ja": "ビジョンメダル【R】交換所",
		"en": "General Shop / R Vision Medal Exchange Shop"
	},
	"IT_VPI_LW_WEZETT2": {
		"ja": "ビジョンメダル【R】交換所",
		"en": "General Shop / R Vision Medal Exchange Shop"
	},
	"IT_VPI_LW_DYNVERK": {
		"ja": "ビジョンメダル【R】交換所",
		"en": "General Shop / R Vision Medal Exchange Shop"
	},
	"IT_VPI_LW_TRSV_01": {
		"ja": "ビジョンメダル【N】交換所",
		"en": "N Vision Medal Exchange Shop"
	},
	"IT_VPI_LW_TRSV_02": {
		"ja": "ビジョンメダル【N】交換所",
		"en": "N Vision Medal Exchange Shop"
	},
	"IT_VPI_LW_MIRROR": {
		"ja": "ビジョンメダル【N】交換所",
		"en": "N Vision Medal Exchange Shop"
	},
	"IT_VC_EXP_01": {
		"ja": "通常ショップ/気まぐれ屋/探検チョコボ",
		"en": "General Shop / Whimsy Shop / Chocobo Expedition"
	},
	"IT_VC_EXP_02": {
		"ja": "通常ショップ/気まぐれ屋/探検チョコボ/ビジョンメダル【R】交換所",
		"en": "General Shop / Whimsy Shop / Chocobo Expedition / R Vision Medal Exchange Shop"
	},
	"IT_VC_EXP_03": {
		"ja": "探検チョコボ/ビジョンメダル【SR】交換所",
		"en": "Chocobo Expedition / SR Vision Medal Exchange Shop"
	},
	"IT_GU_FOOD_06": {
		"ja": "ギルドメダル交換所",
		"en": "Guild Medal Exchange Shop"
	},
	"IT_GU_EXP_S2_01": {
		"ja": "ギルドメダル交換所",
		"en": "Guild Medal Exchange Shop"
	},
	"IT_GU_EXP_S2_02": {
		"ja": "ギルドメダル交換所",
		"en": "Guild Medal Exchange Shop"
	},
	"IT_GU_EXP_S2_03": {
		"ja": "ギルドメダル交換所",
		"en": "Guild Medal Exchange Shop"
	},
	"IT_GU_EXP_S3_01": {
		"ja": "ギルドメダル交換所",
		"en": "Guild Medal Exchange Shop"
	},
	"IT_GU_EXP_S3_02": {
		"ja": "ギルドメダル交換所",
		"en": "Guild Medal Exchange Shop"
	},
	"IT_GU_EXP_S3_03": {
		"ja": "ギルドメダル交換所",
		"en": "Guild Medal Exchange Shop"
	},
	"IT_GU_EXP_S4_01": {
		"ja": "ギルドメダル交換所",
		"en": "Guild Medal Exchange Shop"
	},
	"IT_GU_EXP_S4_02": {
		"ja": "ギルドメダル交換所",
		"en": "Guild Medal Exchange Shop"
	},
	"IT_GU_EXP_S4_03": {
		"ja": "ギルドメダル交換所",
		"en": "Guild Medal Exchange Shop"
	},
	"IT_GU_EXP_S1_01": {
		"ja": "ギルドメダル交換所",
		"en": "Guild Medal Exchange Shop"
	},
	"IT_GU_EXP_S1_02": {
		"ja": "ギルドメダル交換所",
		"en": "Guild Medal Exchange Shop"
	},
	"IT_GU_EXP_S1_03": {
		"ja": "ギルドメダル交換所",
		"en": "Guild Medal Exchange Shop"
	},
	"IT_JB_MM_TIM_2": {
		"ja": "ソウルメダル【R】交換所",
		"en": "R Soul Medal Exchange Shop"
	},
	"IT_JB_MM_TIM_3": {
		"ja": "ソウルメダル【SR】交換所",
		"en": "SR Soul Medal Exchange Shop"
	},
	"IT_JB_MM_TIM_4": {
		"ja": "ソウルメダル【SSR】交換所",
		"en": "MR Soul Medal Exchange Shop"
	},
	"IT_JB_MM_TIM_5": {
		"ja": "ソウルメダル【UR】交換所",
		"en": "UR Soul Medal Exchange Shop"
	},
	"IT_PI_LW_MRND": {
		"ja": "通常ショップ/気まぐれ屋/探検チョコボ",
		"en": "Normal shop / Kimagureya / exploration Chocobo"
	},
	"IT_PI_LW_DRND": {
		"ja": "通常ショップ/気まぐれ屋/探検チョコボ",
		"en": "Normal shop / Kimagureya / exploration Chocobo"
	},
	"IT_SB_AW_IFRT_R2": {
		"ja": "強敵の間イフリート戦",
		"en": "Beast's Den Ifrit Battle"
	},
	"IT_SB_AW_GLEM_R2": {
		"ja": "強敵の間ゴーレム戦",
		"en": "Beast's Den Golem Battle"
	},
	"IT_SB_AW_SIRE_R2": {
		"ja": "強敵の間セイレーン戦",
		"en": "Beast's Den Siren Battle"
	},
	"IT_SB_AW_SHIV_R2": {
		"ja": "強敵の間シヴァ戦",
		"en": "Between the formidable enemy Shiva game"
	},
	"IT_SB_AW_IGNT_R2": {
		"ja": "強敵の間鉄巨人戦",
		"en": "Beast's Den Iron Giant Battle"
	},
	"IT_SB_AW_BHMT_R2": {
		"ja": "強敵の間ベヒーモス戦",
		"en": "Beast's Den Behemoth Battle"
	},
	"IT_SB_AW_MABR_R2": {
		"ja": "強敵の間モルボル戦",
		"en": "Beast's Den Malboro Battle"
	},
	"IT_SB_AW_RAMU_R2": {
		"ja": "強敵の間ラムウ戦",
		"en": "Between the formidable enemy Ramuu game"
	},
	"IT_SB_AW_ODIN_R2": {
		"ja": "強敵の間オーディン戦",
		"en": "Between the formidable enemy Odin game"
	},
	"IT_SB_AW_LAMA_01_R2": {
		"ja": "強敵の間ラミアクイーン戦",
		"en": "Between the formidable Lamia Queen game"
	},
	"IT_JB_MM_COMMON_2": {
		"ja": "ソウルメダル【R】交換所",
		"en": ""
	},
	"IT_JB_MM_COMMON_3": {
		"ja": "ソウルメダル【SR】交換所",
		"en": ""
	},
	"IT_JB_MM_COMMON_4": {
		"ja": "フレンドメダル交換所/ソウルメダル【SSR】交換所",
		"en": ""
	},
	"IT_JB_MM_COMMON_5": {
		"ja": "フレンドメダル交換所/ソウルメダル【UR】交換所",
		"en": ""
	},
	"IT_JB_MM_VIK_2": {
		"ja": "ソウルメダル【R】交換所",
		"en": "R Soul Medal Exchange Shop"
	},
	"IT_JB_MM_VIK_3": {
		"ja": "ソウルメダル【SR】交換所",
		"en": "SR Soul Medal Exchange Shop"
	},
	"IT_JB_MM_VIK_4": {
		"ja": "ソウルメダル【SSR】交換所",
		"en": "MR Soul Medal Exchange Shop"
	},
	"IT_JB_MM_VIK_5": {
		"ja": "ソウルメダル【UR】交換所",
		"en": "UR Soul Medal Exchange Shop"
	},
	"IT_JB_MM_WGN_2": {
		"ja": "ソウルメダル【R】交換所",
		"en": "Seoul medal [R] clearinghouse"
	},
	"IT_JB_MM_WGN_3": {
		"ja": "ソウルメダル【SR】交換所",
		"en": "Seoul medal [SR] clearinghouse"
	},
	"IT_JB_MM_WGN_4": {
		"ja": "ソウルメダル【SSR】交換所",
		"en": "Seoul medal [SSR] clearinghouse"
	},
	"IT_JB_MM_WGN_5": {
		"ja": "ソウルメダル【UR】交換所",
		"en": "Seoul medal [UR] clearinghouse"
	},
	"IT_PI_LW_WHIS": {
		"ja": "通常ショップ/気まぐれ屋/探検チョコボ",
		"en": "Normal shop / Kimagureya / exploration Chocobo"
	},
	"IT_PI_LW_KTON": {
		"ja": "通常ショップ/気まぐれ屋/探検チョコボ",
		"en": "Normal shop / Kimagureya / exploration Chocobo"
	},
	"IT_PI_LW_LUCA": {
		"ja": "通常ショップ/気まぐれ屋/探検チョコボ",
		"en": "Normal shop / Kimagureya / exploration Chocobo"
	},
	"IT_PI_LW_ADLD": {
		"ja": "通常ショップ/気まぐれ屋/探検チョコボ",
		"en": "Normal shop / Kimagureya / exploration Chocobo"
	},
	"IT_SB_AW_TSLP_R2": {
		"ja": "強敵の間テトラシルフィード戦",
		"en": "Between the formidable tetra Sylphide game"
	},
	"IT_VPI_LW_SHIV": {
		"ja": "ビジョンメダル【UR】交換所",
		"en": "Vision medal [UR] clearinghouse"
	},
	"IT_VPI_LW_RAMU": {
		"ja": "ビジョンメダル【UR】交換所",
		"en": "Vision medal [UR] clearinghouse"
	},
	"IT_VPI_LW_ODIN": {
		"ja": "ビジョンメダル【UR】交換所",
		"en": "Vision medal [UR] clearinghouse"
	},
	"IT_VPI_LW_FAMILY": {
		"ja": "ビジョンメダル【SSR】交換所",
		"en": "General Shop / MR Vision Medal Exchange Shop"
	},
	"IT_VPI_LW_SDLX": {
		"ja": "ビジョンメダル【SSR】交換所",
		"en": "General Shop / MR Vision Medal Exchange Shop"
	},
	"IT_VPI_LW_HUNT": {
		"ja": "ビジョンメダル【SSR】交換所",
		"en": "General Shop / MR Vision Medal Exchange Shop"
	},
	"IT_VPI_LW_LAMA_01": {
		"ja": "ビジョンメダル【SSR】交換所",
		"en": "Vision medal [SSR] clearinghouse"
	},
	"IT_VPI_LW_GUARD": {
		"ja": "ビジョンメダル【SSR】交換所",
		"en": "Vision medal [SSR] clearinghouse"
	},
	"IT_VPI_LW_RYER": {
		"ja": "ビジョンメダル【SR】交換所",
		"en": "General Shop / SR Vision Medal Exchange Shop"
	},
	"IT_VPI_LW_VNLA": {
		"ja": "ビジョンメダル【SR】交換所",
		"en": "General Shop / SR Vision Medal Exchange Shop"
	},
	"IT_VPI_LW_RIRY": {
		"ja": "ビジョンメダル【SR】交換所",
		"en": "General Shop / SR Vision Medal Exchange Shop"
	},
	"IT_PI_LW_VKTR": {
		"ja": "通常ショップ/気まぐれ屋/探検チョコボ",
		"en": "Normal shop / Kimagureya / exploration Chocobo"
	},
	"IT_PI_LW_THLA": {
		"ja": "通常ショップ/気まぐれ屋/探検チョコボ",
		"en": "Normal shop / Kimagureya / exploration Chocobo"
	},
	"IT_SB_AW_OCHU_R2": {
		"ja": "強敵の間オチュー戦",
		"en": "Between the formidable enemy Ochu game"
	},
	"IT_JB_MM_ASS_2": {
		"ja": "ソウルメダル【R】交換所",
		"en": "Seoul medal [R] clearinghouse"
	},
	"IT_JB_MM_ASS_3": {
		"ja": "ソウルメダル【SR】交換所",
		"en": "Seoul medal [SR] clearinghouse"
	},
	"IT_JB_MM_ASS_4": {
		"ja": "ソウルメダル【SSR】交換所",
		"en": "Seoul medal [SSR] clearinghouse"
	},
	"IT_JB_MM_ASS_5": {
		"ja": "ソウルメダル【UR】交換所",
		"en": "Seoul medal [UR] clearinghouse"
	},
	"IT_PI_LW_VNLA": {
		"ja": "通常ショップ/気まぐれ屋/探検チョコボ",
		"en": "Normal shop / Kimagureya / exploration Chocobo"
	},
	"IT_PI_LW_DRIO": {
		"ja": "通常ショップ/気まぐれ屋/探検チョコボ",
		"en": "Normal shop / Kimagureya / exploration Chocobo"
	},
	"IT_SB_AW_THDG_R2": {
		"ja": "強敵の間２ヘッドドラゴン戦",
		"en": "2 head dragon battle between the formidable enemy"
	},
	"IT_AF_LW_SPE_004": {
		"ja": "通常ショップ",
		"en": "General Shop"
	},
	"IT_AF_LW_DAG_006": {
		"ja": "通常ショップ",
		"en": "General Shop"
	},
	"IT_AF_RESET": {
		"ja": "アリーナメダル交換所/PVPメダル交換所",
		"en": "Arena Medal Exchange Shop / PVP Medal Exchange Shop"
	},
	"IT_VPI_LW_TSLP": {
		"ja": "通常ショップ/ビジョンメダル【UR】交換所",
		"en": "Normal shop / vision medal [UR] clearinghouse"
	},
	"IT_VPI_LW_LILS": {
		"ja": "通常ショップ/ビジョンメダル【SSR】交換所",
		"en": "Normal shop / vision medal [SSR] clearinghouse"
	},
	"IT_VPI_LW_OCHU": {
		"ja": "通常ショップ/ビジョンメダル【SSR】交換所",
		"en": "Normal shop / vision medal [SSR] clearinghouse"
	},
	"IT_VPI_LW_THDG": {
		"ja": "通常ショップ",
		"en": "Normal shop"
	},
	"IT_VPI_LW_ADLD": {
		"ja": "通常ショップ",
		"en": "Normal shop"
	},
	"IT_VPI_LW_VNLA2": {
		"ja": "通常ショップ",
		"en": "Normal shop"
	},
	"IT_PI_LW_RAIN": {
		"ja": "通常ショップ/気まぐれ屋/探検チョコボ",
		"en": "Normal shop / Kimagureya / exploration Chocobo"
	},
	"IT_JB_MM_LW_RAIN_2": {
		"ja": "ソウルメダル【R】交換所",
		"en": "Seoul medal [R] clearinghouse"
	},
	"IT_JB_MM_LW_RAIN_3": {
		"ja": "ソウルメダル【SR】交換所",
		"en": "Seoul medal [SR] clearinghouse"
	},
	"IT_JB_MM_LW_RAIN_4": {
		"ja": "ソウルメダル【SSR】交換所",
		"en": "Seoul medal [SSR] clearinghouse"
	},
	"IT_JB_MM_LW_RAIN_5": {
		"ja": "ソウルメダル【UR】交換所",
		"en": "Seoul medal [UR] clearinghouse"
	},
	"IT_JB_MM_MST_2": {
		"ja": "ソウルメダル【R】交換所",
		"en": "Seoul medal [R] clearinghouse"
	},
	"IT_JB_MM_MST_3": {
		"ja": "ソウルメダル【SR】交換所",
		"en": "Seoul medal [SR] clearinghouse"
	},
	"IT_JB_MM_MST_4": {
		"ja": "ソウルメダル【SSR】交換所",
		"en": "Seoul medal [SSR] clearinghouse"
	},
	"IT_JB_MM_MST_5": {
		"ja": "ソウルメダル【UR】交換所",
		"en": "Seoul medal [UR] clearinghouse"
	},
	"IT_PI_LW_QILF": {
		"ja": "通常ショップ/気まぐれ屋/探検チョコボ",
		"en": "Normal shop / Kimagureya / exploration Chocobo"
	},
	"IT_PI_LW_SIMR": {
		"ja": "通常ショップ/気まぐれ屋/探検チョコボ",
		"en": "Normal shop / Kimagureya / exploration Chocobo"
	},
	"IT_SB_AW_DABL_R2": {
		"ja": "強敵の間ディアボロス戦",
		"en": "Between the formidable diabolo scan warfare"
	},
	"IT_VPI_LW_CBVPARTY1": {
		"ja": "通常ショップ",
		"en": "Normal shop"
	},
	"IT_VPI_LW_DABL": {
		"ja": "通常ショップ",
		"en": "Normal shop"
	},
	"IT_PI_LW_ORDR": {
		"ja": "通常ショップ/気まぐれ屋/探検チョコボ",
		"en": "Normal shop / Kimagureya / exploration Chocobo"
	},
	"IT_PI_LW_LVES": {
		"ja": "通常ショップ/気まぐれ屋/探検チョコボ",
		"en": "Normal shop / Kimagureya / exploration Chocobo"
	},
	"IT_VC_EXP_04": {
		"ja": "気まぐれ屋",
		"en": "Kimagureya"
	},
	"IT_JB_MM_CAL_2": {
		"ja": "ソウルメダル【R】交換所",
		"en": "Seoul medal [R] clearinghouse"
	},
	"IT_JB_MM_CAL_3": {
		"ja": "ソウルメダル【SR】交換所",
		"en": "Seoul medal [SR] clearinghouse"
	},
	"IT_JB_MM_CAL_4": {
		"ja": "ソウルメダル【SSR】交換所",
		"en": "Seoul medal [SSR] clearinghouse"
	},
	"IT_JB_MM_CAL_5": {
		"ja": "ソウルメダル【UR】交換所",
		"en": "Seoul medal [UR] clearinghouse"
	},
	"IT_PI_LW_IRDL": {
		"ja": "通常ショップ/気まぐれ屋/探検チョコボ",
		"en": "Normal shop / Kimagureya / exploration Chocobo"
	},
	"IT_SB_AW_MDFY_R2": {
		"ja": "強敵の間マインドフレイア戦",
		"en": "Between the formidable mind Freya game"
	},
	"IT_VPI_LW_ROBUST": {
		"ja": "通常ショップ",
		"en": "Normal shop"
	},
	"IT_VPI_LW_MDFY": {
		"ja": "通常ショップ",
		"en": "Normal shop"
	}
}