{
	"LGBA_001": {
		"ja": "敵1パーティの開示",
		"en": "Disclosure enemy party"
	},
	"LGBA_002": {
		"ja": "攻撃回数を1回増加",
		"en": "Increase once the number of attacks"
	},
	"LGBA_003": {
		"ja": "アビリティ使用回数を1回復",
		"en": "Abilities use the number of times a recovery"
	}
}