{
	"PB_LGB_Noraml01": {
		"ja": "特に制限はありません",
		"en": "There is no particular limitation"
	},
	"PB_LGB_Normal02": {
		"ja": "特に制限はありません",
		"en": "There is no particular limitation"
	},
	"PB_LGB_Normal03": {
		"ja": "特に制限はありません",
		"en": "There is no particular limitation"
	}
}