{
	"001": {
		"ja": "……ふう。<br>何とか逃げ切ったか。",
		"en": "...... Fu. <br> somehow did Nigeki'."
	},
	"002": {
		"ja": "ヤバかったな。<br>なぁ。",
		"en": "It did not Yaba. <br> Naa."
	},
	"003": {
		"ja": "ホントによかったのか。<br>これで……。",
		"en": "What was good really. <br> This ...."
	},
	"004": {
		"ja": "あの場面なら<br>逃げるしかねえだろ！",
		"en": "Will not only run away <br> if that scene!"
	},
	"005": {
		"ja": "あの場にとどまってたら<br>俺たち全員ぶっ殺されてたぜ？",
		"en": "If I stayed in that place <br> had been Buttobasa us all?"
	},
	"006": {
		"ja": "だが、僧兵どもの中に<br>生き延びた奴がいたら……<br>どうするつもりだ？",
		"en": "But, I'm going to do ...... <br> If we had been a guy who survived <br> in the warrior monks us?"
	},
	"007": {
		"ja": "……！！",
		"en": "......! !"
	},
	"008": {
		"ja": "そいつは……ヤベえぜ。",
		"en": "That person is ...... Yabee."
	},
	"009": {
		"ja": "サーダリーに報告するだろうな。<br>俺たちが逃げ出したことを。",
		"en": "It will report to Sadari. <br> that I we ran away."
	},
	"010": {
		"ja": "そうなったら俺たちが<br>サーダリー様の近衛師団になる<br>って夢は……。",
		"en": "Dream I <br> to us is to <br> Sadari like of Konoe division if that happened is ...."
	},
	"011": {
		"ja": "ああ、完全に断たれるぜ。",
		"en": "Oh, it is completely cut off."
	},
	"012": {
		"ja": "ならば、どうする？<br>生き延びた僧兵がいるかどうか。<br>……探してみるか？",
		"en": "If, What do you want to do? Whether <br> survived warrior monks are. Or try to find <br> ......?"
	},
	"013": {
		"ja": "……そうだな。<br>そうするべきか。",
		"en": "...... That's likely. <br> whether to do so."
	},
	"014": {
		"ja": "気が乗らねえけどな。",
		"en": "But I do not ride mind."
	},
	"015": {
		"ja": "相棒、お前は、どうだ？",
		"en": "Buddy, you are, but how?"
	},
	"016": {
		"ja": "誰かをぶっ殺せるなら<br>俺は行くぜ？",
		"en": "<br> If that Buttobase someone I go?"
	},
	"017": {
		"ja": "やる気満々のようだぜ。",
		"en": "It seems to be motivated."
	},
	"018": {
		"ja": "行くか、兄弟。",
		"en": "Go or, brothers."
	},
	"019": {
		"ja": "行こうぜ、兄弟。",
		"en": "Let's go ze, brother."
	}
}