{
	"70080": {
		"ja": "そういえば出立前に<br>エルデ様と話をされてたよね。<br>あれは……。",
		"en": "It's had been talking to <br> Erude like before departure Speaking. <br> there is ......."
	},
	"70081": {
		"ja": "何があろうとも<br>リオニス領を取り戻せ……<br>言われたのは、それだけだよ。",
		"en": "What would even was told ...... <br> regain the <br> Rionisu territory Aro, that's it."
	},
	"70082": {
		"ja": "もちろん、フェネスを<br>撃退したあとの話……だよね？",
		"en": "Of course, I'm after the story ...... that <br> fight off Fennesz?"
	},
	"70083": {
		"ja": "ああ。<br>父上は、どうやら<br>もっと先のことを考えているようなんだ。",
		"en": "Oh. <br> father is, I'm such as those apparently <br> thinking more ahead of it."
	},
	"70084": {
		"ja": "…………。",
		"en": "............."
	},
	"70085": {
		"ja": "あの場所――リオニス領には<br>何人にも触れさせてはならぬものが<br>隠されている。",
		"en": "That place - is to Rionisu territory things, not must not be exposed to the many people <br> is hidden <br>."
	},
	"70086": {
		"ja": "……昔から、何度も<br>その話ばかり聞かされてきた。",
		"en": "...... since ancient times, it has been told just <br> that story again and again."
	},
	"70087": {
		"ja": "隠されてるって……<br>いったい何が？",
		"en": "...... <br> what exactly it has been hidden?"
	},
	"70088": {
		"ja": "わからない。<br>でも、それが守護者としての<br>務めなのだ、と……。",
		"en": "do not know. <br> But, it it's a <br> served as a guardian, and ...."
	},
	"70089": {
		"ja": "この……ビジョンを呼び出す指輪も<br>守護者の務めを果たすため<br>ギルガメッシュから賜ったらしい。",
		"en": "Ring to call this ...... vision also seems to have bestowed from <br> Gilgamesh to fulfill the ministry of <br> guardian."
	},
	"70090": {
		"ja": "「守護者」としての役目を<br>担うために……。",
		"en": "...... in order to play <br> the role as a \"guardian\"."
	},
	"70091": {
		"ja": "守護者か……。<br>ギルガメッシュは、いったい<br>何を守らせようとしてるんだろうね。",
		"en": "Guardian or .... <br> Gilgamesh is, I guess are trying earth <br> what followed."
	}
}