{
	"80209": {
		"ja": "……ムラガ！",
		"en": "...... Muraga!"
	},
	"80210": {
		"ja": "モント……貴様かッ……！",
		"en": "Montt ...... differents or Tsu ......!"
	},
	"80211": {
		"ja": "殺す殺しテや、る殺す……<br>殺す殺、殺……す……！",
		"en": "Kill Koroshiteya, killing kill ...... <br> kill Ru, killing ...... to ......!"
	},
	"80212": {
		"ja": "ムラガ……様？<br>どうかなされたのですか？",
		"en": "Muraga ...... like? <br> do if made was?"
	},
	"80213": {
		"ja": "ウガーーーーーッ！",
		"en": "Uga'!"
	},
	"80214": {
		"ja": "う、ぐっ！",
		"en": "Cormorant, a jerk!"
	},
	"80215": {
		"ja": "屈辱が……俺を、狂わせる。<br>すべテを壊したい衝動に<br>駆られる……のだ！",
		"en": "Humiliation is me ..., upset. <br> it ...... of which are Driven by <br> the urge to destroy everything!"
	},
	"80216": {
		"ja": "逃げ…出さ、ぬ度胸だケは……<br>褒め、てや……ろう。",
		"en": "I ran away ... out of, bran's courage hair compliment ...... <br>, hands and ...... wax."
	},
	"80217": {
		"ja": "……死ネッ！",
		"en": "...... death net!"
	}
}