{
	"001": {
		"ja": "ご報告いたします。<br>サーダリー様のご一行が……。",
		"en": "Reporting in, sir. Lord Sadali and his party—"
	},
	"002": {
		"ja": "案内してくれ。",
		"en": "Show me."
	},
	"003": {
		"ja": "こちらから、ご覧になれます。",
		"en": "They are visible from here."
	},
	"004": {
		"ja": "……なるほど。<br>確かにサーダリーだな。",
		"en": "I see them. It is indeed Sadali."
	},
	"005": {
		"ja": "兄様、あたしにも見せて見せて！",
		"en": "Brother, let me see! Let me see!!"
	},
	"006": {
		"ja": "その必要はない。",
		"en": "You don't need to see."
	},
	"007": {
		"ja": "何よ、兄様の意地悪ー！",
		"en": "Why are you so mean to me!?"
	},
	"008": {
		"ja": "さて、どうしたものか。",
		"en": "Now, how do we deal with this development?"
	},
	"009": {
		"ja": "サーダリーって味方よね？",
		"en": "This Sadali guy is our ally, isn't he?"
	},
	"010": {
		"ja": "今のところは。<br>ホルンとフェネスの結ぶきっかけを<br>作った張本人だからな。",
		"en": "For now. He mediated the alliance between Hourne and Fennes; it would never have been achieved otherwise."
	},
	"011": {
		"ja": "今のところは、って？",
		"en": "What do you mean, \"for now\"?"
	},
	"012": {
		"ja": "ムラガが、我らを裏切ろうとしている<br>……それは知っているな？",
		"en": "You know that Muraga is attempting to betray us, don't you?"
	},
	"013": {
		"ja": "うん。",
		"en": "Uh-huh."
	},
	"014": {
		"ja": "それさえもサーダリーの<br>描いた絵図だったとしたら……？",
		"en": "What if even that is part of Sadali's master plan...?"
	},
	"015": {
		"ja": "つまり……<br>リオニスやウェズエットだけじゃなく<br>ホルンも配下にして……。",
		"en": "Which means...he would have control over not only Leonis and Wezette, but Hourne too."
	},
	"016": {
		"ja": "それでランダルを迎え撃つことを<br>画策していたのかもしれん。",
		"en": "Perhaps he's planning to attack Rundall after consolidating all that power."
	},
	"017": {
		"ja": "とはいえ、それはまだ<br>推測の域を出ておらぬからな。",
		"en": "That said, it's nothing more than conjecture at this point."
	},
	"018": {
		"ja": "じゃあ、どうするの？",
		"en": "So, what's the plan?"
	},
	"019": {
		"ja": "道は二つある。",
		"en": "There are two paths we could take."
	},
	"020": {
		"ja": "一つは、先を急ぐ。",
		"en": "We could continue swiftly down the path we are already on."
	},
	"021": {
		"ja": "我らの任務は<br>ムラガが古代の遺物を手に入れるのを<br>阻止することだからな。",
		"en": "Wherein we fulfill our duty, thereby preventing Muraga from obtaining the ancient relics."
	},
	"022": {
		"ja": "もう一つは、サーダリーの監視。",
		"en": "Or...we could keep a close watch on Sadali."
	},
	"023": {
		"ja": "ムラガがサーダリーのコマであるのは<br>間違いのない事実。",
		"en": "There's no mistaking that Muraga is Sadali's pawn."
	},
	"024": {
		"ja": "つまり、サーダリーを見張れば<br>ムラガの動きが読める……？",
		"en": "Basically, keeping watch on Sadali might give us a clue about what Muraga's up to?"
	},
	"025": {
		"ja": "ああ、そのとおりだ。<br>サリアよ。<br>お前なら、どちらを選ぶ？",
		"en": "Exactly. What would you do, Salire?"
	},
	"026": {
		"ja": "あたしは後者ね。",
		"en": "I like the second option!"
	},
	"027": {
		"ja": "理由は？",
		"en": "Why?"
	},
	"028": {
		"ja": "敵の指揮系統を潰すのが<br>一番手っ取り早いしね～！<br>何かあったら、の話だけど。",
		"en": "The fastest way to defeat an enemy is to go for the head, right? If it comes to that, of course."
	},
	"029": {
		"ja": "そうだな。<br>私も同じことを考えていた。",
		"en": "Great minds think alike, I see."
	},
	"030": {
		"ja": "え～、マジで？",
		"en": "You're saying I have a great mind, too!?"
	},
	"031": {
		"ja": "あたしと兄様って<br>やっぱり相性ばっちりじゃない？",
		"en": "We're a perfect match, aren't we, Brother?"
	},
	"032": {
		"ja": "それは関係ない。",
		"en": "I wouldn't go that far."
	},
	"033": {
		"ja": "申し上げます。<br>近辺の魔物が、我らの存在に<br>気づいたようです。",
		"en": "Sir, if I may. It appears some monsters nearby have become aware of our presence."
	},
	"034": {
		"ja": "では、サーダリーに気づかれぬよう<br>魔物を殲滅する。",
		"en": "Then we must exterminate them discreetly, so as not to draw attention from Sadali."
	},
	"035": {
		"ja": "……そのあとは？",
		"en": "...And then?"
	},
	"036": {
		"ja": "距離を置いて<br>サーダリーの動きを監視する。",
		"en": "We observe Sadali's movements from a distance."
	},
	"037": {
		"ja": "いざとなったら<br>……殺っちゃっていいんだよね？",
		"en": "And if worse comes to worst...I get to kill him, right?"
	},
	"038": {
		"ja": "いざとなったら、な。",
		"en": "If worse comes to worst, yes."
	},
	"039": {
		"ja": "早く「いざ」が来るといいなぁ。",
		"en": "I sure hope the worst comes soon, then."
	}
}