{
	"001": {
		"en": "Mont...",
		"ja": "モント……。"
	},
	"002": {
		"en": "That flag!",
		"ja": "あの旗は……！？"
	},
	"003": {
		"en": "It's the flag of Hourne's main force...«Solidus»!",
		"ja": "前方からホルンの本隊が……<br>≪堅牢≫が！"
	},
	"004": {
		"en": "M-Mont...!!",
		"ja": "モ、モント――ッ！"
	}
}