{
	"001": {
		"en": "I bear new tidings, Your Majesty!",
		"ja": "エルデ様、ご報告です！"
	},
	"002": {
		"en": "Out with it.",
		"ja": "何だ？"
	},
	"003": {
		"en": "It appears the bandits are gathering in the forest just ahead.",
		"ja": "この先の森に賊どもが<br>集まってきているようです。"
	},
	"004": {
		"en": "We estimate they have thrice our numbers.",
		"ja": "少なく見積もっても<br>我らの三倍は……。"
	},
	"005": {
		"en": "These are no common cutthroats. Their forces are too great.",
		"ja": "やはり奴らは、ただの賊ではないな。"
	},
	"006": {
		"en": "Then whose orders are they acting on!?",
		"ja": "では、その正体は……！？"
	},
	"007": {
		"en": "Would Lady Machérie not hold the answers we seek?",
		"ja": "マシュリー殿に訊くべきではないか？"
	},
	"008": {
		"en": "There is little doubt who is their prey.",
		"ja": "命を狙われているのは<br>マシュリー殿なのだからな。"
	},
	"009": {
		"en": "Unfortunately...my enemies are too many.",
		"ja": "残念だが……<br>心当たりならば、ありすぎる。"
	}
}