{
	"001": {
		"ja": "リンクス……！",
		"en": "Lynx……!"
	},
	"002": {
		"ja": "しっかりしろ。",
		"en": "come on."
	},
	"003": {
		"ja": "……大丈夫だ。",
		"en": "……Should be fine."
	},
	"004": {
		"ja": "それよりも……。",
		"en": "...... than that."
	},
	"005": {
		"ja": "気づかぬか。",
		"en": "Or unexpected notice."
	},
	"006": {
		"ja": "剣戟の……音。",
		"en": "...... sound of Kengeki."
	},
	"007": {
		"ja": "近くで戦が！？",
		"en": "War in the nearby! ?"
	},
	"008": {
		"ja": "追いついたのだ。<br>アドラード様に……！",
		"en": "It caught up. ...... in <br> Adorado like!"
	},
	"009": {
		"ja": "傷は……。",
		"en": "Scratches ...."
	},
	"010": {
		"ja": "心配ない。<br>急ぐぞ！",
		"en": "No worries. <br> hurry!"
	},
	"011": {
		"ja": "おいおい！<br>どうしたんだ？",
		"en": "Come on! What's wrong <br>?"
	},
	"012": {
		"ja": "これがホルン第二部隊<br>≪壮麗≫の実力かよ。<br>なぁ？",
		"en": "This is the ability of the horn second unit <br> «magnificent». <br> I wonder?"
	},
	"013": {
		"ja": "何なのよ、こいつら……。",
		"en": "I What ', these guys ...."
	},
	"014": {
		"ja": "顔は雑魚キャラのくせに！",
		"en": "Face in the habit of small fish character!"
	},
	"015": {
		"ja": "サリア、ケガはないか？",
		"en": "Sarria, do not hurt?"
	},
	"016": {
		"ja": "大丈夫。<br>……兄様は？",
		"en": "All right. <br> ...... brother is?"
	},
	"017": {
		"ja": "問題ない。<br>だが……。",
		"en": "no problem. <br> But ...."
	},
	"018": {
		"ja": "教会の僧兵どもの数が多すぎる。<br>奴らを何とかせねば……。",
		"en": "The number of monks us of the church is too much. <br> ...... if take into 'em somehow."
	},
	"019": {
		"ja": "あたしたちにお任せください！",
		"en": "Please leave me us!"
	},
	"020": {
		"ja": "リンクス！",
		"en": "Lynx!"
	},
	"021": {
		"ja": "……もう一人は？",
		"en": "...... Another person?"
	},
	"022": {
		"ja": "リオニスのシノビ、キトン。",
		"en": "Rionisu of Shinobi, chiton."
	},
	"023": {
		"ja": "リオニスの……。",
		"en": "Rionisu of ......."
	},
	"024": {
		"ja": "アドラード様、今は国などに<br>こだわっている場合ではございません！",
		"en": "Adorado like, it is not in the case you are stuck <br> such as the country now!"
	},
	"025": {
		"ja": "リンクス……<br>一つ、頼みがある。",
		"en": "Links ...... <br> one, there is ask."
	},
	"026": {
		"ja": "……何だ？",
		"en": "……What?"
	},
	"027": {
		"ja": "一人、生かしておいてくれ。<br>尋問する。",
		"en": "One person, me keep alive. <br> to questioning."
	},
	"028": {
		"ja": "尋問だって？<br>なら、今、ここで聞けって！",
		"en": "Datte questioning? If <br>, now, I hear here!"
	},
	"029": {
		"ja": "そうだぜ！<br>何でも答えてやるぜ！<br>なぁ！",
		"en": "I got it! <br> I'll answer anything! <br> Naa!"
	},
	"030": {
		"ja": "ならば訊く。",
		"en": "If you ask."
	},
	"031": {
		"ja": "ヘレナ様とオーを<br>殺ったのは……誰だッ！",
		"en": "I was doing <br> Helena like and O Who is ...... Tsu!"
	},
	"032": {
		"ja": "何だよ、くだらねえ。",
		"en": "Okay, so you stupid not."
	},
	"033": {
		"ja": "そんなことが知りたいのかよ。<br>がっかりだぜ。",
		"en": "Do you want to know such a thing. <br>'m disappointed."
	},
	"034": {
		"ja": "知っているのなら答えろ。",
		"en": "If the know Answer me."
	},
	"035": {
		"ja": "俺たちさ。",
		"en": "Us."
	},
	"036": {
		"ja": "これで満足かい？<br>なぁ？",
		"en": "This or satisfaction? <br> I wonder?"
	},
	"037": {
		"ja": "……ああ。<br>貴様ら……絶対に殺すッ！",
		"en": "……Ah. <br> differents et al ...... absolutely Korosu'!"
	}
}