{
	"001": {
		"en": "Most excellent! The rumors were not untrue... If anything, they did not do you justice.",
		"ja": "素晴らしい！<br>噂に違わぬ……<br>いえ、それ以上の逸材ではありませんか。"
	},
	"002": {
		"en": "Hah hah hah! I've barely broken a sweat!",
		"ja": "ひゃっひゃひゃひゃ。<br>結構、イケるもんですなぁ。"
	},
	"003": {
		"en": "Sadali! You're next!",
		"ja": "サーダリー！<br>次はお前の番だ！"
	},
	"004": {
		"en": "Tzztztzt...",
		"ja": "チッチチチチチ……。"
	},
	"005": {
		"en": "......!!",
		"ja": "……！！"
	},
	"006": {
		"en": "What is it? What's happened?",
		"ja": "……どうした？<br>何かあったのカ？"
	},
	"007": {
		"en": "What!? Oelde sprung a surprise attack!? Th' first pursuit force got sidetracked in a battle!?",
		"ja": "何！？<br>エルデに奇襲を仕掛けられテ<br>第一追撃部隊が戦闘中だと！"
	},
	"008": {
		"en": "Who are you talking to?",
		"ja": "お前……<br>誰と話しているんだ？"
	},
	"009": {
		"en": "It takes getting used to. I was surprised the first time as well.",
		"ja": "最初は誰だって驚くよな。<br>俺も、そうだった。"
	},
	"010": {
		"en": "He's got some sort of device for speaking with those who're far away. Good for giving orders and such.",
		"ja": "遠話装置って代物らしい。<br>離れた配下の者と<br>言葉を交わすことができるわけさ。"
	},
	"011": {
		"en": "Another ancient relic...",
		"ja": "古代の遺物……か。"
	},
	"012": {
		"en": "If he can give commands to those out of earshot...",
		"ja": "離れた場所にいる部隊に<br>指令が送れるならば……。"
	},
	"013": {
		"en": "I think we just discovered the secret to Muraga's power...",
		"ja": "ムラガの強さの秘密は<br>これだったわけか。"
	},
	"014": {
		"en": "Oelde, that rat... Ambushing us when I thought he was resting in th' village!",
		"ja": "エルデめ……<br>村で休息をとっていると思わせて<br>奇襲を仕掛けてくルとは……！"
	},
	"015": {
		"en": "That sounds like Brother's...Mont's tactics, all right.",
		"ja": "それは兄貴の……<br>モントの策だな。"
	},
	"016": {
		"en": "What're you saying!?",
		"ja": "何だト！？"
	},
	"017": {
		"en": "That even with such a powerful relic in your possession, you weren't skilled enough to wipe out Leonis.",
		"ja": "それほどの遺物を持ちながら<br>これまでリオニスを<br>破ることができなかったとはな。"
	},
	"018": {
		"en": "......",
		"ja": "…………。"
	},
	"019": {
		"en": "If I'd been in command, Oelde's reign would be over.",
		"ja": "俺が指揮を執っていれば<br>エルデを仕留められたはずだ。"
	},
	"020": {
		"en": "You would take King Oelde's life?",
		"ja": "そなたが……エルデ殿を？"
	},
	"021": {
		"en": "Is he not your own father?",
		"ja": "エルデ殿は、そなたの<br>実のお父上ではありませんか。"
	},
	"022": {
		"en": "That callous man is no father of mine!",
		"ja": "あんな非情な男は<br>父なんかじゃないッ！"
	},
	"023": {
		"en": "Not only did he abandon me, but he abandoned his own wife, my mother, to save his own damn neck!",
		"ja": "俺だけでなく、母上まで<br>城に残して逃げ出したのだぞ！"
	},
	"024": {
		"en": "My sword is yours, Muraga. I will prove more useful than that washed-up shinobi Rairyuu ever could.",
		"ja": "ムラガよ、俺を雇え。<br>そこのライリュウとかいうシノビより<br>俺のほうが役に立つ。"
	},
	"025": {
		"en": "Who the hell do you think you are!?",
		"ja": "何だと！？"
	},
	"026": {
		"en": "Yer think I'd fall for that, do yer?",
		"ja": "その手に乗ると思うカ？"
	},
	"027": {
		"en": "You believe that I would betray you?",
		"ja": "俺が裏切ると思ってるのか。"
	},
	"028": {
		"en": "I'm afraid it is I who bears full responsibility for this situation.",
		"ja": "こうなったことは<br>すべて、私の責任です。"
	},
	"029": {
		"en": "I simply proposed an alliance between Hourne and Fennes so as to resist Rundall to the west.",
		"ja": "私はただ、西のランダルに<br>対抗すべくホルンとフェネスに<br>同盟を持ち掛けただけなのです。"
	},
	"030": {
		"en": "Alas... Where have I erred? By what manner of fate did it come to this?",
		"ja": "それなのに……<br>どうしてこうなってしまったのか。"
	},
	"031": {
		"en": "Allow me to step in and perhaps I can effect some sort of reconciliation between you and your father.",
		"ja": "何とかして、そなたとお父上の<br>和解の場を作ってあげましょう。"
	},
	"032": {
		"en": "Reconciliation? There will be none of that.",
		"ja": "断る。<br>和解などあり得ない。"
	},
	"033": {
		"en": "Besides, you're not to blame.",
		"ja": "それに、これは<br>あんたのせいではない。"
	},
	"034": {
		"en": "Whether or not war was on the horizon...it would've come to this eventually...",
		"ja": "こたびの戦がなくとも<br>いずれは、こうなっていた……。"
	},
	"035": {
		"en": "However...I am still to blame for your future being stolen from you.",
		"ja": "しかし……。<br>そなたの未来を奪うことになったのは<br>私の責任であることは確か。"
	},
	"036": {
		"en": "Is there nothing I can do to make amends and put my mind at ease?",
		"ja": "私にできることはないでしょうか。<br>そうしないと気が収まりません。"
	},
	"037": {
		"en": "If peace of mind is what you want...then allow me to strike down my father.",
		"ja": "ならば、俺に<br>エルデを討たせてくれ。"
	},
	"038": {
		"en": "Do what you will with me in the aftermath.",
		"ja": "そのあとならば<br>俺はどうなっても構わない。"
	},
	"039": {
		"en": "But you must give me your word that my mother will be safe.",
		"ja": "ただ、約束してくれ。<br>母上だけは助ける、と。"
	},
	"040": {
		"en": "......",
		"ja": "…………。"
	},
	"041": {
		"en": "...So it must be, then.",
		"ja": "……わかりました。"
	},
	"042": {
		"en": "Muraga, you will do all within your power to assist Sterne in defeating Oelde.",
		"ja": "ムラガよ。シュテルが<br>エルデを討つことのできるよう<br>最善を尽くしなさい。"
	},
	"043": {
		"en": "B-but, Y-Yer Holiness...",
		"ja": "し、しカし、サーダリー様……。"
	},
	"044": {
		"en": "It's not a request, I'm afraid. Do you understand?",
		"ja": "これは命令です。<br>よいですね？"
	},
	"045": {
		"en": "...Yes. But «Fortem» isn't coming with us. They're staying right here.",
		"ja": "……わかっタ。<br>だが、こいつの部下≪勇壮≫は<br>ここに残していく。"
	},
	"046": {
		"en": "Sterne and Sterne alone joins us in th' pursuit. Those are my terms.",
		"ja": "エルデ追撃部隊に加えるのは<br>シュテルだけ。<br>それが同行させる条件ダ。"
	},
	"047": {
		"en": "I see no problem with this.",
		"ja": "いいでしょう。"
	},
	"048": {
		"en": "Oh and Sterne, I have a gift to give you later on.",
		"ja": "シュテルよ、のちほど<br>そなたに贈り物を届けましょう。"
	},
	"049": {
		"en": "A gift!?",
		"ja": "贈り物！？"
	},
	"050": {
		"en": "Yes. One that I believe will be well suited to your tastes.",
		"ja": "ええ。<br>楽しみにしておいてください。"
	},
	"051": {
		"en": "What're you...?",
		"ja": "それは、いったい……。"
	},
	"052": {
		"en": "May the light of the Crystals guide you.",
		"ja": "すべてはクリスタルのお導きのままに。"
	}
}