{
	"001": {
		"en": "More reinforcements...",
		"ja": "また援軍が……。"
	},
	"002": {
		"en": "It looks like they won't rest until they've taken my life.",
		"ja": "どうしても、わらわの命が<br>ほしいと見える。"
	},
	"003": {
		"en": "I've never been pursued so passionately before.",
		"ja": "ここまで熱烈に求められたのは<br>はじめてだぞ。"
	},
	"004": {
		"en": "Pursued, you say...",
		"ja": "求められたって……。"
	},
	"005": {
		"en": "King Oelde, at this rate...",
		"ja": "エルデ殿、このままでは……。"
	},
	"006": {
		"en": "Our enemy does not falter. Prepare to respond in kind.",
		"ja": "敵も本気を出してきたということか。<br>ならば、我らも応えねばならんな。"
	},
	"007": {
		"en": "You speak of the ring, correct?",
		"ja": "指輪、ですね。"
	},
	"008": {
		"en": "...Ring?",
		"ja": "……指輪！？"
	}
}