{
	"70095": {
		"ja": "いててて……<br>へへっ、やるじゃねえか！",
		"en": "There have been ...... <br> Hehe', do not you do!"
	},
	"70096": {
		"ja": "だが、これしきの攻撃で<br>俺たちが参ると思うなよ？",
		"en": "But, I think that in Koreshiki of attack <br> us is be madly in love?"
	},
	"70097": {
		"ja": "ああ、そうさ。<br>お前たちとは鍛え方が違うんだ。",
		"en": "Oh, yes. <br> I how training is different from you guys."
	},
	"70098": {
		"ja": "ま、待ってくれ！<br>君たちは≪紅蓮≫だな？",
		"en": "Well, me waiting! <br> That's you guys «Guren»?"
	},
	"70099": {
		"ja": "僕たちは敵じゃない！",
		"en": "Not the servants enemy!"
	},
	"70100": {
		"ja": "問答無用。",
		"en": "No questions asked."
	},
	"70101": {
		"ja": "話がしたい。<br>剣を収めてくれ！",
		"en": "I want to talk. <br> me met with the sword!"
	},
	"70102": {
		"ja": "申し開きならば……<br>地獄でやりなッ！",
		"en": "If you open My name Yarina' in ...... <br> hell!"
	},
	"70103": {
		"ja": "ダメだ、モント様。<br>戦うしかない！",
		"en": "Useless, Mont-like. <br> there is only a fight!"
	},
	"70104": {
		"ja": "でも……<br>なるべく傷つけないでくれ。<br>彼らは味方なんだ！",
		"en": "But ...... <br> me not damage as much as possible. <br> What they ally!"
	},
	"70105": {
		"ja": "了解。<br>手加減するよ……なるべくね。",
		"en": "Roger that. <br> ...... it's as much as possible to holding back."
	}
}