{
	"001": {
		"en": "Y-you're...!?",
		"ja": "え……あんたは！？"
	},
	"002": {
		"en": "Wh-wh-what're you doing here!?",
		"ja": "ななな何でここにいるんだよ！？"
	},
	"003": {
		"en": "Lady Machérie...",
		"ja": "マシュリー……。"
	},
	"004": {
		"en": "Whatever has become of your knightly guardian?",
		"ja": "守役の女騎士はどうした？"
	},
	"005": {
		"en": "She's gone off somewhere in search of Schuzelt.",
		"ja": "シュゼルトを追って<br>どこかへ行ってしまったんだ。"
	},
	"006": {
		"en": "I see...",
		"ja": "なるほど……そうか。"
	},
	"007": {
		"en": "Has something happened?",
		"ja": "何があったんだ？"
	},
	"008": {
		"en": "The truth of it is...",
		"ja": "じつはな……。"
	},
	"009": {
		"en": "Most terrible...",
		"ja": "ひどいわ……。"
	},
	"010": {
		"en": "But why would that knight go to such lengths to help Schuzelt?",
		"ja": "しかし、なぜあの女騎士は<br>あれほどまでにシュゼルトに肩入れする。"
	},
	"011": {
		"en": "Lilyth lost someone precious to her in the war with Fennes, too.",
		"ja": "リリシュも、フェネスとの戦で<br>殺されたんだ。<br>大切な人を……。"
	},
	"012": {
		"en": "A lover?",
		"ja": "……恋人か。"
	},
	"013": {
		"en": "No. A brother.",
		"ja": "いいえ。<br>弟さんを。"
	},
	"014": {
		"en": "That makes sense. I suppose it is pain that bonds them.",
		"ja": "そうか……。<br>あの二人にしかわからぬものが<br>あるのだろうな。"
	},
	"015": {
		"en": "Then there is naught else we can do.",
		"ja": "ならば仕方あるまい。"
	},
	"016": {
		"en": "J-just a moment... What are you planning?",
		"ja": "ちょ、ちょっと……<br>何をするつもりなんだ？"
	},
	"017": {
		"en": "With one knight gone, you'll need another to fill her place. I'll be your bodyguard. Just be grateful.",
		"ja": "あの女騎士の代わりだ。<br>わらわが、そなたの守役を務める。<br>感謝しろ。"
	},
	"018": {
		"en": "......",
		"ja": "…………。"
	},
	"019": {
		"en": "What? Not happy about it?",
		"ja": "何じゃ、不満なのか？"
	},
	"020": {
		"en": "N-no, it's great. I mean, it's fine...",
		"ja": "い、いや……何でもないよ。"
	},
	"021": {
		"en": "Then let's be off. Follow my lead!",
		"ja": "では、行くぞ！<br>わらわについて参れ！"
	}
}