{
	"001": {
		"en": "You've proven yourself to be more capable than I thought.",
		"ja": "……ほう、少しはやるではないか。<br>見直したぞ。"
	},
	"002": {
		"en": "......",
		"ja": "…………。"
	},
	"003": {
		"en": "What troubles you, Mont?",
		"ja": "どうした、モント？"
	},
	"004": {
		"en": "......!?",
		"ja": "え……！？"
	},
	"005": {
		"en": "You will gain nothing by getting lost in your thoughts.",
		"ja": "上の空では命がいくつあっても足りぬぞ？"
	},
	"006": {
		"en": "A-apologies. I'm just...worried.",
		"ja": "ご、ごめん。<br>でも……心配なんだ。"
	},
	"007": {
		"en": "About Lilyth and Schuzelt?",
		"ja": "シュゼルトたちか。"
	},
	"008": {
		"en": "No. About...you.",
		"ja": "違う。<br>マシュリー……君のことだ。"
	},
	"009": {
		"en": "Worried about me? Perhaps you've finally become a man.",
		"ja": "わらわの心配ができるとは<br>成長したものだな。"
	},
	"010": {
		"en": "You mock me.",
		"ja": "茶化さないでくれよ。"
	},
	"011": {
		"en": "......",
		"ja": "…………。"
	},
	"012": {
		"en": "Muraga will catch wind of us soon enough, should we continue fighting like this.",
		"ja": "このまま戦っていれば<br>いずれムラガの知るところとなる。"
	},
	"013": {
		"en": "Are you concerned about the alliance with Fennes breaking apart?",
		"ja": "フェネスとの同盟に<br>亀裂が入ることを心配しているわけか。"
	},
	"014": {
		"en": "The alliance isn't my concern, but rather what the future holds for you. I fear it is dark...",
		"ja": "同盟なんか、どうだっていい。<br>君がひどい目に遭うんじゃないかって<br>それだけが……。"
	},
	"015": {
		"en": "......",
		"ja": "…………。"
	},
	"016": {
		"en": "You are not long for this world, Mont.",
		"ja": "長生きは、できなさそうだな。"
	},
	"017": {
		"en": "Huh...!?",
		"ja": "え……！？"
	},
	"018": {
		"en": "The battlefield is no place for a kindness such as yours.",
		"ja": "そなたのやさしさは、時として<br>戦場で命取りとなるであろう。"
	},
	"019": {
		"en": "It doesn't matter. I've no desire to be a hero.",
		"ja": "僕は、英雄と呼ばれたいわけじゃない。"
	},
	"020": {
		"en": "Then what do you want to be?",
		"ja": "ならば、何になりたい？"
	},
	"021": {
		"en": "Nothing in particular. I am who I am.",
		"ja": "なりたいものなんて、ない。<br>僕は、僕だ。"
	},
	"022": {
		"en": "I don't want to slay a thousand enemies; I want to keep one person safe. That is why I fight.",
		"ja": "千人を殺すよりも<br>一人を生かす。<br>そのために戦う。"
	},
	"023": {
		"en": "Keep one person safe... Are you talking about me?",
		"ja": "その一人は……わらわか？"
	},
	"024": {
		"en": "Yes. I'll protect you, no matter what! You have my word!",
		"ja": "ああ、守るさ。<br>絶対に！<br>誓ってもいい！"
	},
	"025": {
		"en": "I shall hold you to that, Mont.",
		"ja": "その言葉……忘れるなよ？"
	}
}