{
	"001": {
		"ja": "見送りは、ここまででよいぞ。",
		"en": "Thanks for the send-off. This is as far as you go."
	},
	"002": {
		"ja": "なに言ってんのよ。<br>あたしも一緒に行くわ。",
		"en": "What are you talking about? I'm coming with you, of course."
	},
	"003": {
		"ja": "ダメだ。",
		"en": "Not happening."
	},
	"004": {
		"ja": "ダメって言われてもついてく。<br>だって兄様と離ればなれに<br>なりたくないもの。",
		"en": "You say that, but it's not like you can stop me. Besides, I'm not going to be separated from my big brother."
	},
	"005": {
		"ja": "サリア……。<br>これは任務なんだぞ。",
		"en": "Salire... This is a mission, not a game."
	},
	"006": {
		"ja": "だから行くのよ。<br>兄様だって、あたしの実力<br>よぉーくわかってるでしょ？",
		"en": "That's why I'm going, too! You know how talented I am, don't you, Brother?"
	},
	"007": {
		"ja": "……そ、それは認めるが。",
		"en": "W-well, yes, I'll admit that, but..."
	},
	"008": {
		"ja": "じゃあ、決まり。",
		"en": "Then it's decided!"
	},
	"009": {
		"ja": "…………。",
		"en": "......"
	},
	"010": {
		"ja": "で……<br>やっちゃうつもり？",
		"en": "So...are you going to do it?"
	},
	"011": {
		"ja": "やる、だと？<br>何をだ？",
		"en": "Do it? Do what?"
	},
	"012": {
		"ja": "モントくんを助けるかどうか<br>ってことよ。<br>鈍いわねぇ。",
		"en": "Save Mont, of course! What else would I mean?"
	},
	"013": {
		"ja": "リオニスに味方する<br>ということか？",
		"en": "Are you suggesting that we side with Leonis?"
	},
	"014": {
		"ja": "だってマシュリー様<br>モントくんに恋してるんでしょ？<br>すぐにピーンと来たわ。",
		"en": "Well, Lady Machérie is in love with Mont, right? It was written all over her face!"
	},
	"015": {
		"ja": "ああ、そうかもしれんな。<br>だが、我らホルンは<br>フェネスと同盟を組んでいるのだぞ。",
		"en": "Yeah, she does seem smitten. But alas, we are Hourne, and so we are allied to Fennes."
	},
	"016": {
		"ja": "ぶー。<br>じゃあ、リオニスと戦うわけ？",
		"en": "Aww... So, we're going to fight Leonis?"
	},
	"017": {
		"ja": "そこは微妙だな。<br>我らの任務は、古代の遺物の回収。",
		"en": "Not necessarily. Our mission is to retrieve the ancient relic."
	},
	"018": {
		"ja": "それを邪魔する者がいれば<br>排除することになるだろうが……。",
		"en": "But if anyone gets in my way...then I'll just have to take them out."
	},
	"019": {
		"ja": "ってことは、ムラガに<br>古代の遺物を奪われそうになれば<br>いいってことよね？",
		"en": "So if that someone who gets in your way just happens to be Muraga...?"
	},
	"020": {
		"ja": "お前、そんなにムラガのことが<br>嫌いなのか？",
		"en": "You really, really don't like Muraga, do you?"
	},
	"021": {
		"ja": "兄様だって、そうでしょ？",
		"en": "Nor do you, right, Brother?"
	},
	"022": {
		"ja": "とはいえ、ロブ様も<br>そこまではお望みではない。",
		"en": "Unfortunately, I don't think King Robb would approve."
	},
	"023": {
		"ja": "追撃を失敗させて<br>痛手を負わせるぐらいにしておく。",
		"en": "Perhaps I will sabotage the pursuit. Deal him a serious wound or two."
	},
	"024": {
		"ja": "えー、<br>そんなんで満足なの？",
		"en": "But...but...would that really be enough?"
	},
	"025": {
		"ja": "いずれはムラガと雌雄を決するときが<br>訪れるだろう。<br>だが、それは今じゃない。",
		"en": "There'll come a time for us to settle our grievances with Muraga once and for all. That day is not today."
	},
	"026": {
		"ja": "いいな、暴走するなよ？<br>それが今回同行する条件だ。",
		"en": "Got that? You can only come if you promise you won't go on a rampage."
	},
	"027": {
		"ja": "ちぇー。<br>わかったわよー。",
		"en": "Ugh. Fine. Whatever you say."
	}
}