{
	"70280": {
		"ja": "……くっ。",
		"en": "...... Damn."
	},
	"70281": {
		"ja": "おいおい、大丈夫か？",
		"en": "Hey, are you okay?"
	},
	"70282": {
		"ja": "だから言っただろ。<br>やらなくてもわかるって……。",
		"en": "So I told. <br> ...... it can be seen not done."
	},
	"70283": {
		"ja": "わたしの負けだ。<br>……好きにしろ。",
		"en": "It is my defeat. <br> white lovers ...."
	},
	"70284": {
		"ja": "好きにしろって言われてもねぇ。",
		"en": "Hey also told White to love."
	},
	"70285": {
		"ja": "……じゃあ、ここに置いていくか。",
		"en": "...... Well then, if we put here."
	},
	"70286": {
		"ja": "置いていく……<br>何もしないのか？",
		"en": "...... <br> Is not nothing going at?"
	},
	"70287": {
		"ja": "悪いけど、俺たち<br>急いでるからな。",
		"en": "I because I, in a hurry us <br> bad."
	},
	"70288": {
		"ja": "そういうこと！<br>マシュリー殿からの伝言を<br>預かってるんだもん。",
		"en": "That kind of thing! Message the mon I'm entrusted <br> from <br> Mashuri dono."
	},
	"70289": {
		"ja": "マシュリー……！？<br>ホルンの姫の？",
		"en": "Mashuri ......! ? <br> of the Horn of princess?"
	},
	"70290": {
		"ja": "あれれ、知ってるの？",
		"en": "Arere, you know?"
	},
	"70291": {
		"ja": "ああ。<br>じつは……。",
		"en": "Oh. <br> matter of fact ...."
	},
	"70292": {
		"ja": "……へぇ。<br>ホルンが内紛をねぇ……。",
		"en": "...... Wow. <br> Horn is ...... Hey, the infighting."
	},
	"70293": {
		"ja": "これは、リオニスにとっても<br>朗報かもしれんな。",
		"en": "This is, maybe <br> good news also for Rionisu Shiren'na."
	},
	"70294": {
		"ja": "うん、そうだね。",
		"en": "Yeah, that's right."
	},
	"70295": {
		"ja": "これをロブ殿に伝えれば<br>戦を終わらせられるかもしれないし！",
		"en": "This It might be Owarase the <br> game should I tell Rob dono!"
	},
	"70296": {
		"ja": "では……。",
		"en": "In ......."
	},
	"70297": {
		"ja": "ああ。<br>一緒に行くことにしようぜ。",
		"en": "Oh. Trying to be <br> go together."
	},
	"70298": {
		"ja": "オウィスのためにも<br>急がねばならんな。",
		"en": "We do must hurry <br> also for Owisu."
	},
	"70299": {
		"ja": "ありがとう。",
		"en": "Thank you."
	},
	"70300": {
		"ja": "ねね、ところでさ。<br>オウィスってどこにあるの？",
		"en": "Nene, by the way. <br> Where is I Owisu?"
	},
	"70301": {
		"ja": "何だ、知らなかったのかよ。",
		"en": "What, did not what I know."
	},
	"70302": {
		"ja": "ここからだと北西だな。",
		"en": "That's northwest that it from here."
	},
	"70303": {
		"ja": "オウィスのつぎは<br>東へ侵攻するってわけか。",
		"en": "Do not I following Owisu is invasion to <br> east."
	},
	"70304": {
		"ja": "ランダルめ……。<br>調子に乗りやがって！",
		"en": "Randall Me .... <br> Ya ride to the tune want to!"
	},
	"70305": {
		"ja": "じゃあ、ウェズエットに行こう。<br>そしてロブ殿とモント様を<br>探し出すのだー！",
		"en": "Well, let's go to Wezuetto. <br> and over I find <br> Rob dono and Montt like!"
	}
}