{
	"001": {
		"ja": "……この程度か。<br>まったく期待外れだ。",
		"en": "Hmph. That all you got? I have to admit, I'm a little disappointed."
	},
	"002": {
		"ja": "もっと楽しませてくれると<br>思ったのだがな……。",
		"en": "Was expecting to have a bit more fun with you. Such a pity..."
	},
	"003": {
		"ja": "ロ、ロブ様……<br>早く……行かね、ば……。",
		"en": "K-King Robb... Must...hurry..."
	},
	"004": {
		"ja": "生きたいか？<br>まだ死にたくないか？<br>かっかかかか！",
		"en": "Still got some life in you, huh? Not yet ready to die? Heh heh heh!"
	},
	"005": {
		"ja": "うぐっ！",
		"en": "Ngh!"
	},
	"006": {
		"ja": "おら、どうした！<br>命乞いをしろ！",
		"en": "Well? What's the matter? Plead for your life!"
	},
	"007": {
		"ja": "…………。",
		"en": "......"
	},
	"008": {
		"ja": "ふん、つまらぬ。<br>もう虫の息か。",
		"en": "Hmph, how boring. Already at your dying breaths."
	},
	"009": {
		"ja": "では、とどめを刺してやろう。",
		"en": "Let me put you out of your misery."
	},
	"010": {
		"ja": "ふ、ふふっ……ふふふふ。",
		"en": "Ha. Hahaha. Hahahaha!"
	},
	"011": {
		"ja": "ぬ！？<br>な、何がおかしい！",
		"en": "Wh-what's so funny!?"
	},
	"012": {
		"ja": "慢心した小者ほど……<br>扱いやすいものは……ない。",
		"en": "There's no one easier to defeat...than a cocky little lowlife."
	},
	"013": {
		"ja": "き、貴様ッ！",
		"en": "Wh-why you...!"
	},
	"014": {
		"ja": "な、何だと！？",
		"en": "What the—!?"
	},
	"015": {
		"ja": "自ら、この崖から落ちただと……？",
		"en": "She went and jumped off the damn cliff."
	},
	"016": {
		"ja": "くくく、おもしろい。<br>ならば生き延びてみよ。",
		"en": "Heh heh heh. Now things are getting interesting. Cling to life, if that's how it is..."
	},
	"017": {
		"ja": "次に会ったときは<br>自ら死を懇願するほどに<br>いたぶってやろうぞ！",
		"en": "Next time we meet, I'm going to make you beg for death!"
	}
}