{
	"001": {
		"en": "Well fought, Owe. Now, to take these relics...",
		"ja": "よくやりました。<br>あとはこの遺物を……。"
	},
	"002": {
		"en": "I fear not, Your Highness. The true test of our skills begins now, it would appear...",
		"ja": "いいえ、ヘレナ様。<br>試練はここからのようです。"
	},
	"003": {
		"en": "......!!",
		"ja": "……！！"
	},
	"004": {
		"en": "Looks like we got here just in time.",
		"ja": "間に合ったようだな。"
	},
	"005": {
		"en": "I recognize you two... Dorando and Gargas.",
		"ja": "お前たちは、確か……<br>ドランドとガーガス。"
	},
	"006": {
		"en": "Oh? Looks like we're famous!",
		"ja": "へえ、俺たちも<br>有名になったもんだ。"
	},
	"007": {
		"en": "What an honor, aye? To be known by the great Sir Owe!",
		"ja": "光栄だぜ！<br>あの騎士オーに名前を<br>知られてるなんてよ！"
	},
	"008": {
		"en": "How did you know to find us here?",
		"ja": "なぜ、我らがここにいると……。"
	},
	"009": {
		"en": "Seemed like a good day for fresh air, is all.",
		"ja": "さあてね。<br>そんなことはどうでもいい。"
	},
	"010": {
		"en": "And fresh blood, aye? How 'bout it? A little skirmish to celebrate this happy coincidence.",
		"ja": "俺たちと戦えよ。<br>そのために、わざわざ来たんだ。<br>なぁ？"
	},
	"011": {
		"en": "Owe, who are these people?",
		"ja": "オーよ。<br>この者たちは……。"
	},
	"012": {
		"en": "They serve Sadali, and yet they lead Fennes's troops.",
		"ja": "サーダリーの配下の者ですが<br>フェネスの兵を率いています。"
	},
	"013": {
		"en": "So they have come here at Muraga's behest, then.",
		"ja": "つまり、ムラガの命で<br>ここへやって来たと……。"
	},
	"014": {
		"en": "What're your soldiers carrying back there?",
		"ja": "うしろの兵士どもの運んでいるのは……。"
	},
	"015": {
		"en": "Ohh... That must be what Muraga wanted us to report back on, aye?",
		"ja": "わかったぜ。<br>ムラガの野郎、あれが目当てなんだな。<br>なぁ？"
	},
	"016": {
		"en": "I assume that retreat is not a choice at this juncture.",
		"ja": "退くことはできぬようですね。"
	},
	"017": {
		"en": "Queen Helena, please step back. Allow me to handle these two.",
		"ja": "ヘレナ様、お下がりください。<br>ここは我らにお任せを。"
	},
	"018": {
		"en": "Gonna stand and fight? How gallant!",
		"ja": "お、逃げずに戦うか。<br>感心なこった。"
	},
	"019": {
		"en": "What a day, aye? I never dreamed I would get to take Owe's head!",
		"ja": "やったぜ！<br>あのオーの首級を挙げられるのかよ！"
	},
	"020": {
		"en": "Go ahead and take it...if you can!",
		"ja": "首級を挙げるだと？<br>やってみよ……できるならば。"
	}
}