{
	"80454": {
		"ja": "……エルデたちを<br>逃してしまったそうではないか。",
		"en": "...... or not the case was missed <br> the Erude us."
	},
	"80455": {
		"ja": "どう責任を取るつもりだ。",
		"en": "I'm going to do take responsibility."
	},
	"80456": {
		"ja": "責任？<br>取るわけないじゃないの。",
		"en": "responsibility? It is not no reason to take <br>."
	},
	"80457": {
		"ja": "何だと……？",
		"en": "What did you say……?"
	},
	"80458": {
		"ja": "狙いどおりだからね。",
		"en": "I because it is aimed as expected."
	},
	"80459": {
		"ja": "……負け惜しみではないのか。",
		"en": "...... Do not sour grapes."
	},
	"80460": {
		"ja": "あれだけ追い立てたら<br>エルデたちは一目散に<br>ウェズエット領から出ていくでしょ？",
		"en": "<br> Erude us After eviction only there is will go out from full speed to <br> Wezuetto territory?"
	},
	"80461": {
		"ja": "つまり、グラセラたちと<br>接触する暇はないってこと。",
		"en": "In other words, that I do not have time to <br> contact with Gurasera us."
	},
	"80462": {
		"ja": "なるほど。",
		"en": "So that's it."
	},
	"80463": {
		"ja": "それに深追いして<br>兵を消耗させたら<br>明朝の叛乱に備えられないじゃないの。",
		"en": "And not a not provided in the rebellion of <br> Ming Once you've exhausted the <br> soldiers to overdo."
	},
	"80464": {
		"ja": "グラセラや≪紅蓮≫どもの叛乱は<br>予定どおりなのか？",
		"en": "Or Gurasera and «Guren» us of revolt What <br> as scheduled?"
	},
	"80465": {
		"ja": "ええ、もちろんよ。",
		"en": "Yes, of course."
	},
	"80466": {
		"ja": "リオニスの加勢がなければ<br>≪紅蓮≫なんて<br>恐るるに足らず、でしょ？",
		"en": "If there is no Kase of Rionisu <br> not trivial in that fear «Guren» Nante <br>, right?"
	},
	"80467": {
		"ja": "……ふむ。",
		"en": "……HM."
	},
	"80468": {
		"ja": "もちろん、あたしが仕掛けた罠は<br>これだけじゃあないけどね。",
		"en": "Of course, I though trap <br> this just do not Well then that I was planted."
	},
	"80469": {
		"ja": "他に何が？",
		"en": "What else?"
	},
	"80470": {
		"ja": "うふふ。<br>ナ・イ・ショ。",
		"en": "Hoho. <br> Na Lee sucrose."
	},
	"80471": {
		"ja": "夜明けが楽しみだわぁ。",
		"en": "Dawn fun Dawa."
	},
	"80472": {
		"ja": "to be continued…",
		"en": "to be continued ..."
	}
}