{
	"001": {
		"en": "King Oelde... Can we truly trust you?",
		"ja": "エルデ殿……<br>信じてよいのですか？"
	},
	"002": {
		"en": "Schuzelt... Is this how you thank the king that saved your life?",
		"ja": "シュゼルト……<br>それが、命を懸けてあんたらを助けた<br>我らが王への礼儀かい？"
	},
	"003": {
		"en": "My duty is to escort Lady Machérie to Fennes without fail.",
		"ja": "私の使命はマシュリー様を<br>無事にフェネスへとお送りすること。"
	},
	"004": {
		"en": "I will gladly suffer your accusations of insolence to keep my lady safe.",
		"ja": "そのためならば、無礼者との<br>そしりも喜んで受けよう。"
	},
	"005": {
		"en": "Enough, Schuzelt.",
		"ja": "もう、よい。"
	},
	"006": {
		"en": "I've no intention of setting foot in Fennes.",
		"ja": "わらわは、フェネスへと<br>向かうつもりは、ないぞ。"
	},
	"007": {
		"en": "But Lady Machérie! What of your engagement to King Muraga!?",
		"ja": "マシュリー様！<br>では、ムラガ様との婚礼の儀は！？"
	},
	"008": {
		"en": "Surely you've noticed something amiss. These raids of late are...suspicious.",
		"ja": "そなたも薄々気づいておろう。<br>こたびの襲撃、何かがおかしい。"
	},
	"009": {
		"en": "...Yes, my lady.",
		"ja": "……はい。"
	},
	"010": {
		"en": "King Oelde, I'd like to see Leonis Castle. Would I be welcome?",
		"ja": "エルデ殿。<br>わらわは、リオニス城を見てみたい。<br>ご招待いただけるか？"
	},
	"011": {
		"en": "Very well. Pray come and feast your eyes on our most celebrated den—the Castle of Lions.",
		"ja": "承知した。<br>では、獅子城と名高き我らが居城<br>ご覧に入れよう。"
	}
}