{
	"80495": {
		"ja": "……さてと。<br>そろそろ、かね。",
		"en": "...... Well then. <br> soon, I guess."
	},
	"80496": {
		"ja": "うん。",
		"en": "Yup."
	},
	"80497": {
		"ja": "待て。<br>どこへ行くのだ。",
		"en": "wait. <br> I where to go."
	},
	"80498": {
		"ja": "あら、心配？",
		"en": "Oh, I worry?"
	},
	"80499": {
		"ja": "ふふふ。<br>心配しないでよ。",
		"en": "Hehehe. <br> Do not worry."
	},
	"80500": {
		"ja": "すべてうまくいったら<br>ちゃぁ～んと<br>お妃様になってあげるから。",
		"en": "After successful <br> Chaa - do all the <br> because I'll become your wife like."
	},
	"80501": {
		"ja": "そんなことを<br>心配しておるのではない。",
		"en": "Not of Nikki and <br> worry about such a thing."
	},
	"80502": {
		"ja": "あら、違うの？",
		"en": "Oh, different?"
	},
	"80503": {
		"ja": "ま、いいけど。<br>じゃあ、グラセラのところへ<br>行ってくるわ。",
		"en": "Well, I hope. <br> Well then, I'll go <br> to the place of Gurasera."
	},
	"80504": {
		"ja": "グラセラの……？",
		"en": "...... of Gurasera?"
	},
	"80505": {
		"ja": "ええ。<br>明朝の打ち合わせよ。",
		"en": "Yeah. <br> meeting tomorrow morning."
	},
	"80506": {
		"ja": "ちゃんと明日の朝<br>城を攻めてきてくれないと<br>困っちゃうでしょ。",
		"en": "It embarrassed <br> and do not you have properly attacked tomorrow morning <br> Castle."
	},
	"80507": {
		"ja": "…………。",
		"en": "............."
	},
	"80508": {
		"ja": "大丈夫よ。",
		"en": "All right."
	},
	"80509": {
		"ja": "あたしたちは、あなたを<br>裏切ったりしない。",
		"en": "I believe that not betray <br> you."
	},
	"80510": {
		"ja": "……今のところは、ね。",
		"en": "...... for now, I."
	},
	"80511": {
		"ja": "…………。",
		"en": "............."
	},
	"80512": {
		"ja": "ヴィクトラ……。",
		"en": "Vikutora ......."
	},
	"80513": {
		"ja": "ワシを裏切れば……<br>わかっておるな。",
		"en": "Do Nikki ...... <br> know if betray the eagle."
	}
}