{
	"80271": {
		"ja": "ありがとう。<br>おかげでこの砦をフェネスから<br>奪うことができたよ。",
		"en": "Thank you. I was able to take away <br> this fort from Fennesz in <br> thanks."
	},
	"80272": {
		"ja": "なぁに、お安い御用さ。",
		"en": "In Naa, cheap patronized."
	},
	"80273": {
		"ja": "決行は明朝の日の出。<br>そこで、あんたたちの力を<br>借りることになる。",
		"en": "Sunrise of decisive action is tomorrow morning. <br> So, consisting of you guys force to <br> borrow."
	},
	"80274": {
		"ja": "え……<br>そ、それはヴィクトラが……。",
		"en": "For example ...... <br> its, it Vikutora is ......."
	},
	"80275": {
		"ja": "お、ヴィクトラと相談済みか。<br>なら心配ないな。",
		"en": "You, Vikutora consultation already been. I do not worry if <br>."
	},
	"80276": {
		"ja": "じゃあ、俺たちは<br>一足先にアジトに帰るぜ。",
		"en": "So, I we go back to the hideout in <br> little earlier."
	},
	"80277": {
		"ja": "あ……。",
		"en": "Ah……."
	},
	"80278": {
		"ja": "僕たちも、ウェズエット城へ戻ろう。",
		"en": "It also tries to return to Wezuetto Castle."
	},
	"80279": {
		"ja": "決戦は明朝か……。",
		"en": "Decisive battle tomorrow morning or ...."
	},
	"80280": {
		"ja": "いや、叛乱は中止になった。",
		"en": "No, rebellion was called off."
	},
	"80281": {
		"ja": "え……？<br>どうして……。",
		"en": "e……? <br> Why ...."
	},
	"80282": {
		"ja": "ヴィクトラが、グラセラを<br>説得してくれることになった。",
		"en": "Vikutora was supposed to be us to <br> persuade Gurasera."
	},
	"80283": {
		"ja": "じゃあ、あたしらは……？",
		"en": "Well, Atashirawa ...?"
	},
	"80284": {
		"ja": "マシュリーを救出して<br>ホルンと同盟を結ぶ。",
		"en": "Rescued Mashuri by connecting <br> horn with the alliance."
	},
	"80285": {
		"ja": "それからウェズエットへ<br>戻ってくると……？",
		"en": "Then ...... come back <br> to Wezuetto?"
	},
	"80286": {
		"ja": "ああ。<br>もちろん、父上を<br>説得しなければならないけど。",
		"en": "Oh. <br> Of course, it does not have to be <br> persuade father."
	},
	"80287": {
		"ja": "……悪いやり方じゃあないね。<br>みんな、連戦で疲れてるし。",
		"en": "I do not Well then bad way .... <br> everyone, to be tired races."
	},
	"80288": {
		"ja": "日が暮れてしまった。<br>急いでウェズエット城へ戻ろう。",
		"en": "Day got late. In a hurry <br> to return to Wezuetto Castle."
	},
	"80289": {
		"ja": "……うん。<br>そうだね。",
		"en": "……Yup. <br> That's likely."
	}
}