{
	"001": {
		"en": "Father...",
		"ja": "父上……。"
	},
	"002": {
		"en": "This war will take all the power we can muster... I can feel it.",
		"ja": "こたびの戦、<br>総力戦となるような……<br>そんな気がします。"
	},
	"003": {
		"en": "Do you believe Sterne should shed his blood alongside us? Spit it out.",
		"ja": "シュテルも出陣させるべき……<br>そう言いたいわけか。"
	},
	"004": {
		"en": "I do, Father.",
		"ja": "はい。"
	},
	"005": {
		"en": "You fear routing Fennes without your brother's strength...?",
		"ja": "弟の力を借りねば<br>フェネスを退けられぬとはな……。"
	},
	"006": {
		"en": "......",
		"ja": "…………。"
	},
	"007": {
		"en": "If Fennes marches their main force, you shouldn't take them lightly.",
		"ja": "フェネスの本隊ならば<br>甘く見ぬほうがよいぞ。"
	},
	"008": {
		"en": "Wh-what are you doing here!?",
		"ja": "な、何で君がここにいるんだ！？"
	},
	"009": {
		"en": "Beware the legion «Ruina». A direct blow by that force means certain defeat.",
		"ja": "≪破砕≫の異名をとる軍勢。<br>まともにぶつかっては勝ち目はない。"
	},
	"010": {
		"en": "Father! What is Machérie doing here!?",
		"ja": "父上！<br>なぜ、マシュリーが！"
	},
	"011": {
		"en": "Lady Machérie is accompanying us into battle of her own volition.",
		"ja": "マシュリー殿は、自ら志願し<br>戦に同行することになった。"
	},
	"012": {
		"en": "Your fears are unfounded. I can take care of myself.",
		"ja": "心配など無用。<br>自分の身は自分で守れる。"
	},
	"013": {
		"en": "Maybe I should protect you, too?",
		"ja": "そなたのことも<br>守ってやってもよいぞ？"
	},
	"014": {
		"en": "Make haste before it's too late. Return to the castle at once!",
		"ja": "今からでも遅くない。<br>早く城に戻るんだ！"
	},
	"015": {
		"en": "It was more comfortable than I'd expected, I'll give you that.",
		"ja": "あの城は思った以上に居心地がよい。"
	},
	"016": {
		"en": "But I'm not one for staying put.",
		"ja": "だが、わらわは<br>じっとしていることが苦手なのじゃ。"
	},
	"017": {
		"en": "We beg your pardon, Lord Mont...",
		"ja": "モント殿……どうかお許しを。"
	},
	"018": {
		"en": "Besides...isn't it better for me to accompany you?",
		"ja": "それに……<br>わらわが同行したほうが<br>都合がよいのではないか？"
	},
	"019": {
		"en": "What do you mean?",
		"ja": "どういう意味だ？"
	}
}