{
	"80167": {
		"ja": "モンドざまあぁぁっ！",
		"en": "Mondo Zama Aa'!"
	},
	"80168": {
		"ja": "え……この声は……！？",
		"en": "For example ...... This voice is ......! ?"
	},
	"80169": {
		"ja": "ぜーはーぜーはーぜーはー！",
		"en": "Zeha Zeha Zeha!"
	},
	"80170": {
		"ja": "ど、どうしてここに！？",
		"en": "Etc., why here! ?"
	},
	"80171": {
		"ja": "ぜーはーぜーはーぜーはー！",
		"en": "Zeha Zeha Zeha!"
	},
	"80172": {
		"ja": "おい、何とか言いなよ。",
		"en": "Hey, say something."
	},
	"80173": {
		"ja": "ぜーはーぜーはー<br>まじゅりーざまぁ。",
		"en": "Zeha Zeha <br> MaJuriｰ Zamaa."
	},
	"80174": {
		"ja": "さらわれで<br>ぜーはーぜはー<br>リオニズ城にぃ～！",
		"en": "Kidnapped are in <br> Zewaze is over <br> Rionizu Castle Nyi ~!"
	},
	"80175": {
		"ja": "なに言ってんだ！？<br>もっとハッキリ言いなって。",
		"en": "What I'm saying! ? <br> and Na' say more clearly."
	},
	"80176": {
		"ja": "おえぇーーーーーーー！",
		"en": "Oee ｰｰｰｰｰｰｰ!"
	},
	"80177": {
		"ja": "ふう、スッキリ。",
		"en": "Fu, refreshing."
	},
	"80178": {
		"ja": "だ、大丈夫かい？",
		"en": "But, all right either?"
	},
	"80179": {
		"ja": "で、どうしたんだ？",
		"en": "In, it was what?"
	},
	"80180": {
		"ja": "じつは……。",
		"en": "Matter of fact ...."
	},
	"80181": {
		"ja": "マシュリー殿がさらわれた？",
		"en": "Mashuri dono has been kidnapped?"
	},
	"80182": {
		"ja": "信じられない……<br>ホルンで内紛だなんて。",
		"en": "At incredible ...... <br> Horn Nante's infighting."
	},
	"80183": {
		"ja": "それから……<br>ヘレナ妃とオー様が……。",
		"en": "Then ...... <br> Helena Princess and the O-sama ......."
	},
	"80184": {
		"ja": "……ああ。<br>それは知ってる。",
		"en": "……Ah. <br> it know."
	},
	"80185": {
		"ja": "ウソであってくれと願っていたけど<br>やっぱり……。",
		"en": "I was hoping me to be a lie <br> after all ...."
	},
	"80186": {
		"ja": "モント様……。",
		"en": "Mont-like ...."
	},
	"80187": {
		"ja": "マシュリーを助けに行かないと……。",
		"en": "...... and I do not go to help Mashuri."
	},
	"80188": {
		"ja": "気持ちはわかるけど<br>そりゃあ無理な話だよ。",
		"en": "The feeling is a Oh yeah impossible story <br> I know."
	},
	"80189": {
		"ja": "エルデ様やシュゼルトを<br>ウェズエット城に<br>残しておけないだろ。",
		"en": "It will not can leave <br> the Erude like and Shuzeruto to <br> Wezuetto Castle."
	},
	"80190": {
		"ja": "それは……わかってる。",
		"en": "It has been found ...."
	},
	"80191": {
		"ja": "ひとまず、ウェズエット城へ<br>帰還しよう。",
		"en": "For now, try to <br> feedback to Wezuetto Castle."
	},
	"80192": {
		"ja": "それでエルデ様にご判断を仰ぐ。<br>……それじゃあダメかい？",
		"en": "So seek your decision to Erude like. <br> ...... Well then useless or?"
	},
	"80193": {
		"ja": "……うん。<br>リリシュの言うとおりだよ。",
		"en": "……Yup. But as I say <br> Ririshu."
	},
	"80194": {
		"ja": "父上と話し合って決めよう。<br>ともに戦うべきはホルンなのか、<br>それともウェズエットかを……。",
		"en": "We decide to talk with my father. <br> or both fight to the is a horn, <br> or Wezuetto or the ...."
	},
	"80195": {
		"ja": "あ、あの～。<br>シュゼルトさんは無事なんですか？",
		"en": "Oh, that ~. <br> Shuzeruto Mr. Is that safe?"
	},
	"80196": {
		"ja": "ああ。",
		"en": "Ah."
	},
	"80197": {
		"ja": "よかった～！",
		"en": "Was good ~!"
	},
	"80198": {
		"ja": "ホルンの盾に凄まれたんですよ。<br>シュゼルトに何かあったら<br>承知しないって。",
		"en": "It was Sugoma to shield of the horn. <br> I do not know if there something <br> to Shuzeruto."
	},
	"80199": {
		"ja": "心配はいらないよ。<br>今は、父上と一緒に<br>ウェズエット城で傷を癒やしている。",
		"en": "Do not worry. <br> now has a wound to heal in <br> Wezuetto Castle along with the father."
	},
	"80200": {
		"ja": "ならば、ホルンと共闘することに<br>何の問題もありませんね。",
		"en": "If, you do not have any problem <br> to be a united front with the horn."
	},
	"80201": {
		"ja": "ロブ殿は言ってました。<br>今やリオニスは手を携え、<br>ともに戦うべき同志なのだぞって。",
		"en": "Rob dono had said. <br> now Rionisu will join hands, <br> both me comrades of the I'll to fight."
	},
	"80202": {
		"ja": "そうか。<br>我らとしても、それは望むところ。",
		"en": "Really. <br> even as we, it is the place you want."
	},
	"80203": {
		"ja": "ところで、あんたは……？",
		"en": "By the way, You're ...?"
	},
	"80204": {
		"ja": "オウィスの者です。<br>ランダルの襲撃を受けて<br>それで援軍を乞うために……。",
		"en": "Owisu is a person of. In response to the attack of <br> Randall <br> So ...... in order to beg for reinforcements."
	},
	"80205": {
		"ja": "ここまで一緒に戦ってきた仲間なんです。<br>ですから、力に……！",
		"en": "It's a fellow that has fought together until now. <br> So, ... to the force!"
	},
	"80206": {
		"ja": "ランダルは、僕らにとっても<br>脅威であることに間違いない。<br>喜んで力を貸すよ。",
		"en": "Randall is, no doubt in it for us is <br> threat. <br> willing to lend the force."
	},
	"80207": {
		"ja": "でも、その前に……。",
		"en": "But ... before that."
	},
	"80208": {
		"ja": "こいつらを始末しないとね。",
		"en": "You If you do not dispose of the guys."
	}
}