{
	"70469": {
		"ja": "はあはあはあ……。",
		"en": "Ha Ha Ha ...."
	},
	"70470": {
		"ja": "よく凌いだね。<br>自分でも感心するよ。",
		"en": "Well it outperformed. <br> admire myself."
	},
	"70471": {
		"ja": "でも……。",
		"en": "But ...."
	},
	"70472": {
		"ja": "ええ。<br>そろそろ限界でしょうね。<br>ふふふ。",
		"en": "Yeah. <br> it would soon limit. <br> hehehe."
	},
	"70473": {
		"ja": "というわけさ、モント様。",
		"en": "Is the reason that, Mont-like."
	},
	"70474": {
		"ja": "退くか……<br>それとも、このまま戦うか。",
		"en": "Or ...... <br> or, if this remains fighting retreat."
	},
	"70475": {
		"ja": "…………。",
		"en": "............."
	},
	"70476": {
		"ja": "……決断の時だよ。",
		"en": "...... It is time of the decision."
	},
	"70477": {
		"ja": "戦う。",
		"en": "fight."
	},
	"70478": {
		"ja": "……へえ。<br>意外だね。",
		"en": "...... Oh. <br> That's surprising."
	},
	"70479": {
		"ja": "あたしは、退くとばかり<br>思ってたよ。",
		"en": "I had thought <br> just a retreat."
	},
	"70480": {
		"ja": "思いついたことがあるんだ。<br>これがうまくいけば……。",
		"en": "I sometimes came up. <br> this is ...... hopefully."
	},
	"70481": {
		"ja": "いったい、どんな……。",
		"en": "Exactly, what ...."
	},
	"70482": {
		"ja": "……ベイロ！<br>こっちだ、急いでくれ！",
		"en": "...... United States and Russia! <br>'m here, me hurry up!"
	},
	"70483": {
		"ja": "ふうふうふう……。<br>どうしました、モント様。",
		"en": "Sound of heavy breathing sealed .... <br> was how, Mont-like."
	},
	"70484": {
		"ja": "（しっ、静かに……！）",
		"en": "(Know, quietly ...!)"
	},
	"70485": {
		"ja": "（ベイロ。<br>　君に預けた遠話装置は？）",
		"en": "(United States and Russia. <br> is Tohanashi device entrusted to you?)"
	},
	"70486": {
		"ja": "（え……ここにありますけど）",
		"en": "(But there are e ...... here)"
	},
	"70487": {
		"ja": "（貸してくれ）",
		"en": "(Lend me)"
	},
	"70488": {
		"ja": "（モント様、何を……？）",
		"en": "(Montt like, what the ...?)"
	},
	"70489": {
		"ja": "よし援軍が来たぞ！",
		"en": "Yoshi reinforcements came!"
	},
	"70490": {
		"ja": "え……！？",
		"en": "e……! ?"
	},
	"70491": {
		"ja": "これだけの兵がいれば<br>形勢逆転は間違いないぞ！",
		"en": "No doubt this only <br> tide reversed if there are soldiers!"
	},
	"70492": {
		"ja": "援軍って……<br>どこに、ですか？",
		"en": "Where, Is ...... <br> What reinforcements?"
	},
	"70493": {
		"ja": "遠話装置とやらを<br>逆に利用したわけだね。",
		"en": "We're not using the alleged Tohanashi device <br> reverse."
	},
	"70494": {
		"ja": "……？？",
		"en": "......? ?"
	},
	"70495": {
		"ja": "ベイロ、安心しな。<br>これでフェネスの奴らは<br>浮き足立つよ。",
		"en": "United States and Russia, Do you peace of mind. <br> This guys of Fennesz <br> Ukiashidatsu."
	},
	"70496": {
		"ja": "さあ、行こう！<br>これで少しは時間稼ぎできるはず。",
		"en": "Alright, let's go! <br> This should be able to earn a little time."
	},
	"70497": {
		"ja": "一気に形勢をひっくり返すんだ！",
		"en": "Once you turn over the situation!"
	}
}