{
	"70060": {
		"ja": "やっぱり東へ――<br>≪紅蓮≫のアジトに向かうのかい。",
		"en": "After all, to the east - <br> whether towards the «Guren» hideout."
	},
	"70061": {
		"ja": "……ああ。",
		"en": "……Oh."
	},
	"70062": {
		"ja": "この程度の戦力……<br>まあ、それは間違ってないしね。",
		"en": "This degree of strength ...... <br> Well, it sounds to not wrong."
	},
	"70063": {
		"ja": "モント様の気持ちはよくわかるよ。<br>今度の戦に、敗北は<br>絶対に許されないからね。",
		"en": "Mont-like feeling is well understood. <br> in this time of war, it since the defeat is not allowed absolutely <br>."
	},
	"70064": {
		"ja": "ああ。",
		"en": "Oh."
	},
	"70065": {
		"ja": "クーリ殿が僕らを見限れば<br>父上は殺される。",
		"en": "If coulis dono Mikagire the we <br> father is killed."
	},
	"70066": {
		"ja": "それだけじゃない。<br>シュゼルトも……。",
		"en": "Not only that. <br> Shuzeruto also ...."
	},
	"70067": {
		"ja": "ホルン攻略のための道具に<br>されてしまうだろう。",
		"en": "It would would be <br> a tool for the Horn capture."
	},
	"70068": {
		"ja": "≪紅蓮≫に力を借りる、か……。",
		"en": "«Guren» to borrow the power, or ...."
	},
	"70069": {
		"ja": "そりゃあ、うちらにだって<br>プライドはあるさ。",
		"en": "Oh yeah, there is a <br> pride Datte to Uchira."
	},
	"70070": {
		"ja": "でもね、そんなもののために<br>誰かが涙することがあるなら<br>喜んで捨てる。",
		"en": "But you know, throw away pleased <br> If there is anything that Namidasuru is <br> someone for such a thing."
	},
	"70071": {
		"ja": "……だろ？",
		"en": "...... right?"
	},
	"70072": {
		"ja": "仲間のために。",
		"en": "For fellow."
	},
	"70073": {
		"ja": "笑顔のために。",
		"en": "For the sake of a smile."
	},
	"70074": {
		"ja": "リオニスのために。",
		"en": "For Rionisu."
	},
	"70075": {
		"ja": "みんな……。",
		"en": "Everyone……."
	},
	"70076": {
		"ja": "≪紅蓮≫のアジトで<br>何かご馳走になれるかな……。",
		"en": "«Guren» of get used to <br> feast something in the hideout kana ...."
	},
	"70077": {
		"ja": "もう……すぐに食べ物の話するし。<br>せっかくカッコよく決まったのに。",
		"en": "And then we talk about the food anymore ...... immediately. <br> though was decided pains cool."
	},
	"70078": {
		"ja": "ご、ごめん……。",
		"en": "Please, I'm sorry ...."
	},
	"70079": {
		"ja": "さあ、気を引き締めて行くよ！",
		"en": "Come on, go braced!"
	}
}