{
	"Clear": {
		"ja": "クエストをクリアする",
		"en": "Clear the Quest"
	},
	"DeadAll": {
		"ja": "敵ユニットを殲滅する",
		"en": "Annihilate the Enemy Units"
	},
	"NotDead": {
		"ja": "戦闘不能ユニットなし(コンティニュー可)",
		"en": "No KO'd Units (Continues Allowed)"
	},
	"NotDead2": {
		"ja": "戦闘不能ユニットなし",
		"en": "No KO'd Units"
	},
	"DeadLess": {
		"ja": "戦闘不能ユニット{0}体以下",
		"en": "No More Than {0} KO'd Unit(s)"
	},
	"ClearNotDead": {
		"ja": "クリア時に{0}が戦闘不能状態ではない",
		"en": "Sterne Leonis Not KO'd at the Time of Clearing the Quest"
	},
	"PartyOnlyElement": {
		"ja": "{0}属性のユニットのみで編成",
		"en": "Formation Includes Only {0} Element Units"
	},
	"PartyOnlyAttack": {
		"ja": "{0}ユニットのみで編成",
		"en": "Formation Includes Only {0} Units"
	},
	"PartyOnlyArtifact": {
		"ja": "{0}装備ユニットのみで編成",
		"en": "Formation Includes Only Units Equipped with {0}"
	},
	"PartyOnlyBirth": {
		"ja": "{0}出身ユニットのみで編成",
		"en": "Formation Includes Only Units from {0}"
	},
	"PartyOnlySex": {
		"ja": "{0}ユニットのみで編成",
		"en": "Formation Includes Only {0} Units"
	},
	"PartyInUnit": {
		"ja": "{0}を含めて編成",
		"en": "{0} Included in Formation"
	},
	"PartyOnlyUnit": {
		"ja": "{0}のみで編成",
		"en": "Formation Includes Only {0}"
	},
	"PartyLess": {
		"ja": "ユニット編成数が{0}人以内",
		"en": "Formation Comprised of No More Than {0} Unit(s)"
	},
	"BadDeadUnit": {
		"ja": "{0}を倒さない",
		"en": "Do Not Defeat {0}"
	},
	"EscapeUnit": {
		"ja": "{0}を撤退させる",
		"en": "Force {0} to Retreat"
	},
	"DeadUnitGreater": {
		"ja": "{0}を{1}体倒す",
		"en": "Defeat {1} {0} Unit(s)"
	},
	"DeadUnitSameGreater": {
		"ja": "{0}を同時に{1}体以上倒す",
		"en": "Defeat {1} {0} Unit(s) or More Simultaneously"
	},
	"DeadUnitFromUnit": {
		"ja": "{0}でトドメをさす",
		"en": "Deliver the Finishing Blow with {0}"
	},
	"DeadBreakObjectNot": {
		"ja": "壊れるオブジェクトを破壊数しない",
		"en": "Do Not Destroy Breakable Objects"
	},
	"DeadBreakObjectLess": {
		"ja": "壊れるオブジェクト破壊数が{0}個以内",
		"en": "Destroy No More Than {0} Breakable Object(s)"
	},
	"DeadBreakObjectGreater": {
		"ja": "壊れるオブジェクト破壊数が{0}個以上",
		"en": "Destroy {0} Breakable Object(s) or More"
	},
	"DeadUnitSkill": {
		"ja": "{0}を使用して敵を倒す",
		"en": "Defeat an Enemy Using {0}"
	},
	"UseSkill": {
		"ja": "{0}を使用する",
		"en": "Use {0}"
	},
	"UseSkillNot ": {
		"ja": "アビリティ使用をしない",
		"en": "Do Not Use Abilities"
	},
	"UseSkillLess": {
		"ja": "アビリティ使用回数が{0}回以内",
		"en": "Use Abilities No More Than {0} Time(s)"
	},
	"ActionGimmick": {
		"ja": "{0}を動作させる",
		"en": "Activate {0}"
	},
	"UseItemNot": {
		"ja": "アイテムを使用しない",
		"en": "Do Not Use Items"
	},
	"UseItemLess": {
		"ja": "アイテム使用回数が{0}回以内",
		"en": "Use Items No More Than {0} Time(s)"
	},
	"NotHireFriend": {
		"ja": "同行者を雇わない",
		"en": "Do Not Hire a Companion"
	},
	"HireFriend": {
		"ja": "同行者を雇う",
		"en": "Hire a Companion"
	},
	"DeadEnemyGreater": {
		"ja": "敵を{0}体以上倒す",
		"en": "Defeat {0} or More Enemies"
	},
	"DeadEnemySameGreater": {
		"ja": "同時に敵を{0}体以上倒す",
		"en": "Defeat {0} or More Enemies Simultaneously"
	},
	"HealHpNot": {
		"ja": "HPを回復しない",
		"en": "Do Not Recover HP"
	},
	"HealHpLess": {
		"ja": "HPの回復量が{0}以下",
		"en": "Recover No More Than {0} HP"
	},
	"AttackNumLess": {
		"ja": "攻撃を受けた回数が{0}回以下",
		"en": "Be Attacked No More Than {0} Time(s)"
	},
	"TakenDamageNot": {
		"ja": "ダメージを受けない",
		"en": "Take No Damage"
	},
	"TakenDamageLess": {
		"ja": "受けたダメージが{0}以下",
		"en": "Take No More Than {0} Dmg"
	},
	"DamageGreater": {
		"ja": "与えたダメージが{0}以上",
		"en": "Deal {0} or More Dmg"
	},
	"OneTimeDamgeGreater": {
		"ja": "1回の攻撃で与えたダメージが{0}以上",
		"en": "Deal {0} or More Dmg with a Single Attack"
	},
	"LeaderActionCountLess": {
		"ja": "リーダーユニットの行動回数が{0}回以下",
		"en": "Lead Unit's Action Count Is No More Than {0}"
	},
	"PartyActionCountLess": {
		"ja": "パーティーメンバーの行動回数が{0}回以下",
		"en": "Party Members' Combined Action Count Is No More Than {0}"
	},
	"ContinueNot": {
		"ja": "コンティニューしない",
		"en": "Do Not Continue"
	},
	"ContinueLess": {
		"ja": "コンティニュー{0}回以下",
		"en": "No More Than {0} Continue(s)"
	},
	"TreasureGreater": {
		"ja": "宝箱を{0}個以上取得",
		"en": "Acquire {0} or More Treasure Chests"
	},
	"CrystalNot": {
		"ja": "クリスタルを取らない",
		"en": "Do Not Pick Up Crystals"
	},
	"CrystalLess": {
		"ja": "クリスタル取得数{0}個以下",
		"en": "Pick Up No More Than {0} Crystal(s)"
	},
	"CrystalGreater": {
		"ja": "クリスタル取得数{0}個以上",
		"en": "Pick Up {0} or More Crystals"
	},
	"ChainGreater": {
		"ja": "チェインを{0}以上つなげる",
		"en": "Make a Chain of {0} or More"
	},
	"ElementChainGreater": {
		"ja": "エレメントチェインを{0}以上つなげる",
		"en": "Make an Elemental Chain of {0} or More"
	},
	"NotAuto": {
		"ja": "Autoを1度も使用しない",
		"en": "Do Not Use Auto Battle"
	},
	"OtherMissionSameDone": {
		"ja": "全てのミッションを同時に達成する",
		"en": "Clear All Missions at the Same Time"
	},
	"AND": {
		"ja": "と",
		"en": " and "
	}
}