{
	"QE_BGN_01": {
		"ja": "敵の<color=#00ffff>攻撃タイプ耐性</color>を確認しながら、<br>効率よくダメージを与えよう。",
		"en": "Check the <color=#00ffff>attack type resistance</color> of the enemy in order to effectively deal damage."
	},
	"QE_BGN_02": {
		"ja": "同じ<color=#00ffff>攻撃タイプ</color>で<color=#00ffff>連続</color>して敵を攻撃し<br><color=#00ffff>チェイン</color>を発生させよう。",
		"en": "Attack the enemy with the same <color=#00ffff>attack type</color> in <color=#00ffff>succession</color> to generate a <color=#00ffff>Chain</color>."
	},
	"QE_BGN_03": {
		"ja": "<color=#00ffff>カメラを操作</color>して敵を探そう。<br><color=#00ffff>詠唱アビリティ</color>は<color=#00ffff>「ユニット」</color>選択が基本。",
		"en": "<color=#00ffff>Adjust the camera view</color> to locate enemies on the field. When first starting out, it's best to select <color=#00ffff>Unit</color> when <color=#00ffff>casting abilities</color>."
	},
	"QE_BGN_04": {
		"ja": "<color=#00ffff>TP</color>を消費するアビリティ、<br><color=#00ffff>AP</color>を消費するアビリティ、<br>そして<color=#00ffff>リミットバースト</color>を使ってみよう。",
		"en": "Try using <color=#00ffff>TP</color>-consuming abilities, <color=#00ffff>AP</color>-consuming abilities, and <color=#00ffff>Limit Bursts</color>."
	},
	"QE_BGN_05": {
		"ja": "ユニット同士の<color=#00ffff>属性</color>には<color=#00ffff>相性</color>がある、<br><color=#00ffff>お互いの属性</color>を確認して<color=#00ffff>攻撃</color>しよう。",
		"en": "Every unit in your party has <color=#00ffff>Affinity</color> for an <color=#00ffff>element</color>. Check <color=#00ffff>each unit's Affinity</color> before <color=#00ffff>attacking</color>."
	},
	"QE_BGN_06": {
		"ja": "<color=#00ffff>アビリティ</color>には<color=#00ffff>属性</color>があり、<br><color=#00ffff>ユニット</color>には<color=#00ffff>属性耐性</color>がある、<br>敵の属性耐性を確認して攻撃しよう。",
		"en": "<color=#00ffff>Abilities</color> have <color=#00ffff>elemental types</color>, while <color=#00ffff>units</color> have <color=#00ffff>elemental resistances</color>. Attack a target after checking its elemental resistance."
	},
	"QE_BGN_07": {
		"ja": "<color=#00ffff>同属性</color>の<color=#00ffff>アビリティ</color>で<color=#00ffff>連続</color>で敵を攻撃、<br><color=#00ffff>エレメントチェイン</color>を発生させよう。",
		"en": "If multiple units use <color=#00ffff>abilities</color> of the <color=#00ffff>same element</color> on an enemy in <color=#00ffff>succession</color>, an <color=#00ffff>Elemental Chain</color> will be generated."
	},
	"QE_BGN_08": {
		"ja": "<color=#00ffff>マシュリー</color>の<color=#00ffff>「エスナ」</color>は<color=#00ffff>状態異常</color>を<color=#00ffff>回復</color>、<br><color=#00ffff>「アンチカラミティ」</color>は<color=#00ffff>状態異常</color>を<color=#00ffff>防ぐ</color>。",
		"en": "<color=#00ffff>Machérie</color> can use <color=#00ffff>Esuna</color> to <color=#00ffff>remove</color> <color=#00ffff>status ailments</color> from afflicted units, while <color=#00ffff>Calamity Guard</color> can help <color=#00ffff>prevent</color> units from being inflicted by those <color=#00ffff>status ailments</color>."
	},
	"QE_BGN_09": {
		"ja": "<color=#00ffff>敵</color>の<color=#00ffff>状態異常耐性</color>を確認し、<br><color=#00ffff>耐性</color>の<color=#00ffff>低い</color>状態異常を使用しよう。",
		"en": "Confirm an <color=#00ffff>enemy's status ailment resistance</color> and try inflicting a status ailment to which it has <color=#00ffff>low resistance</color>."
	},
	"QE_BGN_10": {
		"ja": "弓は、<br><color=#00ffff>高いところ</color>から射ると<color=#00ffff>射程が伸びる</color><br>という特徴がある。",
		"en": "The <color=#00ffff>range of arrows increases</color> when they're shot from <color=#00ffff>high places</color>."
	},
	"QE_BGN_11": {
		"ja": "<color=#00ffff>素早さ</color>が高いほど<color=#00ffff>早く</color>行動でき、<br><color=#00ffff>行動をしぼる</color>と次の<color=#00ffff>手順</color>が<color=#00ffff>早く来る</color>。",
		"en": "Units with high <color=#00ffff>AGI</color> can act more <color=#00ffff>quickly</color> than others, and <color=#00ffff>their next turn</color> will <color=#00ffff>come sooner</color> if they <color=#00ffff>limit the actions they take</color> during their turn."
	},
	"QE_BGN_12": {
		"ja": "<color=#00ffff>HP0</color>で<color=#00ffff>戦闘不能</color>になりカウントが開始。<br><color=#00ffff>カウント0</color>でステージから<color=#00ffff>消失</color>してしまう。",
		"en": "When <color=#00ffff>a unit's HP reaches 0</color>, they will be <color=#00ffff>KO'd</color> and a countdown will appear over their head. At <color=#00ffff>count 0</color>, the KO'd unit will <color=#00ffff>withdraw</color> from the field."
	},
	"QE_BGN_13": {
		"ja": "<color=#00ffff>エネミー</color>が<color=#00ffff>戦闘不能</color>で<color=#00ffff>アイテムドロップ</color>、<br><color=#00ffff>ユニット</color>が<color=#00ffff>消失</color>すると<br><color=#00ffff>クリスタル</color>が発生することがある。",
		"en": "<color=#00ffff>KO'd units</color> will <color=#00ffff>drop items</color>, while <color=#00ffff>withdrawn units</color> will leave behind <color=#00ffff>Crystals</color>."
	},
	"QE_BGN_14": {
		"ja": "<color=#00ffff>召喚ゲージ</color>を溜めて、<br>強力な<color=#00ffff>召喚魔法</color>を発動させよう。",
		"en": "Fill the <color=#00ffff>Evocation Gauge</color> to activate powerful <color=#00ffff>Evocation Magic</color>."
	}
}