{
	"TALK_001": {
		"ja": "一つ一つの依頼は小さなものかも<br>しれませんが、これらの積み重ねが<br>平和へと繋がる道だと考えております。",
		"en": "Though each individual request may be something small, I believe that they all form a cobble on the pathway to peace."
	},
	"TALK_002": {
		"ja": "モント様がこの国を、<br>そしてこの大陸を治める君主となる日を<br>楽しみにしておりますわ。",
		"en": "I am looking forward to the day that you become the ruler of this country—and eventually this continent, Lord Mont."
	},
	"DIALOG_001_T": {
		"ja": "◆サブクエスト◆",
		"en": "• Subquests •"
	},
	"DIALOG_001_M": {
		"ja": "◆サブクエスト◆<br>サブクエストでは<color=#00ffff>依頼人</color>からの依頼を<br>達成することで報酬を獲得できます。",
		"en": "• Subquests •<br>Here, you can acquire rewards by completing requests from <color=#00ffff>clients</color>."
	},
	"DIALOG_002_T": {
		"ja": "◆サブクエスト◆",
		"en": "• Subquests •"
	},
	"DIALOG_002_M": {
		"ja": "ミッションとはことなり、<color=#00ffff>依頼を受注</color>し<br>依頼内容を達成しなければいけないため<br>サブクエストはこまめにチェックし、<br>受注していきましょう。",
		"en": "Unlike missions, you must <color=#00ffff>manually accept requests</color> and carry out what they ask you to do, so be sure to check for Subquests and accept them frequently."
	},
	"SKIP_TITLE": {
		"ja": "◆ダミー◆",
		"en": "• Dummy •"
	},
	"SKIP_MSG": {
		"ja": "ダミーのチュートリアルをスキップしますか？",
		"en": "Skip the dummy tutorial?"
	},
	"SKIP_YES": {
		"ja": "聞く",
		"en": "Yes"
	},
	"SKIP_NO": {
		"ja": "聞かない",
		"en": "No"
	}
}