{
	"TW_01_001": {
		"ja": "推奨ユニット：土属性",
		"en": "Recommended unit: Sat attribute"
	},
	"TW_01_002": {
		"ja": "推奨ユニット：雷属性、狩人",
		"en": "Recommended unit: lightning, hunter"
	},
	"TW_01_003": {
		"ja": "推奨ユニット：水属性<br>推奨アビリティ：単体攻撃",
		"en": "Recommended unit: water attribute <br> Recommended abilities: a single attack"
	},
	"TW_01_004": {
		"ja": "推奨ユニット：風属性<br>推奨アビリティ：防御貫通<br>その他：メタルサボテンは3回攻撃を受けると針千本を使用",
		"en": "Recommended unit: wind attribute <br> recommended Abilities: defense through <br> Others: using a needle thousand Upon receiving a metal cactus three times attack"
	},
	"TW_01_005": {
		"ja": "推奨ユニット：水属性、雷属性、魔法攻撃",
		"en": "Recommended unit: water attribute, lightning, magic attack"
	},
	"TW_01_006": {
		"ja": "推奨ユニット：光属性<br>推奨アビリティ：エスナ",
		"en": "Recommended unit: light attribute <br> Recommended abilities: Esuna"
	},
	"TW_01_007": {
		"ja": "推奨ユニット：闇属性、斬撃攻撃",
		"en": "Recommended unit: darkness attribute, slashing attack"
	},
	"TW_01_008": {
		"ja": "推奨ユニット：火属性、刺突攻撃",
		"en": "Recommended unit: fire attribute, piercing attack"
	},
	"TW_01_009": {
		"ja": "推奨ユニット：氷属性<br>推奨アビリティ：範囲攻撃",
		"en": "Recommended unit: ice attribute <br> Recommended abilities: range attack"
	},
	"TW_01_010": {
		"ja": "推奨ユニット：刺突攻撃",
		"en": "Recommended unit: piercing attack"
	},
	"TW_01_EX1": {
		"ja": "推奨ユニット：素早さ、Moveが高いユニット<br>その他：最後の魔法陣を踏むとモンスターが全滅する",
		"en": "Recommended unit: quickness, Move higher unit <br> Other: monster wiped out and step on the last of the magic"
	},
	"TW_01_011": {
		"ja": "推奨ユニット：風属性<br>推奨アビリティ：必中攻撃",
		"en": "Recommended unit: wind attribute <br> recommended Abilities: hitting the target attack"
	},
	"TW_01_012": {
		"ja": "推奨ユニット：光属性、魔法攻撃<br>その他：敵はHP吸収攻撃を多用",
		"en": "Recommended unit: light attributes, magic attack <br> Other: The enemy frequently used the HP absorption attack"
	},
	"TW_01_013": {
		"ja": "推奨ユニット：氷属性",
		"en": "Recommended unit: ice attribute"
	},
	"TW_01_014": {
		"ja": "推奨ユニット：火属性",
		"en": "Recommended unit: fire attribute"
	},
	"TW_01_015": {
		"ja": "推奨ユニット：トード耐性、黒魔道士",
		"en": "Recommended unit: Toad-resistant, black Mage"
	},
	"TW_01_016": {
		"ja": "推奨ユニット：雷属性",
		"en": "Recommended unit: lightning"
	},
	"TW_01_017": {
		"ja": "推奨ユニット：土属性、刺突攻撃",
		"en": "Recommended unit: soil attributes, piercing attack"
	},
	"TW_01_018": {
		"ja": "推奨ユニット：水属性<br>その他：敵は魔法・斬撃・刺突の耐性が低いグループに分かれている。初期配置に気を付けよう",
		"en": "Recommended unit: water attribute <br> Other: enemy resistance of magic-slashing, piercing is divided into a lower group. Beware the initial placement"
	},
	"TW_01_019": {
		"ja": "推奨ユニット：闇属性、魔法攻撃<br>推奨アビリティ：防御貫通、魅了付与、タイプなし攻撃",
		"en": "Recommended unit: darkness attribute, magic attack <br> Recommended abilities: defense through, fascinated grant, you type no attack"
	},
	"TW_01_EX2": {
		"ja": "推奨アビリティ：状態異常回復",
		"en": "Recommended abilities: state abnormal recovery"
	},
	"TW_01_020": {
		"ja": "推奨アビリティ：防御貫通、必中攻撃",
		"en": "Recommended abilities: defense through, hitting the target attack"
	},
	"TW_02_001": {
		"ja": "推奨ユニット：水属性",
		"en": "Recommended unit: water attribute"
	},
	"TW_02_002": {
		"ja": "推奨ユニット：光属性、闇属性",
		"en": "Recommended unit: light attributes, darkness attribute"
	},
	"TW_02_003": {
		"ja": "推奨ユニット：風属性",
		"en": "Recommended unit: wind attribute"
	},
	"TW_02_004": {
		"ja": "推奨ユニット：氷属性、風属性",
		"en": "Recommended unit: ice attribute, wind attribute"
	},
	"TW_02_005": {
		"ja": "推奨アビリティ：魔法耐性アップ",
		"en": "Recommended abilities: magic resistance up"
	},
	"TW_02_006": {
		"ja": "推奨ユニット：雷属性、毒耐性",
		"en": "Recommended unit: lightning, poison-resistant"
	},
	"TW_02_007": {
		"ja": "推奨ユニット：土属性",
		"en": "Recommended unit: Sat attribute"
	},
	"TW_02_008": {
		"ja": "推奨ユニット：火属性<br>推奨アビリティ：射撃耐性アップ",
		"en": "Recommended unit: fire attribute <br> Recommended abilities: fire-resistant up"
	},
	"TW_02_009": {
		"ja": "推奨ユニット：氷属性<br>推奨アビリティ：命中アップ、ヘイトアップ",
		"en": "Recommended unit: ice attribute <br> recommended Abilities: hit up, hate-up"
	},
	"TW_02_EX1": {
		"ja": "推奨ユニット：魅了耐性、麻痺耐性、混乱耐性<br>推奨アビリティ：必中攻撃、エスナ、アンチカラミティ",
		"en": "Recommended unit: fascinated resistance, paralysis resistance, confusion resistant <br> recommended Abilities: hitting the target attacks, Esuna, Anti-Calamity"
	},
	"TW_02_010": {
		"ja": "推奨ユニット：氷属性<br>推奨アビリティ：必中攻撃<br>その他：敵は種類によって高い耐性が分かれている。",
		"en": "Recommended unit: ice attribute <br> recommended Abilities: hitting the target attacks <br> other: the enemy is divided highly resistant depending on the type."
	}
}