{
	"HUMAN": {
		"ja": "人系",
		"en": "Human"
	},
	"NETHERBEAST": {
		"ja": "幻獣系",
		"en": "Esper"
	},
	"BEAST": {
		"ja": "獣系",
		"en": "Beast"
	},
	"DEMON": {
		"ja": "悪魔系",
		"en": "Demon"
	},
	"DRAGON": {
		"ja": "竜系",
		"en": "Dragon"
	},
	"PLANE": {
		"ja": "植物系",
		"en": "Plantoid"
	},
	"BIRD": {
		"ja": "鳥系",
		"en": "Avian"
	},
	"INSECT": {
		"ja": "虫系",
		"en": "Insect"
	},
	"AQUATIC": {
		"ja": "水棲系",
		"en": "Aquatic"
	},
	"MACHINE": {
		"ja": "機械系",
		"en": "Machina"
	},
	"SPIRIT": {
		"ja": "精霊系",
		"en": "Fairy"
	},
	"UNDEAD": {
		"ja": "死霊系",
		"en": "Reaper"
	},
	"STONE": {
		"ja": "石系",
		"en": "Stone"
	},
	"METAL": {
		"ja": "メタル系",
		"en": "Metal"
	}
}