{
	"Party": {
		"ja": "編成",
		"en": "Formations"
	},
	"Unit": {
		"ja": "ユニット",
		"en": "Units"
	},
	"UnitJobStrength": {
		"ja": "ユニット：ジョブ強化",
		"en": "Unit: Job Enhancement"
	},
	"UnitAbilitybord": {
		"ja": "ユニット：アビリティボード",
		"en": "Unit: Ability Board"
	},
	"UnitAbilityStrength": {
		"ja": "ユニット：アビリティ強化",
		"en": "Unit: Ability Enhancement"
	},
	"UnitStrengthLB": {
		"ja": "ユニット：ＬＢ強化",
		"en": "Unit: LB Enhancement"
	},
	"UnitAwake": {
		"ja": "ユニット：覚醒",
		"en": "Unit: Awakening"
	},
	"UnitRank": {
		"ja": "ユニット：限界突破",
		"en": "Unit: Limit Break"
	},
	"Artifact": {
		"ja": "武具",
		"en": "Equipment"
	},
	"ArtifactCraft": {
		"ja": "武具：クラフト",
		"en": "Equipment: Crafting"
	},
	"ArtifactAwake": {
		"ja": "武具：覚醒",
		"en": "Equipment: Awakening"
	},
	"UnitArtifactFav": {
		"ja": "ユニット：お気に入り武具",
		"en": "Unit: Favorite Equipment"
	},
	"UnitSubJob": {
		"ja": "ユニット：サブジョブ",
		"en": "Unit: Sub Job"
	},
	"UnitAbilitySet": {
		"ja": "ユニット：アビリティセット",
		"en": "Unit: Ability Set"
	},
	"EventQuest": {
		"ja": "イベントクエスト",
		"en": "Event Quests"
	},
	"VisionCard": {
		"ja": "ビジョンカード",
		"en": "Vision Cards"
	},
	"ExplorationChocobo": {
		"ja": "探検チョコボ",
		"en": "Chocobo Expedition"
	},
	"NetherBeast": {
		"ja": "召喚獣",
		"en": "Espers"
	},
	"NBeastQuest": {
		"ja": "強敵の間",
		"en": "Beast's Den"
	},
	"MultiQuest": {
		"ja": "マルチクエスト",
		"en": "Multi Quests"
	},
	"Guild": {
		"ja": "ギルド",
		"en": "Guilds"
	},
	"Arena": {
		"ja": "アリーナ",
		"en": "Arena"
	},
	"Match": {
		"ja": "マッチバトル",
		"en": "Match Battles"
	},
	"SupportUnit": {
		"ja": "同行者設定",
		"en": "Companion Settings"
	},
	"Mission": {
		"ja": "ミッション",
		"en": "Missions"
	},
	"HardQuest": {
		"ja": "ハードクエスト",
		"en": "Hard Quests"
	},
	"CharaQuest": {
		"ja": "キャラクタークエスト",
		"en": "Character Quests"
	},
	"ItemExchange": {
		"ja": "素材交換",
		"en": "Stock exchange"
	},
	"Tower": {
		"ja": "白磁の塔",
		"en": "Tower of white porcelain"
	}
}