{
	"Party": {
		"ja": "ストーリークエスト第１章第１節<br>「双子の王子」<br>をクリアすると解放",
		"en": "Unlocked after clearing<br>Story Quest Chapter 1, Scene 1<br>[Twin Princes]"
	},
	"Unit": {
		"ja": "ストーリークエスト第１章第１節<br>「双子の王子」<br>をクリアすると解放",
		"en": "Unlocked after clearing<br>Story Quest Chapter 1, Scene 1<br>[Twin Princes]"
	},
	"UnitJobStrength": {
		"ja": "ストーリークエスト第１章第１節<br>「双子の王子」<br>をクリアすると解放",
		"en": "Unlocked after clearing<br>Story Quest Chapter 1, Scene 1<br>[Twin Princes]"
	},
	"UnitAbilitybord": {
		"ja": "ストーリークエスト第１章第１節<br>「双子の王子」<br>をクリアすると解放",
		"en": "Unlocked after clearing<br>Story Quest Chapter 1, Scene 1<br>[Twin Princes]"
	},
	"UnitAbilityStrength": {
		"ja": "ストーリークエスト第１章第１節<br>「双子の王子」<br>をクリアすると解放",
		"en": "Unlocked after clearing<br>Story Quest Chapter 1, Scene 1<br>[Twin Princes]"
	},
	"UnitStrengthLB": {
		"ja": "ストーリークエスト第１章第１節<br>「双子の王子」<br>をクリアすると解放",
		"en": "Unlocked after clearing<br>Story Quest Chapter 1, Scene 1<br>[Twin Princes]"
	},
	"UnitAwake": {
		"ja": "ストーリークエスト第１章第１節<br>「血と滅びの予感」<br>をクリアすると解放",
		"en": "Unlocked after clearing<br>Story Quest Chapter 1, Scene 1<br>[Premonition of Blood and Ruin]"
	},
	"UnitRank": {
		"ja": "ストーリークエスト第１章第１節<br>「血と滅びの予感」<br>をクリアすると解放",
		"en": "Unlocked after clearing<br>Story Quest Chapter 1, Scene 1<br>[Premonition of Blood and Ruin]"
	},
	"Artifact": {
		"ja": "ストーリークエスト第１章第１節<br>「共闘」<br>をクリアすると解放",
		"en": "Unlocked after clearing<br>Story Quest Chapter 1, Scene 1<br>[United Front]"
	},
	"ArtifactCraft": {
		"ja": "ストーリークエスト第１章第１節<br>「共闘」<br>をクリアすると解放",
		"en": "Unlocked after clearing<br>Story Quest Chapter 1, Scene 1<br>[United Front]"
	},
	"ArtifactAwake": {
		"ja": "ストーリークエスト第１章第１節<br>「共闘」<br>をクリアすると解放",
		"en": "Unlocked after clearing<br>Story Quest Chapter 1, Scene 1<br>[United Front]"
	},
	"UnitArtifactFav": {
		"ja": "ストーリークエスト第１章第１節<br>「共闘」<br>をクリアすると解放",
		"en": "Unlocked after clearing<br>Story Quest Chapter 1, Scene 1<br>[United Front]"
	},
	"UnitSubJob": {
		"ja": "ストーリークエスト第１章第１節<br>「血と滅びの予感」<br>をクリアすると解放",
		"en": "Unlocked after clearing<br>Story Quest Chapter 1, Scene 1<br>[Premonition of Blood and Ruin]"
	},
	"UnitAbilitySet": {
		"ja": "ストーリークエスト第１章第１節<br>「血と滅びの予感」<br>をクリアすると解放",
		"en": "Unlocked after clearing<br>Story Quest Chapter 1, Scene 1<br>[Premonition of Blood and Ruin]"
	},
	"EventQuest": {
		"ja": "ストーリークエスト第１章第１節<br>「リオニスの流儀」<br>をクリアすると解放",
		"en": "Unlocked after clearing<br>Story Quest Chapter 1, Scene 1<br>[Do As the Lions Do]"
	},
	"VisionCard": {
		"ja": "ストーリークエスト第１章第１節<br>「友好の証」<br>をクリアすると解放",
		"en": "Unlocked after clearing<br>Story Quest Chapter 1, Scene 1<br>[Proof of Trust]"
	},
	"ExplorationChocobo": {
		"ja": "ストーリークエスト第１章第１節<br>「強さを見せてみよ」<br>をクリアすると解放",
		"en": "Unlocked after clearing<br>Story Quest Chapter 1, Scene 1<br>[Show Me Strength]"
	},
	"NetherBeast": {
		"ja": "ストーリークエスト第１章第１節<br>「強さを見せてみよ」<br>をクリアすると解放",
		"en": "Unlocked after clearing<br>Story Quest Chapter 1, Scene 1<br>[Show Me Strength]"
	},
	"NBeastQuest": {
		"ja": "ストーリークエスト第１章第１節<br>「強さを見せてみよ」<br>をクリアすると解放",
		"en": "Unlocked after clearing<br>Story Quest Chapter 1, Scene 1<br>[Show Me Strength]"
	},
	"MultiQuest": {
		"ja": "ストーリークエスト第１章第１節<br>「力ずくで奪え」をクリア<br>かつ<br>プレイヤーRank10<br>になると解放",
		"en": "Unlocked after clearing<br>Story Quest Chapter 1, Scene 1<br>[Prove Your Worth]<br>and reaching Player Rank 10"
	},
	"Guild": {
		"ja": "プレイヤーRank10になると解放",
		"en": "Unlocked at Player Rank 10"
	},
	"Arena": {
		"ja": "プレイヤーRank12になると解放",
		"en": "Unlocked at Player Rank 12"
	},
	"Match": {
		"ja": "プレイヤーRank15になると解放",
		"en": "Unlocked at Player Rank 15"
	},
	"SupportUnit": {
		"ja": "本バージョンではプレイできません",
		"en": "Cannot be played on this version"
	},
	"Mission": {
		"ja": "本バージョンではプレイできません",
		"en": "Cannot be played on this version"
	},
	"HardQuest": {
		"ja": "ストーリークエスト第１章第１節<br>「友好の証」<br>をクリアすると解放",
		"en": "Unlocked after clearing<br>Story Quest Chapter 1, Scene 1<br>[Proof of Trust]"
	},
	"CharaQuest": {
		"ja": "ストーリークエスト第１章第１節<br>「友好の証」<br>をプレイすると解放",
		"en": "Unlocked after clearing<br>Story Quest Chapter 1, Scene 1<br>[Proof of Trust]"
	},
	"ItemExchange": {
		"ja": "近日公開予定です",
		"en": "It is coming soon"
	},
	"Tower": {
		"ja": "ストーリークエスト第１章第１節<br>「力ずくで奪え」をクリア<br>かつ<br>プレイヤーRank10<br>になると解放",
		"en": "Release the story Quest Chapter 1, Section 1 <br> the \"Steal by force\" become clear <br> and <br> player Rank10 <br>"
	}
}